<svg width="110" height="110" viewBox="0 0 110 110" fill="none" xmlns="http://www.w3.org/2000/svg">
<rect width="110" height="110" rx="28" fill="white"/>
<path fill-rule="evenodd" clip-rule="evenodd" d="M25.539 107.84C32.8113 108.784 42.2535 108.786 55 108.786C67.7465 108.786 77.1887 108.784 84.461 107.84C91.701 106.9 96.6152 105.045 100.402 101.464C100.766 101.12 101.12 100.766 101.464 100.402C105.045 96.6152 106.9 91.701 107.84 84.461C108.784 77.1887 108.786 67.7465 108.786 55C108.786 42.2535 108.784 32.8113 107.84 25.539C106.9 18.299 105.045 13.3848 101.464 9.59796C101.12 9.23395 100.766 8.87967 100.402 8.53553C96.6152 4.9554 91.701 3.10036 84.461 2.16038C77.1887 1.21619 67.7465 1.21379 55 1.21379C42.2535 1.21379 32.8113 1.21619 25.539 2.16038C18.299 3.10036 13.3848 4.9554 9.59796 8.53553C9.23395 8.87967 8.87967 9.23395 8.53553 9.59796C4.9554 13.3848 3.10036 18.299 2.16038 25.539C1.21619 32.8113 1.21379 42.2535 1.21379 55C1.21379 67.7465 1.21619 77.1887 2.16038 84.461C3.10036 91.701 4.9554 96.6152 8.53553 100.402C8.87967 100.766 9.23395 101.12 9.59796 101.464C13.3848 105.045 18.299 106.9 25.539 107.84ZM7.65351 8.76409C0 16.8595 0 29.573 0 55C0 80.427 0 93.1405 7.65351 101.236C8.01325 101.616 8.38358 101.987 8.76409 102.346C16.8595 110 29.573 110 55 110C80.427 110 93.1405 110 101.236 102.346C101.616 101.987 101.987 101.616 102.346 101.236C110 93.1405 110 80.427 110 55C110 29.573 110 16.8595 102.346 8.76409C101.987 8.38358 101.616 8.01325 101.236 7.65351C93.1405 0 80.427 0 55 0C29.573 0 16.8595 0 8.76409 7.65351C8.38358 8.01325 8.01325 8.38358 7.65351 8.76409Z" fill="#00103D" fill-opacity="0.12"/>
<path d="M17.5476 74.907L17.0238 70.1927L24.3571 68.8832L25.9286 78.5737L17.2857 80.1451C17.8095 78.5737 17.8095 76.7403 17.5476 74.907ZM33.5238 84.3356L32.2143 77.526L29.8571 78.0499L27.5 64.6927L12.3095 67.3118L13.3571 75.1689C13.619 77.0022 13.619 79.0975 12.5714 80.9308L11 81.1927L12.3095 88.0022L16.5 87.2165L15.7143 84.0737L28.8095 81.7165L29.3333 85.1213L33.5238 84.3356ZM41.381 62.3356L32.2143 63.907L35.0952 80.6689L39.2857 79.8832L38.2381 73.8594L43.4762 73.0737C47.1429 72.5499 49.2381 70.1927 48.7143 66.526C47.9286 62.8594 45.0476 61.5499 41.381 62.3356ZM37.4524 70.4546L36.6667 66.526L41.9048 65.4784C43.2143 65.2165 44 65.7403 44.2619 67.0499C44.5238 68.3594 44 69.1451 42.6905 69.407L37.4524 70.4546ZM52.381 60.2403L50.0238 78.0499L54.2143 77.2641L54.4762 74.3832L59.9762 73.3356L61.2857 75.9546L65.4762 75.1689L57.0952 59.4546L52.381 60.2403ZM58.4048 70.4546L54.7381 70.9784L55.2619 63.6451L58.4048 70.4546ZM68.3571 57.3594L64.4286 58.1451L67.3095 74.907L71.7619 74.1213L76.4762 61.5499L78.3095 73.0737L82.2381 72.288L79.3571 55.526L74.9048 56.3118L70.1905 68.8832L68.3571 57.3594ZM65.4762 53.9546L66 56.8356L77.5238 53.4308L77.2619 51.8594L65.4762 53.9546ZM83.0238 55.0022L85.9048 71.7641L97.4286 69.6689C101.095 69.1451 103.714 67.0499 102.929 63.907C102.667 62.3356 101.357 61.026 99.7857 60.5022C100.833 59.7165 101.357 58.1451 101.095 56.5737C100.571 53.1689 97.4286 52.3832 94.0238 52.907L83.0238 55.0022ZM88.2619 60.7641L87.7381 57.6213L94.8095 56.3118C96.119 56.0499 96.9047 56.5737 97.1667 57.6213C97.4286 58.6689 96.9048 59.4546 95.5952 59.7165L88.2619 60.7641ZM89.5714 67.5737L89.0476 64.1689L96.3809 62.8594C97.6905 62.5975 98.4762 62.8594 98.7381 64.1689C99 65.4784 98.4762 66.0022 97.1667 66.2641L89.5714 67.5737Z" fill="#32D264"/>
<path d="M36.9271 51.0738L32.7366 50.0262C31.9509 52.3834 30.1175 53.1691 27.4985 53.6929C23.5699 54.4786 21.2128 53.1691 20.689 49.7643V49.5024C20.1652 46.0977 21.7366 44.0024 25.9271 43.4786C28.2842 42.9548 30.3795 43.2167 31.9509 45.3119L35.6175 42.9548C32.9985 39.2881 29.3318 39.2881 25.1414 40.0738C18.8556 41.1215 15.4509 45.05 16.2366 50.2881V50.8119C17.0223 56.05 21.7366 58.6691 28.0223 57.6215C32.2128 56.8358 35.6175 55.2643 36.9271 51.0738ZM40.8556 37.4548L37.189 38.2405L40.0699 55.0024L44.5223 54.2167L47.6652 41.9072L49.4985 53.431L53.1652 52.6453L50.2842 35.8834L45.5699 36.6691L42.4271 48.9786L40.8556 37.4548ZM57.3556 37.9786L59.7128 51.3358L63.6414 50.55L61.2842 37.1929L65.7366 36.4072L65.2128 33.0024L52.3795 35.3596L52.9033 38.7643L57.3556 37.9786ZM71.4985 31.9548L67.308 32.7405L70.189 49.5024L74.6414 48.7167L82.4985 35.3596L84.5937 47.1453L88.7842 46.3596L85.9033 29.5977L81.4509 30.3834L73.5937 43.7405L71.4985 31.9548Z" fill="#54008C"/>
</svg>
