<svg width="68" height="68" viewBox="0 0 68 68" fill="none" xmlns="http://www.w3.org/2000/svg">
<rect width="68" height="68" rx="16" fill="white"/>
<rect x="0.405855" y="0.405855" width="67.1883" height="67.1883" rx="15.5941" stroke="#00103D" stroke-opacity="0.12" stroke-width="0.81171"/>
<path fill-rule="evenodd" clip-rule="evenodd" d="M53.5998 25.6935C53.5998 24.5185 52.5248 23.5645 51.1998 23.5645C49.8738 23.5645 48.7998 24.5185 48.7998 25.6945V50.1305C48.7998 51.3075 49.8738 52.2605 51.1998 52.2605C52.5248 52.2605 53.5998 51.3075 53.5998 50.1305V25.6935Z" fill="url(#paint0_linear)"/>
<path fill-rule="evenodd" clip-rule="evenodd" d="M45.1999 19.8269C45.1999 18.5909 44.1259 17.5869 42.7999 17.5869C41.4749 17.5869 40.3999 18.5909 40.3999 19.8269V50.0209C40.3999 51.2579 41.4749 52.2609 42.7999 52.2609C44.1259 52.2609 45.1999 51.2579 45.1999 50.0209V19.8269Z" fill="url(#paint1_linear)"/>
<path fill-rule="evenodd" clip-rule="evenodd" d="M33.5198 14H33.5268C33.9968 14.002 34.4318 14.155 34.7848 14.412C34.9978 14.564 35.1838 14.758 35.3318 14.987C35.5138 15.267 35.6328 15.59 35.6698 15.937L35.6718 15.947V15.949C35.6788 16.022 35.6818 16.095 35.6818 16.168V50.092C35.6823 50.3764 35.6268 50.6582 35.5185 50.9212C35.4101 51.1842 35.251 51.4233 35.0502 51.6248C34.8495 51.8263 34.611 51.9863 34.3484 52.0956C34.0858 52.2049 33.8042 52.2615 33.5198 52.262H16.1678C15.5934 52.2607 15.0431 52.0314 14.6377 51.6245C14.2323 51.2176 14.005 50.6664 14.0058 50.092V24.647C13.974 24.2123 14.0737 23.7782 14.292 23.4009C14.5103 23.0237 14.8371 22.7209 15.2298 22.532L32.5568 14.229C32.7588 14.129 32.9788 14.057 33.2098 14.025L33.2178 14.023H33.2238L33.2318 14.021C33.3278 14.007 33.4228 14.003 33.5168 14.001H33.5198V14ZM18.3298 25.854V47.924H31.3588V19.609L18.3288 25.853L18.3298 25.854Z" fill="url(#paint2_linear)"/>
<defs>
<linearGradient id="paint0_linear" x1="53.8038" y1="57.4105" x2="53.8038" y2="26.2735" gradientUnits="userSpaceOnUse">
<stop stop-color="#5F11F2"/>
<stop offset="1" stop-color="#AA43CD"/>
</linearGradient>
<linearGradient id="paint1_linear" x1="45.4039" y1="58.4829" x2="45.4039" y2="20.8599" gradientUnits="userSpaceOnUse">
<stop stop-color="#FF5B6F"/>
<stop offset="1" stop-color="#FF9852"/>
</linearGradient>
<linearGradient id="paint2_linear" x1="12.6888" y1="32.076" x2="32.5518" y2="47.363" gradientUnits="userSpaceOnUse">
<stop stop-color="#49DEFF"/>
<stop offset="1" stop-color="#007CFF"/>
</linearGradient>
</defs>
</svg>
