<svg width="69" height="68" viewBox="0 0 69 68" fill="none" xmlns="http://www.w3.org/2000/svg">
<rect width="69" height="68" rx="16" fill="black"/>
<path fill-rule="evenodd" clip-rule="evenodd" d="M34.3316 21.319C35.2861 21.9325 36.9716 23.3702 38.7807 25.1531C40.5549 26.9015 41.9923 28.5328 42.6343 29.4824C44.5527 32.2439 44.5669 35.9085 42.6764 38.6841C42.056 39.6238 40.5943 41.2887 38.7807 43.076C36.9671 44.8633 35.2778 46.3038 34.3242 46.9152C31.5058 48.7796 27.784 48.7644 24.9811 46.8696C24.0167 46.2349 22.3646 44.8207 20.5942 43.0759C18.7888 41.2967 17.3321 39.6387 16.7075 38.697C14.8659 36.0012 14.8244 32.4627 16.5827 29.7281C17.1198 28.8334 18.6561 27.0632 20.5942 25.1532C22.5323 23.2432 24.3286 21.7291 25.2365 21.1998C28.0094 19.4682 31.5969 19.5078 34.3316 21.319Z" fill="url(#paint0_radial)"/>
<path fill-rule="evenodd" clip-rule="evenodd" d="M46.6684 23.8775C47.432 24.3683 48.7804 25.5186 50.2277 26.9449C51.647 28.3436 52.7969 29.6486 53.3106 30.4083C54.8453 32.6175 54.8567 35.5492 53.3442 37.7696C52.848 38.5214 51.6786 39.8533 50.2277 41.2831C48.7768 42.713 47.4253 43.8654 46.6625 44.3545C44.4078 45.846 41.4303 45.8339 39.188 44.318C38.4165 43.8103 37.0948 42.6789 35.6785 41.2831C34.2341 39.8597 33.0688 38.5333 32.5691 37.78C31.0958 35.6233 31.0626 32.7925 32.4693 30.6048C32.8989 29.889 34.128 28.4729 35.6785 26.9449C37.229 25.4169 38.666 24.2056 39.3923 23.7822C41.6106 22.3969 44.4806 22.4286 46.6684 23.8775Z" fill="url(#paint1_radial)"/>
<path fill-rule="evenodd" clip-rule="evenodd" d="M38.2329 24.6187C38.4134 24.7921 38.5958 24.9695 38.7795 25.1506C40.5536 26.899 41.991 28.5303 42.633 29.4798C44.5515 32.2414 44.5656 35.906 42.6751 38.6816C42.0548 39.6213 40.593 41.2862 38.7795 43.0735C38.5975 43.2528 38.4168 43.4287 38.238 43.6005C37.5147 43.0122 36.6169 42.2026 35.6773 41.2767C34.233 39.8533 33.0676 38.5269 32.5679 37.7736C31.0947 35.6169 31.0615 32.7861 32.4681 30.5984C32.8978 29.8826 34.1269 28.4665 35.6773 26.9385C36.6146 26.0148 37.5104 25.2068 38.2329 24.6187Z" fill="#FF0D2A"/>
<defs>
<radialGradient id="paint0_radial" cx="0" cy="0" r="1" gradientUnits="userSpaceOnUse" gradientTransform="translate(44.3 34.8019) rotate(180) scale(29.1938 28.7706)">
<stop offset="0.373134" stop-color="#FF0D0D" stop-opacity="0.51"/>
<stop offset="1" stop-color="#FF0D2A"/>
</radialGradient>
<radialGradient id="paint1_radial" cx="0" cy="0" r="1" gradientUnits="userSpaceOnUse" gradientTransform="translate(33.0109 34.0585) scale(21.3929 21.0827)">
<stop offset="0.329713" stop-color="#FF0000" stop-opacity="0.38"/>
<stop offset="1" stop-color="#FF001F" stop-opacity="0.88"/>
</radialGradient>
</defs>
</svg>
