<svg width="68" height="68" viewBox="0 0 68 68" fill="none" xmlns="http://www.w3.org/2000/svg">
<rect width="68" height="68" rx="16" fill="white"/>
<rect x="0.405855" y="0.405855" width="67.1883" height="67.1883" rx="15.5941" stroke="#00103D" stroke-opacity="0.12" stroke-width="0.81171"/>
<path d="M33.5782 40.9988L43.9907 51.4916L33.6224 61.94L23.21 51.4471L33.5782 40.9988Z" fill="#602B7A"/>
<path d="M33.4901 23.5125L37.2629 33.9927H29.7173L33.4901 23.5125Z" fill="#602B7A"/>
<path fill-rule="evenodd" clip-rule="evenodd" d="M53.9805 11H13V51.5178H53.9805V11ZM38.5943 38.0453L40.8674 43.3363H45.4755L35.7092 18.4023H31.2706L21.5057 43.3363H26.1511L28.3855 38.0453H38.5943Z" fill="#602B7A"/>
</svg>
