<svg width="229" height="35" viewBox="0 0 229 35" fill="none" xmlns="http://www.w3.org/2000/svg">
<path d="M11.3167 29.8495H6.03266V6.07769H11.3167V2.11572H1.20703V33.8114H11.3167V29.8495Z" fill="white" stroke="white" stroke-miterlimit="10"/>
<path d="M27.7889 17.6465L34.5367 10.0396H29.5503L23.9525 16.3787H22.3842V10.0396H17.5586V26.6798H22.3842V20.3407H24.3627L29.8559 26.6798H35.2526V22.7178H31.955L27.7889 17.6465Z" fill="white" stroke="white" stroke-miterlimit="10"/>
<path d="M53.1486 11.8859C52.3432 11.0958 51.375 10.4851 50.3096 10.0951C49.0888 9.65624 47.7967 9.44139 46.4973 9.46122C45.2469 9.4451 44.0032 9.64352 42.8218 10.0476C41.7559 10.4108 40.7848 11.0021 39.9783 11.7789C39.1718 12.5557 38.5498 13.4988 38.157 14.5405C37.707 15.7365 37.4888 17.0052 37.5136 18.2806C37.498 19.5092 37.6966 20.7314 38.1007 21.8939C38.4706 22.939 39.0692 23.8912 39.8541 24.6831C40.6548 25.4733 41.6209 26.0818 42.6851 26.466C43.9048 26.9089 45.1976 27.1239 46.4973 27.0999C47.7499 27.1179 48.9961 26.9222 50.1809 26.5214C51.2467 26.1597 52.2175 25.5688 53.0229 24.7918C53.8283 24.0147 54.4482 23.0708 54.8376 22.0286C55.2877 20.8298 55.5059 19.5585 55.481 18.2806C55.496 17.0545 55.2974 15.835 54.8939 14.6752C54.5238 13.632 53.9283 12.6804 53.1486 11.8859ZM49.7064 22.187C49.2853 22.6 48.7822 22.923 48.2287 23.1357C47.6751 23.3484 47.083 23.4462 46.4893 23.4232C45.8454 23.4359 45.2071 23.3031 44.6234 23.0349C44.0833 22.7797 43.6079 22.4088 43.232 21.9493C42.8385 21.4642 42.5411 20.9105 42.3553 20.317C42.1436 19.6559 42.0404 18.9658 42.0497 18.2726C42.0321 17.4805 42.1462 16.6909 42.3875 15.9351C42.5847 15.3493 42.9023 14.8098 43.3205 14.3503C43.7033 13.9317 44.1875 13.6155 44.7279 13.4311C45.2939 13.2365 45.8898 13.14 46.4893 13.1458C47.1116 13.115 47.7328 13.2271 48.3036 13.4732C48.8745 13.7194 49.3795 14.0929 49.7788 14.5642C50.5885 15.6369 50.9951 16.9533 50.9289 18.2885C50.9342 20.0634 50.5267 21.363 49.7064 22.187Z" fill="white" stroke="white" stroke-width="0.5" stroke-miterlimit="10"/>
<path d="M73.0542 10.0396H61.5209C61.5214 11.8135 61.4193 13.5861 61.2153 15.3486C61.0564 16.6178 60.8119 17.8752 60.4834 19.1125C60.2848 19.9261 60.0158 20.7214 59.6791 21.4896C59.3976 22.0839 59.1644 22.7099 58.9794 22.7099H56.9688V30.6338H60.9901V26.6719H72.2499V30.6338H76.2713V22.7099H73.0542V10.0396ZM69.0328 22.7178H63.3547C63.6201 22.7178 63.8694 21.7353 64.0946 21.0063C64.3198 20.2773 64.5209 19.5403 64.6897 18.7004C64.8586 17.8605 65.0034 16.8224 65.116 15.9191C65.2614 15.0227 65.3394 14.1169 65.3493 13.2091H69.0328V22.7178Z" fill="white" stroke="white" stroke-miterlimit="10"/>
<path d="M79.4883 30.6421H94.7694V33.8117H79.4883V30.6421Z" fill="white" stroke="white" stroke-miterlimit="10"/>
<path d="M117.023 10.0317H105.361C105.362 11.7609 105.26 13.4886 105.055 15.2061C104.894 16.4566 104.649 17.6954 104.323 18.9145C104.123 19.7611 103.854 20.5904 103.519 21.3947C103.238 21.981 103.004 21.9176 102.819 22.71H100.938V30.634H104.155V26.672H116.219V30.634H119.436V22.71H117.023V10.0317ZM113.002 22.71H107.155C107.428 21.9176 107.677 21.6007 107.902 20.8638C108.142 20.0818 108.34 19.2884 108.498 18.4866C108.667 17.6466 108.811 16.7037 108.924 15.8083C109.037 14.9129 109.109 13.9858 109.157 13.1934H113.002V22.71Z" fill="white" stroke="white" stroke-miterlimit="10"/>
<path d="M136.84 11.6086C136.036 10.8202 135.071 10.2097 134.009 9.81779C132.788 9.3789 131.496 9.16405 130.196 9.18387C128.943 9.1678 127.697 9.36621 126.513 9.77024C125.455 10.1374 124.49 10.7237 123.682 11.4897C122.878 12.2755 122.253 13.2209 121.848 14.2631C121.401 15.4628 121.183 16.7334 121.205 18.0111C121.192 19.2376 121.393 20.4571 121.8 21.6165C122.167 22.6612 122.762 23.6135 123.545 24.4057C124.349 25.1942 125.314 25.8047 126.376 26.1966C127.6 26.6354 128.894 26.8502 130.196 26.8305C131.447 26.8459 132.69 26.6475 133.872 26.2441C134.938 25.8809 135.909 25.2896 136.715 24.5128C137.522 23.736 138.144 22.7929 138.537 21.7512C138.983 20.5541 139.201 19.2862 139.18 18.0111C139.193 16.782 138.992 15.5598 138.585 14.3978C138.221 13.3517 137.625 12.3989 136.84 11.6086ZM133.397 21.9097C132.977 22.3235 132.474 22.6469 131.92 22.8597C131.366 23.0724 130.774 23.1699 130.18 23.1458C129.536 23.1603 128.897 23.0274 128.314 22.7576C127.773 22.5046 127.297 22.1334 126.923 21.672C126.527 21.1873 126.227 20.6336 126.038 20.0397C125.831 19.3803 125.728 18.6935 125.733 18.0032C125.711 17.1979 125.825 16.3945 126.07 15.626C126.268 15.0402 126.585 14.5008 127.003 14.0412C127.39 13.6267 127.873 13.3112 128.411 13.1221C128.98 12.9281 129.578 12.8316 130.18 12.8368C130.81 12.8006 131.439 12.9109 132.018 13.1587C132.596 13.4064 133.107 13.7848 133.51 14.2631C134.316 15.3405 134.722 16.6581 134.66 17.9953C134.636 19.8099 134.226 21.0935 133.397 21.9176V21.9097Z" fill="white" stroke="white" stroke-width="0.5" stroke-miterlimit="10"/>
<path d="M157.543 11.9258C156.829 11.281 155.985 10.7923 155.066 10.4916C154.12 10.1762 153.128 10.0182 152.13 10.0241C150.908 9.95398 149.683 10.1099 148.519 10.4837C147.417 10.9255 146.416 11.5802 145.575 12.4092H145.471C145.604 11.4927 145.875 10.6008 146.275 9.76261C146.63 9.12095 147.141 8.57634 147.763 8.17782C148.383 7.78729 149.074 7.51825 149.798 7.38543C150.594 7.22988 151.4 7.12664 152.21 7.0764C153.634 6.96546 154.76 6.83868 155.596 6.68812C156.3 6.59024 156.967 6.31756 157.535 5.89573L157.366 2.06055C156.829 2.48821 156.184 2.76233 155.5 2.85294C154.5 3.04335 153.49 3.18353 152.476 3.27291C151.575 3.36007 150.682 3.47893 149.814 3.60571C148.965 3.73411 148.136 3.96567 147.345 4.2951C146.557 4.62288 145.825 5.06638 145.173 5.61047C144.439 6.25985 143.843 7.0463 143.42 7.92426C142.87 9.01054 142.48 10.1685 142.262 11.3632C141.968 12.9844 141.834 14.6296 141.859 16.2761C141.823 17.8841 142.04 19.488 142.503 21.0304C142.869 22.2495 143.497 23.3765 144.345 24.3347C145.139 25.1961 146.128 25.8611 147.232 26.2761C148.421 26.7098 149.68 26.9246 150.948 26.91C152.137 26.9172 153.318 26.7188 154.438 26.3236C155.497 25.9393 156.461 25.34 157.269 24.5645C158.094 23.7703 158.74 22.8147 159.167 21.7594C159.652 20.5465 159.89 19.2514 159.867 17.948C159.893 16.7429 159.677 15.5445 159.232 14.4219C158.86 13.4785 158.284 12.6266 157.543 11.9258ZM154.961 20.3331C154.752 20.9206 154.424 21.4599 153.996 21.9179C153.6 22.3291 153.12 22.6532 152.588 22.8688C152.044 23.0839 151.462 23.1916 150.875 23.1857C150.289 23.185 149.71 23.0579 149.178 22.8133C148.636 22.5708 148.152 22.22 147.755 21.7832C147.339 21.3135 147.007 20.7777 146.774 20.1984C146.512 19.5725 146.379 18.9021 146.379 18.2254C146.369 17.5819 146.501 16.9439 146.765 16.3553C147.009 15.8153 147.362 15.3299 147.803 14.929C148.234 14.5371 148.74 14.2328 149.291 14.0336C149.853 13.8219 150.45 13.7144 151.052 13.7166C151.602 13.7137 152.148 13.8132 152.661 14.0098C153.167 14.214 153.626 14.5157 154.012 14.8973C154.419 15.3018 154.736 15.7847 154.945 16.3157C155.179 16.9255 155.294 17.5735 155.283 18.2254C155.307 18.9414 155.198 19.6557 154.961 20.3331Z" fill="white" stroke="white" stroke-miterlimit="10"/>
<path d="M179.531 11.1886C178.923 10.5092 178.156 9.98688 177.295 9.66722C176.379 9.33401 175.409 9.16494 174.432 9.16801C171.81 9.16801 169.904 10.0317 168.73 11.6165H168.593L168.086 10.0317H162.062V13.2013H164.475V33.0111H169.301V26.1965C169.849 26.3954 170.411 26.5569 170.982 26.6799C171.666 26.7785 172.357 26.8288 173.049 26.8305C174.264 26.85 175.472 26.6346 176.604 26.1965C177.615 25.7885 178.52 25.16 179.25 24.3582C179.997 23.504 180.561 22.5093 180.907 21.4343C181.308 20.1868 181.503 18.8839 181.486 17.5753C181.515 16.2967 181.341 15.0214 180.971 13.7956C180.685 12.8356 180.194 11.9469 179.531 11.1886ZM176.604 20.0476C176.409 20.6941 176.083 21.2952 175.647 21.8146C175.266 22.2669 174.777 22.6182 174.223 22.8368C173.662 23.0535 173.064 23.1611 172.462 23.1537C171.854 23.1552 171.249 23.0806 170.66 22.9319C170.057 22.7892 169.301 22.5991 169.301 22.3534V15.4041C169.359 14.986 169.523 14.5892 169.779 14.251C170.035 13.9128 170.374 13.6443 170.765 13.4707C171.473 13.0491 172.286 12.8296 173.113 12.8368C173.632 12.8255 174.147 12.9277 174.622 13.1359C175.096 13.3442 175.517 13.6534 175.856 14.0412C176.634 15.0048 177.022 16.2193 176.942 17.4485C176.962 18.3267 176.849 19.2029 176.604 20.0476Z" fill="white" stroke="white" stroke-miterlimit="10"/>
<path d="M198.834 21.7991C198.794 21.2207 198.77 20.6898 198.77 20.2143C198.77 19.5883 198.81 18.8673 198.89 18.0669C198.971 17.2666 199.003 16.2999 199.003 15.1589C199.011 14.3543 198.897 13.553 198.665 12.7817C198.453 12.0904 198.075 11.4598 197.563 10.9433C197.002 10.3952 196.315 9.98757 195.561 9.75473C194.591 9.45448 193.577 9.31262 192.561 9.33476C191.141 9.31542 189.723 9.46171 188.338 9.77058C187.264 10.0252 186.214 10.3725 185.202 10.8086L186.247 14.2159C187.002 13.8766 187.779 13.5854 188.571 13.3443C189.575 13.0442 190.619 12.8972 191.668 12.9085C192.381 12.8542 193.091 13.0507 193.671 13.4631C194.169 13.8276 194.234 14.4378 194.234 15.2856V15.9196C194.234 16.1414 194.386 16.3633 194.346 16.5852C193.695 16.5455 193.236 16.498 192.786 16.4505C192.335 16.4029 191.982 16.3871 191.555 16.3871C190.514 16.3753 189.475 16.4817 188.459 16.704C187.601 16.8773 186.783 17.205 186.046 17.6707C185.4 18.0851 184.878 18.6624 184.534 19.3427C184.17 20.0996 183.991 20.93 184.011 21.7674C183.985 22.4286 184.105 23.0875 184.362 23.6988C184.619 24.3102 185.007 24.8596 185.499 25.3094C186.617 26.244 188.057 26.7205 189.521 26.6406C190.682 26.7273 191.846 26.5057 192.89 25.9988C193.674 25.6181 194.339 25.0347 194.813 24.311H194.982L195.424 26.6882H200.644V22.7262H198.914C198.914 22.7262 198.882 22.1081 198.834 21.7991ZM194.234 21.2127C194.234 21.6644 193.759 22.0764 193.22 22.4647C192.53 22.9097 191.71 23.116 190.888 23.0511C190.248 23.1103 189.609 22.926 189.102 22.536C188.917 22.3422 188.774 22.1126 188.682 21.8617C188.591 21.6108 188.553 21.344 188.571 21.078C188.566 20.7306 188.676 20.391 188.885 20.1113C189.097 19.8348 189.373 19.6121 189.689 19.4615C190.049 19.2836 190.434 19.1607 190.831 19.097C191.25 19.0182 191.676 18.9784 192.102 18.9782C192.53 18.9749 192.957 19.0014 193.381 19.0574C193.668 19.0702 193.952 19.1209 194.226 19.208L194.234 21.2127Z" fill="white" stroke="white" stroke-miterlimit="10"/>
<path d="M211.523 21.6169C210.802 21.5859 210.096 21.83 209.553 22.2984C209.3 22.5363 209.104 22.8253 208.976 23.1454C208.848 23.4655 208.792 23.8091 208.813 24.1525C208.795 24.4981 208.852 24.8434 208.979 25.1657C209.107 25.488 209.302 25.7801 209.553 26.0226C209.817 26.2632 210.127 26.4494 210.466 26.5705C210.804 26.6916 211.163 26.7451 211.523 26.7278C211.893 26.7492 212.263 26.6978 212.612 26.5767C212.962 26.4556 213.283 26.2673 213.558 26.0226C213.809 25.7805 214.006 25.4887 214.135 25.1664C214.264 24.8441 214.322 24.4986 214.306 24.1525C214.322 23.8088 214.264 23.4656 214.135 23.1459C214.006 22.8261 213.809 22.5371 213.558 22.2984C212.994 21.8217 212.265 21.5776 211.523 21.6169Z" fill="white" stroke="white" stroke-width="0.5" stroke-miterlimit="10"/>
<path d="M211.523 9.50916C210.801 9.47399 210.094 9.71858 209.553 10.1906C209.3 10.4285 209.104 10.7175 208.976 11.0377C208.848 11.3578 208.792 11.7014 208.813 12.0448C208.795 12.3903 208.852 12.7354 208.98 13.0577C209.107 13.38 209.303 13.6721 209.553 13.9149C210.089 14.397 210.797 14.6505 211.523 14.6201C212.269 14.6588 213.001 14.4053 213.558 13.9149C213.809 13.6724 214.005 13.3806 214.134 13.0584C214.263 12.7362 214.321 12.3908 214.306 12.0448C214.322 11.7011 214.264 11.3579 214.135 11.0381C214.006 10.7184 213.809 10.4294 213.558 10.1906C212.996 9.71103 212.265 9.46654 211.523 9.50916Z" fill="white" stroke="white" stroke-width="0.5" stroke-miterlimit="10"/>
<path d="M217.418 5.99859H222.702V29.7704H217.418V33.7323H227.528V2.03662H217.418V5.99859Z" fill="white" stroke="white" stroke-miterlimit="10"/>
</svg>
