<svg width="1348" height="674" viewBox="0 0 1348 674" fill="none" xmlns="http://www.w3.org/2000/svg">
<rect width="1348" height="674" fill="#075EDF"/>
<rect width="1348" height="674" fill="url(#paint0_linear)" fill-opacity="0.4"/>
<path d="M954.694 348V333.16H950.83V330.976H953.378C953.789 330.976 954.106 330.864 954.33 330.64C954.573 330.397 954.694 330.071 954.694 329.66V328.26H957.074V348H954.694ZM970.501 337.808C971.435 338.144 972.219 338.713 972.853 339.516C973.488 340.3 973.805 341.299 973.805 342.512C973.805 343.632 973.525 344.631 972.965 345.508C972.424 346.385 971.659 347.067 970.669 347.552C969.699 348.037 968.579 348.28 967.309 348.28C965.555 348.28 964.08 347.832 962.885 346.936C961.709 346.021 960.888 344.789 960.421 343.24L962.689 342.848C963.623 344.995 965.153 346.068 967.281 346.068C968.495 346.068 969.475 345.741 970.221 345.088C970.987 344.416 971.369 343.548 971.369 342.484C971.369 341.457 971.005 340.627 970.277 339.992C969.549 339.339 968.597 339.012 967.421 339.012H965.125V336.856H967.421C968.467 336.856 969.325 336.548 969.997 335.932C970.669 335.297 971.005 334.495 971.005 333.524C971.005 332.535 970.66 331.732 969.969 331.116C969.279 330.481 968.383 330.164 967.281 330.164C966.329 330.164 965.499 330.425 964.789 330.948C964.08 331.452 963.548 332.152 963.193 333.048L960.953 332.656C961.476 331.144 962.297 329.987 963.417 329.184C964.537 328.381 965.853 327.98 967.365 327.98C968.541 327.98 969.587 328.213 970.501 328.68C971.435 329.147 972.153 329.791 972.657 330.612C973.18 331.433 973.441 332.367 973.441 333.412C973.441 334.457 973.161 335.363 972.601 336.128C972.06 336.893 971.36 337.453 970.501 337.808ZM988.138 348H985.786V343.576H976.154V341.252L984.526 328.26H988.138V341.364H990.546V343.576H988.138V348ZM985.422 330.752L978.646 341.364H985.786V330.752H985.422ZM1003.15 337.808C1004.18 338.181 1004.99 338.788 1005.59 339.628C1006.2 340.449 1006.51 341.42 1006.51 342.54C1006.51 343.66 1006.22 344.659 1005.64 345.536C1005.07 346.395 1004.25 347.067 1003.21 347.552C1002.16 348.037 1000.96 348.28 999.596 348.28C998.233 348.28 997.02 348.037 995.956 347.552C994.911 347.067 994.099 346.395 993.52 345.536C992.941 344.659 992.652 343.66 992.652 342.54C992.652 341.42 992.951 340.449 993.548 339.628C994.145 338.788 994.957 338.181 995.984 337.808C995.144 337.397 994.472 336.809 993.968 336.044C993.464 335.26 993.212 334.383 993.212 333.412C993.212 332.348 993.473 331.405 993.996 330.584C994.537 329.763 995.293 329.128 996.264 328.68C997.235 328.232 998.345 328.008 999.596 328.008C1000.85 328.008 1001.95 328.232 1002.9 328.68C1003.87 329.128 1004.62 329.763 1005.14 330.584C1005.68 331.405 1005.95 332.348 1005.95 333.412C1005.95 334.401 1005.7 335.279 1005.2 336.044C1004.69 336.809 1004.01 337.397 1003.15 337.808ZM999.596 330.192C998.401 330.192 997.431 330.5 996.684 331.116C995.956 331.713 995.592 332.497 995.592 333.468C995.592 334.457 995.956 335.269 996.684 335.904C997.431 336.52 998.401 336.828 999.596 336.828C1000.77 336.828 1001.72 336.52 1002.45 335.904C1003.2 335.269 1003.57 334.457 1003.57 333.468C1003.57 332.497 1003.2 331.713 1002.45 331.116C1001.72 330.5 1000.77 330.192 999.596 330.192ZM999.596 346.068C1000.92 346.068 1001.99 345.732 1002.82 345.06C1003.64 344.388 1004.05 343.52 1004.05 342.456C1004.05 341.392 1003.64 340.533 1002.82 339.88C1001.99 339.227 1000.92 338.9 999.596 338.9C998.271 338.9 997.188 339.227 996.348 339.88C995.527 340.533 995.116 341.392 995.116 342.456C995.116 343.52 995.527 344.388 996.348 345.06C997.188 345.732 998.271 346.068 999.596 346.068ZM1010.68 348H1008.13L1012.97 340.636L1008.72 333.636H1011.29L1014.51 339.012H1014.93L1018.26 333.636H1020.78L1016.5 340.44L1021.29 348H1018.63L1014.99 342.008H1014.57L1010.68 348ZM1030.09 335.008C1031.36 335.008 1032.5 335.288 1033.51 335.848C1034.51 336.408 1035.3 337.192 1035.86 338.2C1036.44 339.189 1036.73 340.309 1036.73 341.56C1036.73 342.867 1036.43 344.033 1035.83 345.06C1035.23 346.068 1034.4 346.861 1033.34 347.44C1032.27 348 1031.06 348.28 1029.7 348.28C1028.32 348.28 1027.08 348.009 1026 347.468C1024.94 346.908 1024.11 346.133 1023.51 345.144C1022.91 344.136 1022.61 342.969 1022.61 341.644C1022.61 340.655 1022.8 339.665 1023.17 338.676C1023.57 337.668 1024.21 336.501 1025.11 335.176L1029.7 328.26H1032.5L1027.63 335.4C1028.3 335.139 1029.12 335.008 1030.09 335.008ZM1029.7 346.068C1031.06 346.068 1032.16 345.657 1033 344.836C1033.84 343.996 1034.26 342.913 1034.26 341.588C1034.26 340.263 1033.84 339.189 1033 338.368C1032.16 337.528 1031.06 337.108 1029.7 337.108C1028.34 337.108 1027.22 337.528 1026.37 338.368C1025.51 339.189 1025.08 340.263 1025.08 341.588C1025.08 342.913 1025.51 343.996 1026.37 344.836C1027.22 345.657 1028.34 346.068 1029.7 346.068ZM1042.38 348H1039.8L1047.76 330.864V330.5H1037.14V328.26H1050.33V330.78L1042.38 348ZM1062.9 348H1060.54V343.576H1050.91V341.252L1059.28 328.26H1062.9V341.364H1065.3V343.576H1062.9V348ZM1060.18 330.752L1053.4 341.364H1060.54V330.752H1060.18Z" fill="white"/>
<defs>
<linearGradient id="paint0_linear" x1="674" y1="337" x2="1348" y2="337" gradientUnits="userSpaceOnUse">
<stop stop-color="#00193F"/>
<stop offset="1" stop-opacity="0"/>
</linearGradient>
</defs>
</svg>
