<svg width="775" height="549" viewBox="0 0 775 549" fill="none" xmlns="http://www.w3.org/2000/svg">
<rect y="0.0410156" width="775" height="548.958" fill="#0C6EFF"/>
<path d="M342.694 268.899C341.854 268.899 340.958 269.011 340.23 269.291L345.102 262.151H342.302L337.71 269.067C335.946 271.699 335.218 273.547 335.218 275.535C335.218 279.567 338.13 282.171 342.302 282.171C346.418 282.171 349.33 279.399 349.33 275.451C349.33 271.643 346.558 268.899 342.694 268.899ZM342.302 279.959C339.558 279.959 337.682 278.139 337.682 275.479C337.682 272.819 339.558 270.999 342.302 270.999C345.018 270.999 346.866 272.819 346.866 275.479C346.866 278.139 345.018 279.959 342.302 279.959ZM363.79 281.891V279.567L354.242 279.651V279.287L360.15 273.715C362.278 271.727 363.65 270.103 363.65 267.611C363.65 264.279 361.186 261.871 357.686 261.871C354.27 261.871 352.058 264.167 351.162 267.275L353.374 267.639C354.046 265.707 355.362 264.055 357.602 264.055C359.73 264.055 361.158 265.511 361.158 267.639C361.158 269.319 360.29 270.551 358.722 272.035L351.33 278.979V281.891H363.79ZM377.03 281.891V277.467H379.438V275.255H377.03V262.151H373.418L365.046 275.143V277.467H374.678V281.891H377.03ZM374.314 264.643H374.678V275.255H367.538L374.314 264.643ZM382.917 281.891L386.809 275.899H387.229L390.869 281.891H393.529L388.741 274.331L393.025 267.527H390.505L387.173 272.903H386.753L383.533 267.527H380.957L385.213 274.527L380.369 281.891H382.917ZM406.698 281.891V277.467H409.106V275.255H406.698V262.151H403.086L394.714 275.143V277.467H404.346V281.891H406.698ZM403.982 264.643H404.346V275.255H397.206L403.982 264.643ZM423.05 281.891V277.467H425.458V275.255H423.05V262.151H419.438L411.066 275.143V277.467H420.698V281.891H423.05ZM420.334 264.643H420.698V275.255H413.558L420.334 264.643ZM439.505 281.891V279.567L429.957 279.651V279.287L435.865 273.715C437.993 271.727 439.365 270.103 439.365 267.611C439.365 264.279 436.901 261.871 433.401 261.871C429.985 261.871 427.773 264.167 426.877 267.275L429.089 267.639C429.761 265.707 431.077 264.055 433.317 264.055C435.445 264.055 436.873 265.511 436.873 267.639C436.873 269.319 436.005 270.551 434.437 272.035L427.045 278.979V281.891H439.505Z" fill="white"/>
</svg>
