<svg width="27" height="21" viewBox="0 0 27 21" fill="none" xmlns="http://www.w3.org/2000/svg">
<path d="M8.49113 21C18.6798 21 24.2527 12.92 24.2527 5.91304C24.2527 5.68355 24.2527 5.45506 24.2362 5.22762C25.3204 4.47701 26.2561 3.54761 27 2.48294C25.989 2.91175 24.9169 3.19297 23.8182 3.3172C24.9751 2.65453 25.8403 1.61226 26.2539 0.384359C25.1668 1.002 23.9769 1.43728 22.7361 1.67142C21.901 0.821327 20.7966 0.258414 19.5931 0.069792C18.3904 -0.118823 17.1553 0.0773664 16.0811 0.628C15.0061 1.17864 14.1502 2.05303 13.6468 3.11586C13.1435 4.17869 13.02 5.3707 13.2957 6.50746C11.0934 6.40175 8.93921 5.85389 6.97243 4.8995C5.00492 3.94506 3.27008 2.60538 1.87918 0.967414C1.17117 2.13472 0.953594 3.51658 1.27242 4.83162C1.59124 6.14667 2.42132 7.29606 3.59392 8.04569C2.71286 8.02073 1.85045 7.79307 1.07997 7.382C1.07997 7.40373 1.07997 7.42645 1.07997 7.44923C1.08069 8.67345 1.52301 9.8599 2.33299 10.8072C3.14297 11.7546 4.27033 12.4047 5.52408 12.6471C4.70835 12.86 3.85315 12.8911 3.02306 12.738C3.37707 13.7916 4.06641 14.713 4.99415 15.3733C5.92189 16.0335 7.04208 16.3996 8.19816 16.4204C6.23641 17.896 3.81365 18.6971 1.31837 18.6947C0.878194 18.6939 0.437302 18.6683 0 18.6182C2.53334 20.1743 5.481 20.9997 8.49113 20.9959" fill="#050B15"/>
</svg>
