<svg width="139" height="34" viewBox="0 0 139 34" fill="none" xmlns="http://www.w3.org/2000/svg">
<path d="M0.5 17.0327L138.001 17.0327" stroke="#00EDFF" stroke-linecap="round" stroke-linejoin="round"/>
<path d="M122.051 1L138.102 17.051L122.051 33.1019" stroke="#00EDFF" stroke-linecap="round" stroke-linejoin="round"/>
</svg>
