<svg width="32" height="32" viewBox="0 0 32 32" fill="none" xmlns="http://www.w3.org/2000/svg">
<rect width="32" height="32" rx="16" fill="#AFAFAF"/>
<rect x="14" y="8" width="10" height="10" rx="5" fill="white"/>
</svg>
