<svg width="210" height="210" viewBox="0 0 210 210" fill="none" xmlns="http://www.w3.org/2000/svg">
<circle cx="105" cy="105" r="105" fill="#004DFF"/>
<path d="M104.947 105L20 43.2825C39.7561 16.0907 71.3358 0 104.947 0V105Z" fill="#0095FF"/>
</svg>
