<svg width="51" height="52" viewBox="0 0 51 52" fill="none" xmlns="http://www.w3.org/2000/svg">
<path d="M25.5041 51.0007C20.7223 51.0005 16.0408 49.6293 12.0146 47.0496C7.98847 44.4698 4.78671 40.7899 2.78834 36.4457C0.789968 32.1016 0.079107 27.2755 0.739995 22.5397C1.40088 17.8038 3.4058 13.3568 6.51711 9.72571" stroke="#696D73" stroke-miterlimit="10"/>
<path d="M25.5039 1C30.2849 1.00174 34.9652 2.3741 38.9901 4.95445C43.015 7.53479 46.2158 11.215 48.2131 15.5588C50.2105 19.9026 50.9206 24.728 50.2594 29.463C49.5982 34.1981 47.5936 38.6444 44.4827 42.2749" stroke="#696D73" stroke-miterlimit="10"/>
<path d="M1.5 9.42615L6.91775 9.56784L6.77606 14.9856" stroke="#696D73" stroke-miterlimit="10"/>
<path d="M49.5174 42.5089L44.0996 42.3755L44.2413 36.9578" stroke="#696D73" stroke-miterlimit="10"/>
</svg>
