<svg width="231" height="80" viewBox="0 0 231 80" fill="none" xmlns="http://www.w3.org/2000/svg">
<path d="M118.683 74.4592V54.428C121.223 57.4609 125.807 60.7054 132.226 60.7054C142.735 60.7054 150.141 52.7352 150.141 41.6616C150.141 30.588 142.735 22.6178 132.226 22.6178C125.525 22.6178 120.87 26.1444 118.331 29.2479L116.638 23.3231H110.572V74.4592H118.683ZM130.251 53.4405C123.409 53.4405 118.683 48.5738 118.683 41.6616C118.683 34.7494 123.409 29.8826 130.251 29.8826C137.022 29.8826 141.677 34.7494 141.677 41.6616C141.677 48.5738 137.022 53.4405 130.251 53.4405Z" fill="black"/>
<path d="M172.156 22.6178C165.033 22.6178 158.755 26.2855 156.921 32.6334L164.398 33.903C165.526 31.646 168.065 29.53 171.733 29.53C176.177 29.53 178.786 32.7039 179.139 37.5002H171.239C160.448 37.5002 155.087 42.2258 155.087 48.997C155.087 55.8386 160.377 60.7054 167.854 60.7054C173.849 60.7054 177.87 57.2493 179.633 54.2164L181.326 60H187.321V39.4045C187.321 28.7541 181.537 22.6178 172.156 22.6178ZM169.758 53.8637C165.808 53.8637 163.269 51.8183 163.269 48.6443C163.269 45.823 165.315 43.8481 171.522 43.8481H179.21C179.21 49.8433 175.401 53.8637 169.758 53.8637Z" fill="black"/>
<path d="M211.459 49.7728H210.33L199.539 23.3231H190.863L207.156 61.9749L206.733 63.1035C205.675 66.0658 204.406 67.0533 201.725 67.0533H194.884L195.589 74.4592H201.161C207.932 74.4592 211.6 71.4263 214.069 64.5846L229.092 23.3231H220.84L211.459 49.7728Z" fill="black"/>
<path d="M0 38.4C0 20.2981 0 11.2471 5.62355 5.62355C11.2471 0 20.2981 0 38.4 0H41.6C59.7019 0 68.7529 0 74.3764 5.62355C80 11.2471 80 20.2981 80 38.4V41.6C80 59.7019 80 68.7529 74.3764 74.3765C68.7529 80 59.7019 80 41.6 80H38.4C20.2981 80 11.2471 80 5.62355 74.3765C0 68.7529 0 59.7019 0 41.6V38.4Z" fill="#0077FF"/>
<path d="M42.5667 57.6335C24.3334 57.6335 13.9335 45.1335 13.5001 24.3335H22.6334C22.9334 39.6002 29.6666 46.0668 35 47.4001V24.3335H43.6002V37.5001C48.8669 36.9334 54.3996 30.9335 56.2662 24.3335H64.8665C63.4332 32.4668 57.4331 38.4668 53.1665 40.9334C57.4331 42.9334 64.2668 48.1668 66.8668 57.6335H57.3999C55.3665 51.3001 50.3002 46.4001 43.6002 45.7334V57.6335H42.5667Z" fill="white"/>
</svg>
