<svg width="343" height="81" viewBox="0 0 343 81" fill="none" xmlns="http://www.w3.org/2000/svg">
<path d="M127.57 61.0726C135.259 61.0726 142.523 57.1228 145.274 49.4347L137.657 48.1652C136.034 51.4096 132.437 53.6667 128.064 53.6667C121.505 53.6667 116.92 48.8705 116.92 42.0288C116.92 35.1872 121.505 30.391 128.064 30.391C132.296 30.391 135.823 32.5775 137.374 35.7514L144.992 34.4818C142.312 26.9349 135.4 22.985 127.57 22.985C116.356 22.985 108.456 30.9552 108.456 42.0288C108.456 53.1024 116.356 61.0726 127.57 61.0726Z" fill="black"/>
<path d="M168.428 61.0726C179.924 61.0726 188.036 53.173 188.036 42.0288C188.036 30.8847 179.924 22.985 168.428 22.985C156.931 22.985 148.819 30.8847 148.819 42.0288C148.819 53.173 156.931 61.0726 168.428 61.0726ZM168.428 53.6667C161.797 53.6667 157.283 48.941 157.283 42.0288C157.283 35.1166 161.797 30.391 168.428 30.391C175.058 30.391 179.572 35.1166 179.572 42.0288C179.572 48.941 175.058 53.6667 168.428 53.6667Z" fill="black"/>
<path d="M203.198 60.3673V38.8549C203.198 33.8471 206.231 30.2499 210.463 30.2499C214.695 30.2499 217.587 33.8471 217.587 38.8549V60.3673H225.698V38.8549C225.698 33.8471 228.731 30.2499 232.963 30.2499C237.195 30.2499 240.087 33.8471 240.087 38.8549V60.3673H248.198V38.079C248.198 29.2624 242.767 22.985 235.079 22.985C229.366 22.985 225.487 26.3001 223.864 29.6151C222.031 25.5242 217.94 22.985 213.002 22.985C207.713 22.985 204.397 25.8769 202.634 28.9098L201.153 23.6904H195.087V60.3673H203.198Z" fill="black"/>
<path d="M279.016 61.0726C289.525 61.0726 296.931 53.1024 296.931 42.0288C296.931 30.9552 289.525 22.985 279.016 22.985C272.597 22.985 268.013 26.2295 265.474 29.2624V10.6418H257.362V60.3673H263.428L265.121 54.4425C267.66 57.546 272.315 61.0726 279.016 61.0726ZM277.041 53.8078C270.199 53.8078 265.474 48.941 265.474 42.0288C265.474 35.1166 270.199 30.2499 277.041 30.2499C283.812 30.2499 288.467 35.1166 288.467 42.0288C288.467 48.941 283.812 53.8078 277.041 53.8078Z" fill="black"/>
<path d="M321.478 61.0726C332.974 61.0726 341.086 53.173 341.086 42.0288C341.086 30.8847 332.974 22.985 321.478 22.985C309.981 22.985 301.87 30.8847 301.87 42.0288C301.87 53.173 309.981 61.0726 321.478 61.0726ZM321.478 53.6667C314.848 53.6667 310.333 48.941 310.333 42.0288C310.333 35.1166 314.848 30.391 321.478 30.391C328.108 30.391 332.622 35.1166 332.622 42.0288C332.622 48.941 328.108 53.6667 321.478 53.6667Z" fill="black"/>
<path d="M0 38.7672C0 20.6653 0 11.6143 5.62355 5.99074C11.2471 0.367188 20.2981 0.367188 38.4 0.367188H41.6C59.7019 0.367188 68.7529 0.367188 74.3765 5.99074C80 11.6143 80 20.6653 80 38.7672V41.9672C80 60.0691 80 69.1201 74.3765 74.7436C68.7529 80.3672 59.7019 80.3672 41.6 80.3672H38.4C20.2981 80.3672 11.2471 80.3672 5.62355 74.7436C0 69.1201 0 60.0691 0 41.9672V38.7672Z" fill="#0077FF"/>
<path d="M42.5667 58.0007C24.3334 58.0007 13.9335 45.5007 13.5001 24.7007H22.6334C22.9334 39.9674 29.6666 46.434 35 47.7673V24.7007H43.6002V37.8673C48.8669 37.3006 54.3996 31.3007 56.2662 24.7007H64.8665C63.4332 32.834 57.4331 38.834 53.1665 41.3006C57.4331 43.3006 64.2668 48.534 66.8668 58.0007H57.3999C55.3665 51.6673 50.3002 46.7673 43.6002 46.1006V58.0007H42.5667Z" fill="white"/>
</svg>
