<svg width="720" height="500" viewBox="0 0 720 500" fill="none" xmlns="http://www.w3.org/2000/svg">
<path d="M715.156 375.085H658.956L657.968 370.803H714.232L715.156 375.085Z" fill="white"/>
<path d="M357.883 0.0957031C348.885 51.2735 325.69 93.7262 282.771 124.425L281.518 125.228H329.924L330.985 124.031C336.826 117.162 342.972 110.502 348.322 103.263C368.464 76.0349 380.925 45.4166 387.336 12.2916C388.14 8.2745 388.71 4.20118 389.409 0.0957031H357.883Z" fill="white"/>
<path d="M199.143 0.0566406C191.639 46.1809 174.503 87.9186 144.728 124.249L143.852 125.237H175.659L176.567 123.759C182.505 114.118 188.828 104.606 194.138 94.603C207.678 69.0664 217.164 41.5799 222.258 13.1283C223.061 8.83 223.591 4.48348 224.258 0.0566406H199.143Z" fill="white"/>
<path d="M40.2111 0.0644531C34.9165 42.3725 25.5968 83.5076 11.0951 123.558L10.4443 125.237H30.5298L31.1404 123.446C31.3172 123.02 31.4939 122.498 31.7189 121.839C44.1693 85.2443 52.9879 47.5132 58.0469 9.19128C58.4486 6.1865 58.6736 3.15762 58.987 0.0644531H40.2111Z" fill="white"/>
<path d="M554.664 0H516.494L515.996 2.78789C515.65 4.39473 515.385 6.00157 515.048 7.60841C510.5 29.0918 502.997 49.4264 491.186 68.0335C475.463 92.7949 454.044 111.121 427.797 123.976C427.178 124.281 426.583 124.626 425.579 125.165C426.383 125.165 426.72 125.229 427.041 125.229H491.733L492.793 124.305C492.89 124.225 492.978 124.152 493.058 124.072L493.195 123.952L493.251 123.895C503.01 114.753 511.732 104.563 519.258 93.51C535.045 70.4036 545.184 44.9031 551.178 17.6833C552.367 12.3084 553.323 6.88532 554.391 1.47027L554.664 0Z" fill="white"/>
<path d="M675.346 0.111558C675.178 0.738225 675.041 1.26045 674.904 1.77464C672.205 11.8897 670.084 22.1895 666.718 32.0796C652.585 73.8574 625.599 104.154 584.946 121.902C582.583 122.938 580.189 123.902 577.811 124.899L577.008 125.236H658.547L660.716 122.962C672.365 111.573 682.425 98.6669 690.627 84.5911C703.562 62.5212 711.878 38.7158 717.076 13.7616C718.008 9.2625 718.803 4.73121 719.687 0.103516L675.346 0.111558Z" fill="white"/>
<path d="M357.883 499.888C348.885 448.703 325.69 406.258 282.771 375.559L281.518 374.756H329.924L330.985 375.953C336.826 382.822 342.972 389.491 348.322 396.729C368.464 423.957 380.925 454.576 387.336 487.701C388.14 491.718 388.71 495.783 389.409 499.896L357.883 499.888Z" fill="white"/>
<path d="M199.143 499.945C191.639 453.812 174.503 412.075 144.728 375.744L143.852 374.756H175.659L176.567 376.234C182.505 385.875 188.828 395.38 194.138 405.39C207.678 430.927 217.165 458.413 222.258 486.865C223.061 491.163 223.591 495.502 224.258 499.937L199.143 499.945Z" fill="white"/>
<path d="M40.2111 499.936C34.9165 457.628 25.5968 416.493 11.0951 376.443L10.4443 374.764H30.5298L31.1404 376.555C31.3172 376.981 31.4939 377.503 31.7189 378.162C44.1685 414.757 52.987 452.488 58.0469 490.81C58.4486 493.814 58.6736 496.851 58.987 499.944L40.2111 499.936Z" fill="white"/>
<path d="M554.664 500.001H516.494L515.996 497.205C515.65 495.598 515.385 493.991 515.048 492.384C510.5 470.893 502.997 450.566 491.186 431.951C475.463 407.198 454.044 388.864 427.797 376.009C427.178 375.712 426.583 375.366 425.579 374.828C426.383 374.828 426.72 374.764 427.041 374.764H491.733L492.793 375.688C492.89 375.76 492.978 375.84 493.058 375.913L493.195 376.041L493.251 376.097C503.01 385.239 511.732 395.429 519.258 406.483C535.045 429.589 545.184 455.089 551.178 482.309C552.367 487.684 553.323 493.107 554.391 498.514L554.664 500.001Z" fill="white"/>
<path d="M675.346 499.888L674.904 498.225C672.205 488.11 670.084 477.81 666.718 467.92C652.585 426.142 625.599 395.837 584.946 378.09C582.583 377.061 580.189 376.089 577.811 375.093L577.008 374.764H658.547L660.716 377.029C672.363 388.42 682.423 401.326 690.627 415.401C703.562 437.479 711.878 461.276 717.076 486.238C718.008 490.737 718.803 495.261 719.687 499.896L675.346 499.888Z" fill="white"/>
<path d="M643.531 250.023C680.488 217.999 702.984 177.932 713.854 130.892L713.934 130.515C714.352 128.683 714.738 126.851 715.147 124.995H715.139L715.18 124.818H658.86L657.558 130.892C649.05 159.574 634.339 184.48 612.261 204.855C594.45 221.309 573.85 233.264 551.378 242.094C543.866 245.042 536.17 247.533 528.714 250.184C528.899 250.184 529.292 250.304 529.67 250.417C547.899 255.888 565.406 263.047 581.836 272.728C598.507 282.554 613.346 294.589 625.855 309.404C641.651 328.1 652.215 349.503 658.619 373.035C659.036 374.577 659.575 373.911 661.278 373.903C678.544 373.822 695.825 375.092 713.05 375.092H715.139C704.856 325.448 681.958 283.325 643.531 250.023Z" fill="white"/>
<path d="M478.725 250.023C517.461 283.306 541.748 324.956 551.587 374.971H503.117C502.651 373.228 502.161 371.388 501.647 369.548C491.259 332.591 470.313 302.864 439.888 279.565C423.747 267.225 406.08 257.616 387.127 249.983C400.027 244.871 412.439 238.606 424.213 231.264C449.32 215.492 470.145 195.479 485.161 169.722C492.896 156.347 498.757 141.974 502.579 127.004C502.747 126.361 502.924 125.718 503.109 125.027H551.571C541.711 175.15 517.429 216.815 478.725 250.023Z" fill="white"/>
<path d="M347.117 125.084H388.02C378.853 174.502 354.573 215.316 319.054 250.024C354.645 284.748 378.876 325.617 388.051 374.988H347.174C333.74 320.13 300.318 280.321 254.226 250.032C300.19 219.791 333.692 179.982 347.117 125.084Z" fill="white"/>
<path d="M190.981 125.092H224.475C216.401 171.69 195.448 212.255 168.236 250.024C195.448 287.784 216.385 328.413 224.475 374.979H190.804C186.233 351.455 177.395 329.474 166.091 308.44C154.948 287.463 141.332 267.897 125.534 250.16C156.868 213.516 180.48 172.895 190.981 125.092Z" fill="white"/>
<path d="M55.0664 343.277C48.7564 314.719 40.7072 286.574 30.9638 258.998L27.6938 250.024L30.2808 243.042C42.2518 208.785 52.2865 173.997 58.746 138.228C59.5494 133.914 60.0475 129.551 60.7063 125.068H34.5149C34.4506 125.43 34.4024 125.743 34.3462 126.065C32.8197 134.404 31.5503 142.8 29.7104 151.075C22.8396 182.113 13.8881 212.653 2.91642 242.488L0 250.297L2.53079 257.078C7.79319 272.721 13.2163 288.323 18.1091 304.078C23.9169 322.773 28.6329 341.79 32.2332 361.033C33.1009 365.676 33.84 370.336 34.6434 375.004H60.626C60.6158 374.338 60.5703 373.673 60.4895 373.012C58.6657 363.097 57.2115 353.111 55.0664 343.277Z" fill="white"/>
</svg>
