<svg width="60" height="60" viewBox="0 0 60 60" fill="none" xmlns="http://www.w3.org/2000/svg">
<path d="M30 60C46.5685 60 60 46.5685 60 30C60 13.4315 46.5685 0 30 0C13.4315 0 0 13.4315 0 30C0 46.5685 13.4315 60 30 60Z" fill="#FF582A"/>
<path d="M21.5 20.5C23 17.5 26.2421 14 32.9418 14C44.8524 14 48.5744 29.0676 40.9814 35.035V46" stroke="white" stroke-width="3" stroke-linecap="round" stroke-linejoin="round"/>
<path d="M29.8883 46V42.5583H25.4411C23.1692 42.5583 21.1786 40.7129 21.1786 38.4378L21.0298 34.289H19.0854C18.947 34.29 18.8107 34.2558 18.6892 34.1896C18.5677 34.1233 18.4649 34.0273 18.3905 33.9104C18.3161 33.7936 18.2725 33.6597 18.2639 33.5213C18.2552 33.383 18.2817 33.2447 18.3409 33.1194L19.1687 31.3799" stroke="white" stroke-width="3" stroke-linecap="round" stroke-linejoin="round"/>
<path d="M16.3504 21H24.3051C25.5489 21 26.7418 21.4951 27.6213 22.3764C28.5008 23.2577 28.9949 24.453 28.9949 25.6993C28.9949 26.9456 28.5008 28.1409 27.6213 29.0222C26.7418 29.9035 25.5489 30.3986 24.3051 30.3986H16.3504C15.9922 30.3986 15.6488 30.256 15.3955 30.0023C15.1423 29.7485 15 29.4044 15 29.0455V22.3531C15 21.9942 15.1423 21.6501 15.3955 21.3963C15.6488 21.1426 15.9922 21 16.3504 21V21Z" stroke="white" stroke-width="3" stroke-linecap="round" stroke-linejoin="round"/>
<path d="M20 21.0746V30.324" stroke="white" stroke-width="3" stroke-linecap="round" stroke-linejoin="round"/>
<path d="M28.5469 23.3867H44.6262" stroke="white" stroke-width="3" stroke-linecap="round" stroke-linejoin="round"/>
<path d="M28.5469 27.7129H44.6262" stroke="white" stroke-width="3" stroke-linecap="round" stroke-linejoin="round"/>
</svg>
