<svg width="32" height="32" viewBox="0 0 32 32" fill="none" xmlns="http://www.w3.org/2000/svg">
<path fill-rule="evenodd" clip-rule="evenodd" d="M2.34315 2.34315C0 4.68629 0 8.45753 0 16C0 23.5425 0 27.3137 2.34315 29.6569C4.68629 32 8.45753 32 16 32C23.5425 32 27.3137 32 29.6569 29.6569C32 27.3137 32 23.5425 32 16C32 8.45753 32 4.68629 29.6569 2.34315C27.3137 0 23.5425 0 16 0C8.45753 0 4.68629 0 2.34315 2.34315ZM17.8352 18.6501C17.8352 18.6501 17.6375 20.1747 17.677 20.4769C17.6796 20.4999 17.6819 20.5218 17.6841 20.5426C17.7272 20.9502 17.7289 20.9657 18.7446 21.5283C19.9967 22.238 21.9474 23.5128 22.0792 23.6442C22.1618 23.7654 22.2068 23.8973 22.2505 24.0254C22.3253 24.2447 22.3964 24.4529 22.646 24.5773C22.8832 24.6956 23.0414 24.5248 23.0414 24.5248C23.0414 24.5248 23.305 24.7351 23.529 24.7351C23.7399 24.7745 24.8866 24.7482 24.9393 24.6956C25.0184 24.6299 24.8602 24.2094 24.7284 24.0648C24.6281 23.9647 24.385 23.9086 24.1389 23.8519C23.9003 23.7969 23.659 23.7413 23.5422 23.6442C23.2127 23.4208 22.9359 23.158 22.6723 22.8951C22.4262 22.6198 21.8108 22.1644 21.1739 21.693C20.4124 21.1296 19.6201 20.5433 19.3904 20.2141C19.2059 19.9512 19.5222 18.821 19.5222 18.821C19.5222 18.821 18.9423 18.7947 18.5733 18.7553C18.2174 18.7159 17.8352 18.6501 17.8352 18.6501ZM9.14186 16.8035C9.45336 16.6293 9.79139 16.4403 9.927 16.5605C10.0474 16.6735 9.98511 16.9573 9.9283 17.2161C9.8794 17.4389 9.83457 17.6431 9.91383 17.7039C10.072 17.8278 10.7142 17.6331 11.1518 17.5005C11.2248 17.4783 11.2921 17.458 11.3505 17.4411C11.4168 17.4227 11.4773 17.4053 11.5325 17.3895C11.8721 17.2919 12.0147 17.251 12.1281 17.3753C12.0042 17.5636 11.801 17.6993 11.599 17.8341C11.3498 18.0004 11.1024 18.1654 11.0078 18.4267C10.9414 18.61 10.8256 19.2628 10.6925 20.0128C10.482 21.1989 10.2284 22.6281 10.0588 22.8294C9.9799 22.9288 9.83948 23.0112 9.69363 23.0968C9.37663 23.2829 9.03401 23.484 9.24163 23.9071C8.38491 24.5116 8.38491 24.5905 8.67488 24.9322C8.7276 25.011 9.14937 24.9059 9.36025 24.827C9.82156 24.6562 11.1528 23.8151 11.2582 23.6048C11.3267 23.4852 11.3396 23.2601 11.3511 23.0595C11.3572 22.9514 11.363 22.8504 11.3768 22.7768C11.4823 22.2512 12.049 19.8724 12.1545 19.649C12.3522 19.2284 13.9733 18.3216 14.4874 18.1902C15.0805 18.0325 16.2272 18.0193 17.6902 18.1902C17.7439 18.1962 17.7976 18.2023 17.8512 18.2084C18.8499 18.3218 19.8338 18.4336 20.9721 18.0719C21.8551 17.7828 22.5405 17.1388 22.5405 15.7983C22.5405 14.9786 22.4814 14.9156 22.4716 14.9123C22.4766 14.9105 22.4961 14.8955 22.5405 14.7994C22.7056 14.4806 22.919 14.2181 23.143 13.9427C23.2053 13.8661 23.2683 13.7886 23.3313 13.7086C24.2276 12.447 24.2276 10.6465 23.529 9.56879C23.51 9.53964 23.4914 9.51109 23.4731 9.4831C22.8076 8.46357 22.6321 8.19476 22.6064 7.45287C22.5801 6.86147 22.9096 6.51977 23.4104 6.57233C23.6213 6.59862 24.5835 6.3752 24.5176 6.09921C24.4695 5.89803 24.0363 5.8016 23.662 5.71829C23.5229 5.68731 23.3918 5.65815 23.2918 5.62609C23.1506 5.58084 23.0422 5.4875 22.9327 5.39317C22.7559 5.24093 22.5761 5.0861 22.2506 5.12668C21.7233 5.19239 21.3675 5.5078 21.2225 5.78379C20.893 6.40148 20.9193 7.24259 21.1698 7.87343C21.3218 8.24987 21.4883 8.57175 21.6512 8.88643C21.9261 9.41768 22.1904 9.92841 22.356 10.6465C22.4878 11.251 22.2769 12.0395 21.6443 12.3944C21.3908 12.5366 21.0591 12.3834 20.5618 12.1538C19.8178 11.8103 18.7032 11.2957 16.9257 11.343C14.6472 11.4036 13.3335 12.3408 12.3868 13.0163C12.1013 13.2199 11.8492 13.3998 11.6141 13.5246C10.5465 13.1698 9.16255 13.3012 8.23993 13.8401C7.31731 14.3789 7.04053 15.2069 7.04053 15.9691C7.04053 16.7314 7.29095 17.3622 7.71272 17.2045C7.84934 17.1785 7.9378 16.9989 8.02722 16.8173C8.11896 16.631 8.21172 16.4426 8.35855 16.416C8.46723 16.3968 8.46428 16.5292 8.461 16.6766C8.45752 16.8331 8.45366 17.0066 8.58262 17.0336C8.68989 17.0562 8.90843 16.934 9.14186 16.8035ZM22.4702 14.9124C22.4702 14.9122 22.4707 14.912 22.4716 14.9123C22.4706 14.9127 22.4702 14.9125 22.4702 14.9124Z" fill="#E3E3E3"/>
</svg>
