<svg width="34" height="32" viewBox="0 0 34 32" fill="none" xmlns="http://www.w3.org/2000/svg">
<g clip-path="url(#clip0)">
<path d="M18.975 3.27001C18.4085 3.98088 17.9837 5.26045 17.9837 6.96654V9.24133C17.9837 9.9522 18.2669 10.6631 18.6918 11.2318L20.816 13.9331C20.9577 13.9331 20.9577 13.9331 21.0993 13.9331C22.2322 13.9331 23.2236 14.9283 23.2236 16.0657C23.2236 17.2031 22.2322 18.1983 21.0993 18.1983C19.9663 18.1983 18.975 17.2031 18.975 16.0657C18.975 15.7814 18.975 15.497 19.1166 15.3548L16.9923 12.6535C16.2842 11.6583 15.8594 10.5209 15.8594 9.38351V6.96654C15.8594 4.9761 16.2842 3.27001 17.1339 1.99044C18.2669 0.710872 19.5415 0 21.2409 0C23.9317 0 26.1976 1.70609 27.1889 3.98088C29.5964 4.69175 31.4375 6.96654 31.4375 9.66786C31.4375 10.2366 31.4375 10.8053 31.2958 11.3739C32.9953 12.227 34.1282 14.0753 34.1282 16.0657C34.1282 18.0561 32.9953 19.9044 31.2958 20.7575C31.4375 21.3262 31.4375 21.8948 31.4375 22.4635C31.4375 25.1649 29.738 27.4396 27.1889 28.1505C26.1976 30.4253 23.9317 32.1314 21.2409 32.1314C20.5328 32.1314 19.8247 31.9892 19.2582 31.8471L19.9663 29.8566C20.3912 29.9988 20.816 29.9988 21.2409 29.9988C23.2236 29.9988 24.7814 28.7192 25.3478 27.0131L25.4895 26.4444L26.1976 26.3023C27.897 26.0179 29.3132 24.454 29.3132 22.6057C29.3132 21.6105 29.1716 21.3262 29.0299 21.0418C28.7467 20.6153 28.1802 20.4731 27.7554 20.4731C27.1889 20.4731 26.6224 20.8996 26.3392 21.3262L24.7814 22.7479C24.923 23.0322 24.923 23.3166 24.923 23.4588C24.923 24.5962 23.9317 25.5914 22.7987 25.5914C21.6658 25.5914 20.6744 24.5962 20.6744 23.4588C20.6744 22.3214 21.6658 21.3262 22.7987 21.3262C22.9403 21.3262 23.0819 21.3262 23.0819 21.3262L24.3565 19.7622C25.0646 18.9092 26.1976 18.1983 27.3305 18.1983C28.1802 18.0561 29.1716 18.3405 30.0213 18.9092C31.1542 18.3405 31.8623 17.3453 31.8623 15.9235C31.8623 14.5018 31.1542 13.5066 30.0213 13.08C29.1716 13.6487 28.3218 13.9331 27.3305 13.7909C26.1976 13.6487 25.2062 13.08 24.3565 12.227L23.0819 10.6631C22.9403 10.6631 22.9403 10.6631 22.7987 10.6631C21.6658 10.6631 20.6744 9.66786 20.6744 8.53046C20.6744 7.39307 21.6658 6.39785 22.7987 6.39785C23.9317 6.39785 24.923 7.39307 24.923 8.53046C24.923 8.81481 24.923 9.09916 24.7814 9.24133L26.0559 10.8053C26.4808 11.2318 27.0473 11.5161 27.4721 11.6583C28.0386 11.6583 28.4635 11.5161 28.7467 11.0896C29.0299 10.8053 29.0299 10.3787 29.0299 9.52568C29.0299 7.67741 27.7554 6.1135 25.9143 5.82915H25.4895L25.3478 5.26045C24.7814 3.55436 23.2236 2.27479 21.2409 2.27479C20.2496 2.13262 19.5415 2.55914 18.975 3.27001Z" fill="#E3E3E3"/>
<path d="M0 15.9233C0 17.9137 1.13295 19.762 2.83238 20.615C2.69076 21.1837 2.69076 21.7524 2.69076 22.3211C2.69076 25.0224 4.39019 27.2972 6.93933 28.0081C7.93067 30.2829 10.1966 31.989 12.8873 31.989C14.5868 31.989 15.8613 31.2781 16.8527 29.9985C17.7024 28.719 18.1272 27.0129 18.1272 25.0224V22.7477C18.1272 21.4681 17.7024 20.3307 16.9943 19.4776L14.87 16.7763C15.0116 16.492 15.0116 16.2076 15.0116 16.0655C15.0116 14.9281 14.0203 13.9328 12.8873 13.9328C11.7544 13.9328 10.763 14.9281 10.763 16.0655C10.763 17.2029 11.7544 18.1981 12.8873 18.1981C13.0289 18.1981 13.1706 18.1981 13.1706 18.1981L15.2949 20.8994C15.7197 21.4681 16.0029 22.179 16.0029 22.8898V25.1646C16.0029 26.8707 15.5781 28.1503 15.0116 28.8611C14.4451 29.4298 13.737 29.8564 12.7457 29.8564C10.763 29.8564 9.20524 28.5768 8.63876 26.8707L8.49714 26.1598L7.78905 26.0177C6.08962 25.7333 4.67343 24.1694 4.67343 22.3211C4.67343 21.3259 4.81505 21.0416 4.95667 20.7572C5.2399 20.3307 5.80638 20.1885 6.23124 20.1885C6.79771 20.1885 7.36419 20.615 7.64743 21.0416L9.20524 22.7477C9.06362 23.032 9.06362 23.3163 9.06362 23.4585C9.06362 24.5959 9.91333 25.5911 11.1879 25.5911C12.4625 25.5911 13.3122 24.5959 13.3122 23.4585C13.3122 22.3211 12.3209 21.3259 11.1879 21.3259C11.0463 21.3259 10.9047 21.3259 10.9047 21.3259L9.63009 19.762C8.922 18.9089 7.78905 18.1981 6.65609 18.1981C5.80638 18.0559 4.81505 18.3402 3.96533 18.9089C2.83238 18.4824 2.12429 17.345 2.12429 15.9233C2.12429 14.5015 2.83238 13.5063 3.96533 13.0798C4.81505 13.6485 5.66476 13.9328 6.65609 13.7907C7.78905 13.6485 8.78038 13.0798 9.63009 12.2267L10.9047 10.6628C11.0463 10.6628 11.0463 10.6628 11.1879 10.6628C12.3209 10.6628 13.3122 9.66761 13.3122 8.53022C13.3122 7.39282 12.3209 6.3976 11.1879 6.3976C10.0549 6.3976 9.06362 7.39282 9.06362 8.53022C9.06362 8.81456 9.06362 9.09891 9.20524 9.24109L7.93066 10.805C7.50581 11.3737 6.93933 11.6581 6.51447 11.6581C5.948 11.6581 5.52314 11.5159 5.2399 11.0894C4.81505 10.805 4.81505 10.5207 4.81505 9.66761C4.81505 7.81934 6.08962 6.25543 7.93066 5.97108L8.49714 5.8289L8.63876 5.26021C9.20524 3.41194 10.763 2.13237 12.7457 2.13237C13.1706 2.13237 13.5954 2.27455 14.0203 2.27455L14.7284 0.284105C14.1619 0.14193 13.4538 -0.000244141 12.7457 -0.000244141C10.0549 -0.000244141 7.78905 1.70585 6.79771 3.98064C4.39019 4.69151 2.54914 6.9663 2.54914 9.66761C2.54914 10.2363 2.54914 10.805 2.69076 11.3737C1.13295 12.2267 0 13.9328 0 15.9233Z" fill="#E3E3E3"/>
</g>
<defs>
<clipPath id="clip0">
<rect width="33.9886" height="31.9892" fill="white"/>
</clipPath>
</defs>
</svg>
