<svg width="75" height="26" viewBox="0 0 75 26" fill="none" xmlns="http://www.w3.org/2000/svg">
<path d="M16.9865 0C9.70702 0 16.293 0 9.01345 0C1.73392 0 0 1.731 0 9.01345C0 13.0787 0 9.70702 0 16.9865C0 24.2661 1.73392 26 9.01345 26C16.293 26 9.70702 26 16.9865 26C24.2661 26 26 24.2661 26 16.9865C26 9.70702 26 16.293 26 9.01345C26 1.731 24.2661 0 16.9865 0ZM20.9935 18.5514H19.0964C18.3737 18.5514 18.1609 17.9744 16.8758 16.6893C15.751 15.6052 15.2701 15.4654 14.9874 15.4654C14.6057 15.4654 14.492 15.5732 14.492 16.1152V17.8142C14.492 18.2804 14.3434 18.5514 13.137 18.5514C11.1291 18.5514 8.9202 17.3333 7.3553 15.0836C5.0065 11.7906 4.36247 9.29904 4.36247 8.7978C4.36247 8.51804 4.4703 8.2616 5.01233 8.2616H6.90944C7.39318 8.2616 7.57678 8.47433 7.75745 8.99888C8.68415 11.7003 10.249 14.0607 10.8902 14.0607C11.132 14.0607 11.2428 13.95 11.2428 13.338V10.5463C11.1728 9.26115 10.4909 9.15624 10.4909 8.69872C10.4909 8.48599 10.6716 8.2616 10.9747 8.2616H13.9529C14.3551 8.2616 14.495 8.47725 14.495 8.95808V12.7115C14.495 13.1137 14.6698 13.2535 14.7893 13.2535C15.0312 13.2535 15.2322 13.1137 15.6723 12.6707C17.039 11.1437 18.0036 8.79489 18.0036 8.79489C18.1231 8.51513 18.3475 8.25869 18.8283 8.25869H20.7254C21.2995 8.25869 21.419 8.55301 21.2995 8.95517C21.0576 10.0596 18.7496 13.3147 18.7496 13.3147C18.5485 13.6353 18.4698 13.7956 18.7496 14.1569C18.9507 14.4396 19.6122 14.9991 20.0551 15.5236C20.8682 16.4387 21.4831 17.2139 21.655 17.7442C21.8036 18.2804 21.5326 18.5514 20.9935 18.5514Z" fill="#E3E3E3"/>
<path d="M42.1315 4.89844C42.9252 4.89844 43.6819 5.06434 44.4018 5.39615C45.1217 5.70952 45.7492 6.16114 46.2845 6.75102C46.8383 7.32246 47.272 8.00451 47.5858 8.79715C47.9181 9.5898 48.0842 10.4562 48.0842 11.3963C48.0842 12.3364 47.9181 13.2028 47.5858 13.9954C47.272 14.7881 46.8383 15.4793 46.2845 16.0692C45.7492 16.6407 45.1217 17.0923 44.4018 17.4241C43.6819 17.7375 42.9252 17.8942 42.1315 17.8942C41.5962 17.8942 41.1255 17.8296 40.7194 17.7006C40.3318 17.5716 39.9903 17.4333 39.695 17.2858C39.3628 17.1015 39.0674 16.8895 38.809 16.6499V22.18H35.625V5.03669H37.9784L38.5321 6.28096C38.809 6.02289 39.132 5.79247 39.5012 5.5897C39.815 5.4238 40.1934 5.26711 40.6364 5.11964C41.0793 4.97217 41.5777 4.89844 42.1315 4.89844ZM38.5321 11.3963C38.5321 12.447 38.8367 13.2857 39.4458 13.9125C40.0549 14.5392 40.8117 14.8526 41.7162 14.8526C42.6206 14.8526 43.3774 14.5392 43.9865 13.9125C44.5956 13.2857 44.9002 12.447 44.9002 11.3963C44.9002 10.3456 44.5956 9.50685 43.9865 8.8801C43.3774 8.25336 42.6206 7.93999 41.7162 7.93999C40.8117 7.93999 40.0549 8.25336 39.4458 8.8801C38.8367 9.50685 38.5321 10.3456 38.5321 11.3963Z" fill="#E3E3E3"/>
<path d="M55.7024 4.89844C56.4223 4.89844 57.0868 5.02747 57.6959 5.28554C58.305 5.52518 58.8311 5.8662 59.2741 6.30861C59.7171 6.75102 60.0585 7.27638 60.2985 7.88469C60.5569 8.493 60.6861 9.15661 60.6861 9.87552V17.7559H58.3327L57.779 16.5116C57.4836 16.7697 57.1606 17.0001 56.8099 17.2029C56.4961 17.3872 56.1177 17.5531 55.6748 17.7006C55.2318 17.8296 54.7334 17.8942 54.1797 17.8942C52.7953 17.8942 51.734 17.5623 50.9956 16.8987C50.2573 16.2167 49.8882 15.3503 49.8882 14.2996C49.8882 13.6729 50.0081 13.1014 50.2481 12.5853C50.5065 12.0507 50.931 11.5991 51.5217 11.2304C52.1124 10.8433 52.8876 10.5483 53.8474 10.3456C54.8257 10.1244 56.0439 10.0138 57.5021 10.0138C57.5021 9.31329 57.3083 8.7695 56.9207 8.3824C56.5515 7.99529 56.0531 7.80174 55.4256 7.80174C55.001 7.80174 54.6596 7.87547 54.4011 8.02294C54.1612 8.17041 53.9674 8.3271 53.8197 8.493C53.6536 8.69577 53.5428 8.92619 53.4875 9.18426H50.3035C50.3773 8.59438 50.5434 8.04137 50.8018 7.52523C51.0787 7.00909 51.4479 6.55747 51.9093 6.17036C52.3708 5.78325 52.9153 5.4791 53.5428 5.25789C54.1889 5.01826 54.9087 4.89844 55.7024 4.89844ZM54.7334 15.4056C55.564 15.4056 56.2285 15.166 56.7269 14.6867C57.2437 14.189 57.5021 13.553 57.5021 12.7788V12.2258C56.5607 12.2258 55.804 12.2719 55.2318 12.3641C54.6596 12.4378 54.2073 12.5576 53.8751 12.7235C53.5613 12.871 53.349 13.0553 53.2383 13.2765C53.1275 13.4977 53.0722 13.7466 53.0722 14.0231C53.0722 14.3733 53.2291 14.6959 53.5428 14.9909C53.8566 15.2674 54.2535 15.4056 54.7334 15.4056Z" fill="#E3E3E3"/>
<path d="M62.1981 5.03669H65.5205L68.7045 13.3318L71.6117 5.03669H74.9341C74.0297 7.35933 73.2083 9.46076 72.47 11.341C72.1562 12.1521 71.8424 12.9447 71.5286 13.7189C71.2333 14.4931 70.9656 15.2028 70.7257 15.848C70.4857 16.4748 70.2827 17.0001 70.1166 17.4241C69.9505 17.8481 69.8489 18.0969 69.812 18.1707C69.4982 18.9264 69.1844 19.5624 68.8707 20.0785C68.5753 20.6131 68.2523 21.0463 67.9016 21.3781C67.5509 21.7099 67.1725 21.9496 66.7664 22.097C66.3604 22.2445 65.8989 22.3182 65.3821 22.3182C65.2344 22.3182 65.0868 22.309 64.9391 22.2906C64.8099 22.2906 64.6991 22.2814 64.6069 22.2629C64.4776 22.2445 64.3669 22.2168 64.2746 22.18V19.5532C64.976 19.5532 65.5113 19.3965 65.8805 19.0831C66.2681 18.7698 66.5634 18.3734 66.7664 17.8942L67.0433 17.2029L62.1981 5.03669Z" fill="#E3E3E3"/>
</svg>
