<svg width="279" height="93" viewBox="0 0 279 93" fill="none" xmlns="http://www.w3.org/2000/svg">
<g clip-path="url(#clip0_6585:4367)">
<path opacity="0.7" d="M0 82.31L81.94 0.109985V13.71L13.82 82.31H0Z" fill="url(#paint0_radial_6585:4367)"/>
<path d="M0 82.31L25.64 56.59L28.09 67.94L13.82 82.31H0Z" fill="url(#paint1_linear_6585:4367)"/>
<path d="M81.9389 13.7104L70.4289 25.3004H56.8789L81.9389 0.110352V13.7104Z" fill="url(#paint2_linear_6585:4367)"/>
<path d="M13.79 82.31H0.0800186C0.0800186 73.72 0.0800186 55.93 0.0800186 54.88C-0.199981 34.49 3.72002 20.96 12.42 12.28C21.42 3.33005 34.71 -0.329952 56.93 0.0300477H81.93V13.75H56.77C38.83 13.45 28.13 15.99 22.11 22C16.09 28.01 13.57 38.29 13.8 54.75V54.85C13.8 54.85 13.79 73.46 13.79 82.31Z" fill="url(#paint3_radial_6585:4367)"/>
<path d="M49.8917 29.9697C58.9817 29.9697 65.1517 35.8797 65.1517 44.9697C65.1517 54.0597 58.6517 59.9697 49.2117 59.9697H42.0617V72.4197H31.2617V29.9697H49.8917ZM42.0617 51.8497H46.9417C51.5317 51.8497 54.2417 49.4698 54.2417 45.0298C54.2417 40.5898 51.5317 38.2297 47.0017 38.2297H42.0617V51.8497Z" fill="white"/>
<path d="M79.69 72.42H68.89V29.97H87.13C97.72 29.97 103.43 35.2 103.43 43.97C103.43 49.18 100.84 53.97 96.2 55.97L104.67 72.42H92.55L85.28 57.56H79.69V72.42ZM79.69 50.18H86.07C90.07 50.18 92.4 47.85 92.4 44.18C92.4 40.51 89.9 38.12 86.05 38.12H79.69V50.18Z" fill="white"/>
<path d="M137.828 72.4197H108.738V29.9697H137.828V38.6697H119.528V47.1198H136.738V55.0598H119.528V63.7498H137.828V72.4197Z" fill="white"/>
<path d="M161.389 29.9697C174.189 29.9697 181.719 37.4097 181.719 50.9697C181.719 64.5297 174.189 72.4498 161.389 72.4498H144.059V29.9697H161.389ZM154.859 63.7498H159.949C166.949 63.7498 170.739 59.4798 170.739 51.0098C170.739 43.0098 166.739 38.7098 159.949 38.7098H154.859V63.7498Z" fill="white"/>
<path d="M186.8 72.42V29.97H197.59V72.42H186.8Z" fill="white"/>
<path d="M202.672 51.1805C202.672 37.3205 210.672 29.2305 223.292 29.2305C234.032 29.2305 242.182 36.1405 242.502 46.1805H232.122C231.592 41.1805 228.032 37.8805 223.292 37.8805C217.412 37.8805 213.672 42.8805 213.672 51.1505C213.672 59.4205 217.382 64.5005 223.322 64.5005C228.062 64.5005 231.502 61.3805 232.182 56.4105H242.562C242.062 66.5005 234.242 73.1505 223.292 73.1505C210.582 73.1505 202.672 65.0605 202.672 51.1805Z" fill="white"/>
<path d="M256.258 72.4197V38.6697H244.488V29.9697H278.818V38.6697H267.058V72.4197H256.258Z" fill="white"/>
<path d="M35.53 76.98C36.5219 76.98 37.4732 77.3741 38.1746 78.0754C38.876 78.7768 39.27 79.7281 39.27 80.72C39.27 81.7119 38.876 82.6632 38.1746 83.3646C37.4732 84.0659 36.5219 84.46 35.53 84.46H32.41V88.99H31.27V76.99L35.53 76.98ZM32.4 83.45H35.26C37.11 83.45 38.26 82.45 38.26 80.72C38.26 78.99 37.16 77.99 35.26 77.99H32.4V83.45Z" fill="white"/>
<path d="M42.28 80.03H43.28V81.62C43.4044 81.1192 43.6987 80.677 44.1126 80.3688C44.5265 80.0606 45.0345 79.9055 45.55 79.93C45.776 79.9347 46.0008 79.9649 46.22 80.02V81.12C45.957 81.0256 45.6795 80.9782 45.4 80.98C45.0962 80.9871 44.7972 81.0582 44.5227 81.1888C44.2482 81.3193 44.0044 81.5063 43.8071 81.7376C43.6098 81.9688 43.4636 82.2391 43.3779 82.5308C43.2923 82.8224 43.2691 83.1288 43.31 83.43V88.99H42.21L42.28 80.03Z" fill="white"/>
<path d="M55.65 86.46C55.4485 87.2658 54.9662 87.9733 54.2899 88.4553C53.6135 88.9374 52.7874 89.1624 51.96 89.09C49.47 89.09 47.89 87.35 47.89 84.53C47.89 81.71 49.47 79.93 51.89 79.93C54.31 79.93 55.76 81.63 55.76 84.3V84.75H49.01V84.81C49.01 86.81 50.18 88.09 51.96 88.09C52.5129 88.1442 53.0678 88.0095 53.5345 87.7081C54.0011 87.4067 54.352 86.9562 54.53 86.43L55.65 86.46ZM49.01 83.88H54.59C54.6279 83.4986 54.5851 83.1136 54.4644 82.7498C54.3436 82.3861 54.1476 82.0518 53.8892 81.7688C53.6307 81.4858 53.3156 81.2604 52.9642 81.1073C52.6129 80.9542 52.2333 80.8767 51.85 80.88C51.4645 80.8836 51.0836 80.9649 50.7301 81.119C50.3767 81.2731 50.0579 81.4968 49.7928 81.7768C49.5278 82.0568 49.3218 82.3874 49.1873 82.7487C49.0528 83.1101 48.9925 83.4948 49.01 83.88Z" fill="white"/>
<path d="M58.14 84.51C58.14 81.77 59.73 79.93 61.96 79.93C62.6092 79.9049 63.2508 80.0768 63.8004 80.423C64.3501 80.7693 64.7822 81.2737 65.04 81.87V76.45H66.15V88.99H65.15V87.09C64.8922 87.6991 64.4563 88.216 63.8995 88.5729C63.3427 88.9298 62.6911 89.1101 62.03 89.09C59.73 89.09 58.14 87.25 58.14 84.51ZM59.27 84.51C59.27 86.67 60.44 88.1 62.16 88.1C63.88 88.1 65.07 86.65 65.07 84.51C65.07 82.37 63.88 80.91 62.16 80.91C60.44 80.91 59.27 82.35 59.27 84.51Z" fill="white"/>
<path d="M69.41 77.51C69.41 77.3111 69.489 77.1203 69.6297 76.9797C69.7703 76.839 69.9611 76.76 70.16 76.76C70.3427 76.7812 70.5113 76.8688 70.6336 77.0062C70.7559 77.1435 70.8235 77.3211 70.8235 77.505C70.8235 77.6889 70.7559 77.8665 70.6336 78.0038C70.5113 78.1412 70.3427 78.2288 70.16 78.25C69.9628 78.25 69.7735 78.1724 69.6331 78.0339C69.4928 77.8954 69.4126 77.7072 69.41 77.51ZM69.61 80.03H70.71V89.03H69.61V80.03Z" fill="white"/>
<path d="M80.2519 82.8499C80.1278 82.268 79.797 81.7508 79.3208 81.3941C78.8445 81.0374 78.2552 80.8654 77.6619 80.9099C75.9019 80.9099 74.7519 82.3199 74.7519 84.5099C74.7519 86.6999 75.9119 88.0999 77.6719 88.0999C78.2571 88.156 78.8426 87.9971 79.3193 87.653C79.7959 87.3089 80.1309 86.803 80.2619 86.2299H81.3519C81.2029 87.0784 80.7437 87.8411 80.0635 88.3697C79.3833 88.8983 78.5308 89.1551 77.6719 89.09C75.2319 89.09 73.6719 87.3399 73.6719 84.5099C73.6719 81.6799 75.2719 79.9299 77.6719 79.9299C78.5398 79.871 79.3986 80.1375 80.0808 80.6773C80.763 81.2171 81.2197 81.9916 81.3619 82.8499H80.2519Z" fill="white"/>
<path d="M85.6612 77.8799V80.0299H87.4613V80.9499H85.6612V86.7499C85.6612 87.6799 86.0313 88.0799 86.8613 88.0799H87.5112V89.0199C87.2262 89.0588 86.9389 89.0788 86.6513 89.0799C85.1713 89.0799 84.5712 88.4299 84.5712 86.8199V80.9499H83.2812V80.0299H84.5712V77.8799H85.6612Z" fill="white"/>
<path d="M90.2383 77.5101C90.2383 77.4094 90.2582 77.3098 90.2971 77.2169C90.3359 77.1241 90.3928 77.0398 90.4644 76.9691C90.536 76.8984 90.621 76.8426 90.7144 76.805C90.8077 76.7674 90.9076 76.7487 91.0083 76.7501C91.191 76.7713 91.3595 76.8589 91.4819 76.9962C91.6042 77.1336 91.6718 77.3111 91.6718 77.4951C91.6718 77.679 91.6042 77.8565 91.4819 77.9939C91.3595 78.1313 91.191 78.2189 91.0083 78.2401C90.8101 78.2428 90.6186 78.1681 90.4748 78.0317C90.3309 77.8953 90.2461 77.7081 90.2383 77.5101ZM90.4383 80.0301H91.5383V89.0301H90.4383V80.0301Z" fill="white"/>
<path d="M98.5686 88.9902H97.3986L94.0586 79.9902H95.2086L97.9686 87.7803L100.729 79.9902H101.879L98.5686 88.9902Z" fill="white"/>
<path d="M111.469 86.4597C111.269 87.2665 110.787 87.9752 110.11 88.4576C109.434 88.94 108.607 89.1642 107.779 89.0897C105.299 89.0897 103.719 87.3497 103.719 84.5297C103.719 81.7097 105.299 79.9297 107.719 79.9297C110.139 79.9297 111.599 81.6297 111.599 84.2997V84.7497H104.869V84.8097C104.869 86.8097 106.029 88.0897 107.819 88.0897C108.371 88.142 108.925 88.0067 109.392 87.7055C109.858 87.4043 110.209 86.9549 110.389 86.4297L111.469 86.4597ZM104.859 83.8797H110.439C110.475 83.4986 110.431 83.1142 110.31 82.7512C110.188 82.3881 109.992 82.0545 109.734 81.7719C109.476 81.4892 109.162 81.2638 108.811 81.1101C108.46 80.9564 108.082 80.878 107.699 80.8797C107.313 80.8833 106.932 80.9646 106.579 81.1187C106.225 81.2728 105.907 81.4965 105.642 81.7765C105.377 82.0565 105.171 82.3871 105.036 82.7484C104.902 83.1098 104.841 83.4945 104.859 83.8797Z" fill="white"/>
<path d="M126.278 85.3102H121.278L119.938 88.9902H118.738L123.228 76.9902H124.368L128.848 88.9902H127.658L126.278 85.3102ZM121.578 84.3102H125.938L123.778 78.3702L121.578 84.3102Z" fill="white"/>
<path d="M131.3 80.03H132.3V81.75C132.564 81.1875 132.992 80.7177 133.527 80.402C134.062 80.0862 134.68 79.9392 135.3 79.98C135.738 79.9441 136.179 80.005 136.592 80.1585C137.004 80.312 137.378 80.5544 137.686 80.8683C137.994 81.1822 138.229 81.5601 138.375 81.9752C138.521 82.3902 138.574 82.8323 138.53 83.27V89.04H137.44V83.45C137.474 83.1182 137.434 82.7831 137.323 82.4685C137.212 82.1539 137.033 81.8676 136.8 81.6298C136.566 81.3921 136.282 81.2089 135.97 81.0931C135.657 80.9773 135.322 80.9319 134.99 80.96C134.624 80.9491 134.26 81.0154 133.921 81.1545C133.582 81.2936 133.276 81.5025 133.024 81.7675C132.771 82.0326 132.577 82.3478 132.454 82.6928C132.331 83.0378 132.282 83.4049 132.31 83.77V89.04H131.21L131.3 80.03Z" fill="white"/>
<path d="M141.5 86.5C141.5 84.96 142.65 84.07 144.8 83.92L147.55 83.74V82.97C147.55 81.67 146.73 80.91 145.28 80.91C144.75 80.8548 144.218 80.9996 143.789 81.3159C143.36 81.6322 143.064 82.0972 142.96 82.62H141.9C141.99 81.04 143.4 79.93 145.29 79.93C147.34 79.93 148.65 81.07 148.65 82.93V89.04H147.6V87.33C147.314 87.8947 146.871 88.3654 146.325 88.6862C145.779 89.007 145.153 89.1645 144.52 89.14C142.71 89.09 141.5 88.05 141.5 86.5ZM147.55 85.62V84.62L144.93 84.8C143.42 84.9 142.62 85.49 142.62 86.5C142.62 87.51 143.47 88.12 144.72 88.12C145.071 88.1472 145.424 88.1035 145.758 87.9917C146.092 87.8799 146.4 87.702 146.664 87.4689C146.928 87.2357 147.142 86.9519 147.295 86.6343C147.447 86.3167 147.534 85.9718 147.55 85.62Z" fill="white"/>
<path d="M152.012 76.4502H153.102V88.9902H152.012V76.4502Z" fill="white"/>
<path d="M156.538 92.0498V91.1098C156.719 91.1467 156.903 91.1668 157.088 91.1698C157.898 91.1698 158.348 90.7398 158.748 89.6098L158.948 89.0498L155.578 80.0498H156.758L159.508 87.8998L162.268 80.0498H163.438L159.938 89.4498C159.148 91.5498 158.528 92.1398 157.068 92.1398C156.889 92.1254 156.712 92.0953 156.538 92.0498Z" fill="white"/>
<path d="M167.47 77.88V80.03H169.27V80.95H167.47V86.75C167.47 87.68 167.84 88.08 168.67 88.08H169.31V89.02C169.025 89.0593 168.738 89.0793 168.45 89.08C166.97 89.08 166.37 88.43 166.37 86.82V80.95H165.09V80.03H166.37V77.88H167.47Z" fill="white"/>
<path d="M172.012 77.5098C172.012 77.3109 172.091 77.1201 172.231 76.9794C172.372 76.8388 172.563 76.7598 172.762 76.7598C172.944 76.781 173.113 76.8686 173.235 77.0059C173.358 77.1433 173.425 77.3208 173.425 77.5048C173.425 77.6887 173.358 77.8662 173.235 78.0036C173.113 78.141 172.944 78.2286 172.762 78.2498C172.565 78.2498 172.375 78.1721 172.235 78.0336C172.095 77.8951 172.014 77.7069 172.012 77.5098ZM172.212 80.0298H173.312V89.0298H172.212V80.0298Z" fill="white"/>
<path d="M182.891 82.8502C182.765 82.2693 182.434 81.7533 181.958 81.397C181.482 81.0406 180.894 80.8678 180.301 80.9102C178.541 80.9102 177.391 82.3202 177.391 84.5102C177.391 86.7002 178.551 88.1002 180.311 88.1002C180.896 88.1562 181.482 87.9974 181.959 87.6533C182.435 87.3092 182.77 86.8033 182.901 86.2302H184.011C183.862 87.0786 183.403 87.8413 182.723 88.3699C182.043 88.8986 181.19 89.1553 180.331 89.0902C177.891 89.0902 176.281 87.3402 176.281 84.5102C176.281 81.6802 177.881 79.9302 180.281 79.9302C181.155 79.8632 182.023 80.1257 182.713 80.6661C183.403 81.2065 183.866 81.9856 184.011 82.8502H182.891Z" fill="white"/>
<path d="M192.491 85.7496C192.611 87.1896 193.971 88.1696 195.851 88.1696C197.731 88.1696 198.941 87.1696 198.941 85.8396C198.941 84.7196 198.171 84.0495 196.391 83.5995L194.901 83.2195C192.671 82.6495 191.681 81.7096 191.681 80.1296C191.681 78.1896 193.431 76.8096 195.801 76.8096C198.171 76.8096 199.801 78.1895 199.921 80.0995H198.781C198.671 78.7395 197.471 77.8396 195.781 77.8396C194.091 77.8396 192.881 78.7596 192.881 80.0896C192.881 81.0896 193.631 81.7296 195.401 82.1796L196.701 82.5096C199.111 83.1196 200.131 84.0395 200.131 85.7195C200.131 87.8195 198.431 89.2096 195.771 89.2096C193.111 89.2096 191.491 87.8196 191.371 85.7496H192.491Z" fill="white"/>
<path d="M202.621 84.5097C202.621 81.7097 204.231 79.9297 206.701 79.9297C209.171 79.9297 210.781 81.7097 210.781 84.5097C210.781 87.3097 209.161 89.0897 206.701 89.0897C204.241 89.0897 202.621 87.2997 202.621 84.5097ZM209.621 84.5097C209.621 82.2697 208.491 80.9097 206.671 80.9097C204.851 80.9097 203.721 82.2697 203.721 84.5097C203.721 86.7497 204.851 88.0997 206.671 88.0997C208.491 88.0997 209.651 86.7497 209.651 84.5097H209.621Z" fill="white"/>
<path d="M213.691 76.4502H214.791V88.9902H213.691V76.4502Z" fill="white"/>
<path d="M225.429 88.9902H224.429V87.3102C224.152 87.8743 223.715 88.3441 223.172 88.6608C222.63 88.9774 222.006 89.1269 221.378 89.0903C220.942 89.1244 220.503 89.0625 220.093 88.9089C219.682 88.7553 219.311 88.5137 219.004 88.201C218.697 87.8884 218.462 87.5123 218.316 87.0993C218.17 86.6863 218.116 86.2463 218.158 85.8102V80.0303H219.259V85.6202C219.222 85.9506 219.258 86.285 219.367 86.5993C219.475 86.9136 219.652 87.1998 219.885 87.4373C220.117 87.6747 220.4 87.8574 220.712 87.972C221.024 88.0867 221.357 88.1305 221.688 88.1002C222.055 88.1123 222.42 88.0473 222.76 87.9095C223.099 87.7718 223.406 87.5642 223.661 87.3003C223.915 87.0364 224.112 86.722 224.237 86.3775C224.362 86.033 224.414 85.666 224.389 85.3002V80.0303H225.489L225.429 88.9902Z" fill="white"/>
<path d="M230.29 77.88V80.03H232.09V80.95H230.29V86.75C230.29 87.68 230.65 88.08 231.49 88.08H232.13V89.02C231.845 89.0589 231.558 89.079 231.27 89.08C229.79 89.08 229.19 88.43 229.19 86.82V80.95H227.91V80.03H229.19V77.88H230.29Z" fill="white"/>
<path d="M234.871 77.51C234.869 77.3613 234.911 77.2153 234.993 77.0907C235.074 76.966 235.19 76.8683 235.327 76.81C235.464 76.7517 235.615 76.7354 235.761 76.7632C235.907 76.791 236.042 76.8617 236.148 76.9661C236.254 77.0706 236.326 77.2042 236.356 77.35C236.386 77.4958 236.371 77.6471 236.315 77.7847C236.259 77.9223 236.162 78.04 236.039 78.1229C235.915 78.2057 235.77 78.25 235.621 78.25C235.424 78.25 235.235 78.1724 235.094 78.0339C234.954 77.8954 234.874 77.7072 234.871 77.51ZM235.071 80.0301H236.171V89.0301H235.071V80.0301Z" fill="white"/>
<path d="M239.078 84.5097C239.078 81.7097 240.688 79.9297 243.148 79.9297C245.608 79.9297 247.228 81.7097 247.228 84.5097C247.228 87.3097 245.618 89.0897 243.148 89.0897C240.678 89.0897 239.078 87.2997 239.078 84.5097ZM246.078 84.5097C246.078 82.2697 244.938 80.9097 243.078 80.9097C241.218 80.9097 240.128 82.2697 240.128 84.5097C240.128 86.7497 241.258 88.0997 243.078 88.0997C244.898 88.0997 246.108 86.7497 246.108 84.5097H246.078Z" fill="white"/>
<path d="M250.06 80.03H251.06V81.75C251.322 81.1858 251.749 80.7144 252.285 80.3983C252.82 80.0822 253.439 79.9364 254.06 79.98C254.499 79.9425 254.941 80.0023 255.355 80.1551C255.768 80.3079 256.143 80.55 256.453 80.8641C256.762 81.1783 256.998 81.5567 257.145 81.9725C257.291 82.3884 257.344 82.8314 257.3 83.27V89.04H256.2V83.45C256.235 83.1187 256.197 82.7838 256.087 82.4691C255.978 82.1545 255.8 81.8679 255.567 81.63C255.334 81.3921 255.051 81.2086 254.738 81.0928C254.426 80.9769 254.092 80.9316 253.76 80.96C253.394 80.9491 253.03 81.0154 252.691 81.1545C252.352 81.2936 252.046 81.5025 251.793 81.7675C251.541 82.0326 251.347 82.3478 251.224 82.6928C251.101 83.0378 251.052 83.4049 251.08 83.77V89.04H249.98L250.06 80.03Z" fill="white"/>
<path d="M263.65 79.93C264.034 79.8898 264.422 79.9258 264.793 80.0357C265.163 80.1457 265.508 80.3274 265.808 80.5707C266.108 80.8141 266.357 81.1141 266.541 81.4537C266.725 81.7933 266.84 82.1658 266.88 82.55H265.82C265.743 82.0385 265.471 81.5767 265.061 81.2615C264.65 80.9464 264.134 80.8025 263.62 80.86C262.42 80.86 261.52 81.47 261.52 82.38C261.52 83.12 262.05 83.54 263.2 83.82L264.57 84.16C266.37 84.61 267.05 85.26 267.05 86.53C267.05 88.05 265.61 89.09 263.6 89.09C261.59 89.09 260.29 87.99 260.16 86.47H261.28C261.41 87.47 262.28 88.17 263.66 88.17C265.04 88.17 265.94 87.55 265.94 86.6C265.94 85.85 265.48 85.43 264.26 85.13L262.75 84.75C261.2 84.36 260.43 83.62 260.43 82.44C260.43 80.96 261.81 79.93 263.65 79.93Z" fill="white"/>
</g>
<defs>
<radialGradient id="paint0_radial_6585:4367" cx="0" cy="0" r="1" gradientUnits="userSpaceOnUse" gradientTransform="translate(40.97 41.21) scale(41.03)">
<stop stop-color="#EBEDF5"/>
<stop offset="0.5" stop-color="#D7DBEB"/>
<stop offset="1" stop-color="#C2C9E0"/>
</radialGradient>
<linearGradient id="paint1_linear_6585:4367" x1="27.96" y1="58.54" x2="4.7" y2="86.25" gradientUnits="userSpaceOnUse">
<stop stop-color="#181716" stop-opacity="0"/>
<stop offset="0.18" stop-color="#181716" stop-opacity="0"/>
<stop offset="0.67" stop-color="#181716" stop-opacity="0.53"/>
<stop offset="1" stop-color="#181716"/>
</linearGradient>
<linearGradient id="paint2_linear_6585:4367" x1="67.8578" y1="27.4392" x2="73.4918" y2="-1.51963" gradientUnits="userSpaceOnUse">
<stop stop-color="#181716" stop-opacity="0"/>
<stop offset="0.24" stop-color="#181716" stop-opacity="0"/>
<stop offset="1" stop-color="#181716"/>
</linearGradient>
<radialGradient id="paint3_radial_6585:4367" cx="0" cy="0" r="1" gradientUnits="userSpaceOnUse" gradientTransform="translate(10.2518 12.2506) rotate(-39.7323) scale(78.6681 70.3187)">
<stop stop-color="#E32E2B"/>
<stop offset="0.47" stop-color="#F18F32"/>
<stop offset="0.9" stop-color="#FFEF22"/>
</radialGradient>
<clipPath id="clip0_6585:4367">
<rect width="278.82" height="92.11" fill="white"/>
</clipPath>
</defs>
</svg>
