<svg width="1067" height="476" viewBox="0 0 1067 476" fill="none" xmlns="http://www.w3.org/2000/svg">
<path d="M13.5982 429.778C12.8515 429.778 12.2075 429.573 11.6662 429.162C11.1249 428.751 10.7095 428.163 10.4202 427.398C10.1402 426.633 10.0002 425.723 10.0002 424.668C10.0002 423.613 10.1402 422.703 10.4202 421.938C10.7095 421.163 11.1249 420.571 11.6662 420.16C12.2075 419.749 12.8515 419.544 13.5982 419.544C14.3449 419.544 14.9889 419.749 15.5302 420.16C16.0715 420.571 16.4822 421.163 16.7622 421.938C17.0515 422.703 17.1962 423.613 17.1962 424.668C17.1962 425.723 17.0515 426.633 16.7622 427.398C16.4822 428.163 16.0715 428.751 15.5302 429.162C14.9889 429.573 14.3449 429.778 13.5982 429.778ZM13.5982 428.7C14.3449 428.7 14.9189 428.35 15.3202 427.65C15.7215 426.95 15.9222 425.956 15.9222 424.668C15.9222 423.38 15.7215 422.386 15.3202 421.686C14.9189 420.977 14.3449 420.622 13.5982 420.622C12.8515 420.622 12.2775 420.977 11.8762 421.686C11.4749 422.386 11.2742 423.38 11.2742 424.668C11.2742 425.956 11.4749 426.95 11.8762 427.65C12.2775 428.35 12.8515 428.7 13.5982 428.7Z" fill="#696D73"/>
<path d="M11.4137 345.535H12.6037V346.613H11.4137V348.811H10.2517V346.613H5.43572V345.493L9.91572 338.941H11.4137V345.535ZM10.3077 340.285H10.2377L6.69572 345.535H10.2517L10.3077 340.285ZM17.9527 348.993C17.206 348.993 16.562 348.787 16.0207 348.377C15.4794 347.966 15.064 347.378 14.7747 346.613C14.4947 345.847 14.3547 344.937 14.3547 343.883C14.3547 342.828 14.4947 341.918 14.7747 341.153C15.064 340.378 15.4794 339.785 16.0207 339.375C16.562 338.964 17.206 338.759 17.9527 338.759C18.6994 338.759 19.3434 338.964 19.8847 339.375C20.426 339.785 20.8367 340.378 21.1167 341.153C21.406 341.918 21.5507 342.828 21.5507 343.883C21.5507 344.937 21.406 345.847 21.1167 346.613C20.8367 347.378 20.426 347.966 19.8847 348.377C19.3434 348.787 18.6994 348.993 17.9527 348.993ZM17.9527 347.915C18.6994 347.915 19.2734 347.565 19.6747 346.865C20.076 346.165 20.2767 345.171 20.2767 343.883C20.2767 342.595 20.076 341.601 19.6747 340.901C19.2734 340.191 18.6994 339.837 17.9527 339.837C17.206 339.837 16.632 340.191 16.2307 340.901C15.8294 341.601 15.6287 342.595 15.6287 343.883C15.6287 345.171 15.8294 346.165 16.2307 346.865C16.632 347.565 17.206 347.915 17.9527 347.915Z" fill="#696D73"/>
<path d="M9.36649 261.445C9.96382 261.445 10.5052 261.59 10.9905 261.879C11.4852 262.159 11.8678 262.556 12.1385 263.069C12.4185 263.573 12.5585 264.147 12.5585 264.791C12.5585 265.463 12.4138 266.061 12.1245 266.583C11.8352 267.097 11.4292 267.498 10.9065 267.787C10.3838 268.067 9.78649 268.207 9.11449 268.207C7.93849 268.207 7.03782 267.773 6.41249 266.905C5.79649 266.037 5.48849 264.791 5.48849 263.167C5.48849 261.515 5.79649 260.237 6.41249 259.331C7.03782 258.426 7.94782 257.973 9.14249 257.973C9.95449 257.973 10.6358 258.174 11.1865 258.575C11.7465 258.977 12.1058 259.532 12.2645 260.241H10.9905C10.8692 259.849 10.6452 259.555 10.3185 259.359C10.0012 259.154 9.60916 259.051 9.14249 259.051C8.35849 259.051 7.77049 259.359 7.37849 259.975C6.98649 260.582 6.77182 261.501 6.73449 262.733C7.07982 262.295 7.47649 261.973 7.92449 261.767C8.38182 261.553 8.86249 261.445 9.36649 261.445ZM9.12849 267.129C9.78182 267.129 10.3045 266.919 10.6965 266.499C11.0885 266.079 11.2845 265.519 11.2845 264.819C11.2845 264.129 11.0932 263.573 10.7105 263.153C10.3278 262.733 9.81916 262.523 9.18449 262.523C8.19516 262.523 7.39249 263.055 6.77649 264.119C6.97249 266.126 7.75649 267.129 9.12849 267.129ZM18.1099 268.207C17.3633 268.207 16.7193 268.002 16.1779 267.591C15.6366 267.181 15.2213 266.593 14.9319 265.827C14.6519 265.062 14.5119 264.152 14.5119 263.097C14.5119 262.043 14.6519 261.133 14.9319 260.367C15.2213 259.593 15.6366 259 16.1779 258.589C16.7193 258.179 17.3633 257.973 18.1099 257.973C18.8566 257.973 19.5006 258.179 20.0419 258.589C20.5833 259 20.9939 259.593 21.2739 260.367C21.5633 261.133 21.7079 262.043 21.7079 263.097C21.7079 264.152 21.5633 265.062 21.2739 265.827C20.9939 266.593 20.5833 267.181 20.0419 267.591C19.5006 268.002 18.8566 268.207 18.1099 268.207ZM18.1099 267.129C18.8566 267.129 19.4306 266.779 19.8319 266.079C20.2333 265.379 20.4339 264.385 20.4339 263.097C20.4339 261.809 20.2333 260.815 19.8319 260.115C19.4306 259.406 18.8566 259.051 18.1099 259.051C17.3633 259.051 16.7893 259.406 16.3879 260.115C15.9866 260.815 15.7859 261.809 15.7859 263.097C15.7859 264.385 15.9866 265.379 16.3879 266.079C16.7893 266.779 17.3633 267.129 18.1099 267.129Z" fill="#696D73"/>
<path d="M12.0518 187.422C11.3798 187.422 10.7825 187.301 10.2598 187.058C9.74646 186.806 9.34513 186.461 9.05579 186.022C8.77579 185.574 8.63579 185.061 8.63579 184.482C8.63579 183.913 8.78046 183.423 9.06979 183.012C9.35913 182.592 9.76513 182.284 10.2878 182.088V182.018C9.86779 181.803 9.53646 181.509 9.29379 181.136C9.06046 180.763 8.94379 180.329 8.94379 179.834C8.94379 179.311 9.07446 178.849 9.33579 178.448C9.59713 178.047 9.96113 177.739 10.4278 177.524C10.9038 177.3 11.4451 177.188 12.0518 177.188C12.6585 177.188 13.1951 177.3 13.6618 177.524C14.1378 177.739 14.5065 178.047 14.7678 178.448C15.0291 178.849 15.1598 179.311 15.1598 179.834C15.1598 180.329 15.0385 180.763 14.7958 181.136C14.5625 181.509 14.2358 181.803 13.8158 182.018V182.088C14.3385 182.284 14.7445 182.592 15.0338 183.012C15.3231 183.423 15.4678 183.913 15.4678 184.482C15.4678 185.061 15.3231 185.574 15.0338 186.022C14.7538 186.461 14.3525 186.806 13.8298 187.058C13.3165 187.301 12.7238 187.422 12.0518 187.422ZM12.0518 181.542C12.6398 181.542 13.0971 181.397 13.4238 181.108C13.7598 180.819 13.9278 180.417 13.9278 179.904C13.9278 179.391 13.7598 178.989 13.4238 178.7C13.0878 178.411 12.6305 178.266 12.0518 178.266C11.4731 178.266 11.0158 178.411 10.6798 178.7C10.3438 178.989 10.1758 179.391 10.1758 179.904C10.1758 180.417 10.3391 180.819 10.6658 181.108C11.0018 181.397 11.4638 181.542 12.0518 181.542ZM12.0518 186.344C12.7145 186.344 13.2371 186.176 13.6198 185.84C14.0025 185.504 14.1938 185.047 14.1938 184.468C14.1938 183.899 14.0025 183.451 13.6198 183.124C13.2371 182.788 12.7145 182.62 12.0518 182.62C11.3891 182.62 10.8665 182.788 10.4838 183.124C10.1011 183.451 9.90979 183.899 9.90979 184.468C9.90979 185.047 10.1011 185.504 10.4838 185.84C10.8665 186.176 11.3891 186.344 12.0518 186.344ZM21.0915 187.422C20.3449 187.422 19.7009 187.217 19.1595 186.806C18.6182 186.395 18.2029 185.807 17.9135 185.042C17.6335 184.277 17.4935 183.367 17.4935 182.312C17.4935 181.257 17.6335 180.347 17.9135 179.582C18.2029 178.807 18.6182 178.215 19.1595 177.804C19.7009 177.393 20.3449 177.188 21.0915 177.188C21.8382 177.188 22.4822 177.393 23.0235 177.804C23.5649 178.215 23.9755 178.807 24.2555 179.582C24.5449 180.347 24.6895 181.257 24.6895 182.312C24.6895 183.367 24.5449 184.277 24.2555 185.042C23.9755 185.807 23.5649 186.395 23.0235 186.806C22.4822 187.217 21.8382 187.422 21.0915 187.422ZM21.0915 186.344C21.8382 186.344 22.4122 185.994 22.8135 185.294C23.2149 184.594 23.4155 183.6 23.4155 182.312C23.4155 181.024 23.2149 180.03 22.8135 179.33C22.4122 178.621 21.8382 178.266 21.0915 178.266C20.3449 178.266 19.7709 178.621 19.3695 179.33C18.9682 180.03 18.7675 181.024 18.7675 182.312C18.7675 183.6 18.9682 184.594 19.3695 185.294C19.7709 185.994 20.3449 186.344 21.0915 186.344Z" fill="#696D73"/>
<path d="M5.16505 98.0684L7.44705 96.5844H8.65105V106.454H7.46105V97.8584L5.16505 99.3704V98.0684ZM15.1921 106.636C14.4454 106.636 13.8014 106.431 13.2601 106.02C12.7188 105.61 12.3034 105.022 12.0141 104.256C11.7341 103.491 11.5941 102.581 11.5941 101.526C11.5941 100.472 11.7341 99.5618 12.0141 98.7964C12.3034 98.0218 12.7188 97.4291 13.2601 97.0184C13.8014 96.6078 14.4454 96.4024 15.1921 96.4024C15.9388 96.4024 16.5828 96.6078 17.1241 97.0184C17.6654 97.4291 18.0761 98.0218 18.3561 98.7964C18.6454 99.5618 18.7901 100.472 18.7901 101.526C18.7901 102.581 18.6454 103.491 18.3561 104.256C18.0761 105.022 17.6654 105.61 17.1241 106.02C16.5828 106.431 15.9388 106.636 15.1921 106.636ZM15.1921 105.558C15.9388 105.558 16.5128 105.208 16.9141 104.508C17.3154 103.808 17.5161 102.814 17.5161 101.526C17.5161 100.238 17.3154 99.2444 16.9141 98.5444C16.5128 97.8351 15.9388 97.4804 15.1921 97.4804C14.4454 97.4804 13.8714 97.8351 13.4701 98.5444C13.0688 99.2444 12.8681 100.238 12.8681 101.526C12.8681 102.814 13.0688 103.808 13.4701 104.508C13.8714 105.208 14.4454 105.558 15.1921 105.558ZM24.3523 106.636C23.6056 106.636 22.9616 106.431 22.4203 106.02C21.8789 105.61 21.4636 105.022 21.1743 104.256C20.8943 103.491 20.7543 102.581 20.7543 101.526C20.7543 100.472 20.8943 99.5618 21.1743 98.7964C21.4636 98.0218 21.8789 97.4291 22.4203 97.0184C22.9616 96.6078 23.6056 96.4024 24.3523 96.4024C25.0989 96.4024 25.7429 96.6078 26.2843 97.0184C26.8256 97.4291 27.2363 98.0218 27.5163 98.7964C27.8056 99.5618 27.9503 100.472 27.9503 101.526C27.9503 102.581 27.8056 103.491 27.5163 104.256C27.2363 105.022 26.8256 105.61 26.2843 106.02C25.7429 106.431 25.0989 106.636 24.3523 106.636ZM24.3523 105.558C25.0989 105.558 25.6729 105.208 26.0743 104.508C26.4756 103.808 26.6763 102.814 26.6763 101.526C26.6763 100.238 26.4756 99.2444 26.0743 98.5444C25.6729 97.8351 25.0989 97.4804 24.3523 97.4804C23.6056 97.4804 23.0316 97.8351 22.6303 98.5444C22.2289 99.2444 22.0283 100.238 22.0283 101.526C22.0283 102.814 22.2289 103.808 22.6303 104.508C23.0316 105.208 23.6056 105.558 24.3523 105.558Z" fill="#696D73"/>
<rect x="237.27" y="302.095" width="83.8247" height="142.394" stroke="#0077FF"/>
<rect x="236.77" y="382.38" width="42.4123" height="62.6087" fill="#004DFF"/>
<rect x="279.183" y="404.596" width="42.4123" height="40.3927" fill="#0095FF"/>
<path d="M264.077 471.107V469.875L267.745 466.137C268.071 465.801 268.314 465.53 268.473 465.325C268.641 465.12 268.771 464.9 268.865 464.667C268.967 464.434 269.019 464.168 269.019 463.869C269.019 463.328 268.86 462.903 268.543 462.595C268.225 462.287 267.787 462.133 267.227 462.133C266.704 462.133 266.27 462.278 265.925 462.567C265.579 462.856 265.355 463.272 265.253 463.813H263.979C264.147 462.945 264.506 462.268 265.057 461.783C265.617 461.298 266.345 461.055 267.241 461.055C267.857 461.055 268.393 461.176 268.851 461.419C269.317 461.652 269.672 461.984 269.915 462.413C270.167 462.833 270.293 463.318 270.293 463.869C270.293 464.289 270.218 464.672 270.069 465.017C269.929 465.353 269.742 465.661 269.509 465.941C269.285 466.221 268.953 466.585 268.515 467.033L265.673 469.917V469.987L270.461 469.931V471.107H264.077ZM275.947 471.289C275.2 471.289 274.556 471.084 274.015 470.673C273.474 470.262 273.058 469.674 272.769 468.909C272.489 468.144 272.349 467.234 272.349 466.179C272.349 465.124 272.489 464.214 272.769 463.449C273.058 462.674 273.474 462.082 274.015 461.671C274.556 461.26 275.2 461.055 275.947 461.055C276.694 461.055 277.338 461.26 277.879 461.671C278.42 462.082 278.831 462.674 279.111 463.449C279.4 464.214 279.545 465.124 279.545 466.179C279.545 467.234 279.4 468.144 279.111 468.909C278.831 469.674 278.42 470.262 277.879 470.673C277.338 471.084 276.694 471.289 275.947 471.289ZM275.947 470.211C276.694 470.211 277.268 469.861 277.669 469.161C278.07 468.461 278.271 467.467 278.271 466.179C278.271 464.891 278.07 463.897 277.669 463.197C277.268 462.488 276.694 462.133 275.947 462.133C275.2 462.133 274.626 462.488 274.225 463.197C273.824 463.897 273.623 464.891 273.623 466.179C273.623 467.467 273.824 468.461 274.225 469.161C274.626 469.861 275.2 470.211 275.947 470.211ZM281.096 462.721L283.378 461.237H284.582V471.107H283.392V462.511L281.096 464.023V462.721ZM291.109 464.541C291.734 464.541 292.285 464.681 292.761 464.961C293.237 465.232 293.601 465.624 293.853 466.137C294.114 466.641 294.245 467.229 294.245 467.901C294.245 468.582 294.105 469.18 293.825 469.693C293.554 470.197 293.162 470.589 292.649 470.869C292.136 471.149 291.538 471.289 290.857 471.289C289.98 471.289 289.256 471.074 288.687 470.645C288.118 470.206 287.73 469.632 287.525 468.923H288.799C288.995 469.352 289.266 469.674 289.611 469.889C289.956 470.104 290.358 470.211 290.815 470.211C291.487 470.211 292.014 470.006 292.397 469.595C292.78 469.184 292.971 468.62 292.971 467.901C292.971 467.192 292.789 466.636 292.425 466.235C292.061 465.824 291.566 465.619 290.941 465.619C290.521 465.619 290.148 465.712 289.821 465.899C289.494 466.086 289.238 466.347 289.051 466.683H287.791L288.351 461.237H293.867V462.357H289.401L289.107 465.255C289.63 464.779 290.297 464.541 291.109 464.541Z" fill="#696D73"/>
<rect x="71.6594" y="397.018" width="83.8247" height="47.4712" stroke="#0077FF"/>
<rect x="71.1594" y="428.833" width="42.4123" height="16.1571" fill="#004DFF"/>
<path d="M85.5805 419.74C84.6939 419.74 83.9519 419.525 83.3545 419.096C82.7572 418.666 82.3559 418.092 82.1505 417.374H83.4245C83.7979 418.232 84.5165 418.662 85.5805 418.662C86.2152 418.662 86.7099 418.498 87.0645 418.172C87.4285 417.836 87.6105 417.378 87.6105 416.8C87.6105 416.258 87.4519 415.829 87.1345 415.512C86.8265 415.185 86.4065 415.022 85.8745 415.022H84.5445V413.944H85.6225C86.1639 413.944 86.5885 413.799 86.8965 413.51C87.2045 413.22 87.3585 412.814 87.3585 412.292C87.3585 411.769 87.1999 411.354 86.8825 411.046C86.5652 410.738 86.1312 410.584 85.5805 410.584C84.7032 410.584 84.0872 410.98 83.7325 411.774H82.4585C82.6825 411.064 83.0605 410.509 83.5925 410.108C84.1245 409.706 84.7919 409.506 85.5945 409.506C86.2105 409.506 86.7472 409.618 87.2045 409.842C87.6619 410.066 88.0119 410.378 88.2545 410.78C88.5065 411.181 88.6325 411.648 88.6325 412.18C88.6325 413.197 88.1379 413.92 87.1485 414.35V414.42C87.6805 414.588 88.1005 414.882 88.4085 415.302C88.7259 415.722 88.8845 416.235 88.8845 416.842C88.8845 417.42 88.7492 417.929 88.4785 418.368C88.2079 418.797 87.8252 419.133 87.3305 419.376C86.8359 419.618 86.2525 419.74 85.5805 419.74ZM91.752 421.658H90.8L91.36 418.102H92.648L91.752 421.658ZM98.9052 412.978C99.5026 412.978 100.044 413.122 100.529 413.412C101.024 413.692 101.407 414.088 101.677 414.602C101.957 415.106 102.097 415.68 102.097 416.324C102.097 416.996 101.953 417.593 101.663 418.116C101.374 418.629 100.968 419.03 100.445 419.32C99.9226 419.6 99.3252 419.74 98.6532 419.74C97.4772 419.74 96.5766 419.306 95.9512 418.438C95.3352 417.57 95.0272 416.324 95.0272 414.7C95.0272 413.048 95.3352 411.769 95.9512 410.864C96.5766 409.958 97.4866 409.506 98.6812 409.506C99.4932 409.506 100.175 409.706 100.725 410.108C101.285 410.509 101.645 411.064 101.803 411.774H100.529C100.408 411.382 100.184 411.088 99.8572 410.892C99.5399 410.686 99.1479 410.584 98.6812 410.584C97.8972 410.584 97.3092 410.892 96.9172 411.508C96.5252 412.114 96.3106 413.034 96.2732 414.266C96.6186 413.827 97.0152 413.505 97.4632 413.3C97.9206 413.085 98.4012 412.978 98.9052 412.978ZM98.6672 418.662C99.3206 418.662 99.8432 418.452 100.235 418.032C100.627 417.612 100.823 417.052 100.823 416.352C100.823 415.661 100.632 415.106 100.249 414.686C99.8666 414.266 99.3579 414.056 98.7232 414.056C97.7339 414.056 96.9312 414.588 96.3152 415.652C96.5112 417.658 97.2952 418.662 98.6672 418.662Z" fill="#050B15"/>
<path d="M107.657 383.323C107.603 383.334 107.545 383.344 107.481 383.355C107.353 383.387 107.171 383.403 106.937 383.403C106.393 383.403 105.886 383.307 105.417 383.115C104.958 382.912 104.553 382.64 104.201 382.299C103.859 381.958 103.587 381.563 103.385 381.115C103.193 380.656 103.097 380.166 103.097 379.643C103.097 379.12 103.193 378.635 103.385 378.187C103.587 377.728 103.865 377.328 104.217 376.987C104.579 376.646 105.006 376.379 105.497 376.187C105.987 375.984 106.521 375.883 107.097 375.883C107.673 375.883 108.206 375.984 108.697 376.187C109.187 376.379 109.609 376.646 109.961 376.987C110.323 377.328 110.601 377.728 110.793 378.187C110.995 378.635 111.097 379.12 111.097 379.643C111.097 379.963 111.054 380.272 110.969 380.571C110.894 380.87 110.803 381.131 110.697 381.355C110.579 381.632 110.446 381.888 110.297 382.123L107.017 387.243H105.097L107.657 383.323ZM104.857 379.643C104.857 379.942 104.91 380.224 105.017 380.491C105.134 380.747 105.294 380.976 105.497 381.179C105.699 381.371 105.934 381.526 106.201 381.643C106.478 381.75 106.777 381.803 107.097 381.803C107.417 381.803 107.71 381.75 107.977 381.643C108.254 381.526 108.494 381.371 108.697 381.179C108.899 380.976 109.054 380.747 109.161 380.491C109.278 380.224 109.337 379.942 109.337 379.643C109.337 379.344 109.278 379.067 109.161 378.811C109.054 378.544 108.899 378.315 108.697 378.123C108.494 377.92 108.254 377.766 107.977 377.659C107.71 377.542 107.417 377.483 107.097 377.483C106.777 377.483 106.478 377.542 106.201 377.659C105.934 377.766 105.699 377.92 105.497 378.123C105.294 378.315 105.134 378.544 105.017 378.811C104.91 379.067 104.857 379.344 104.857 379.643ZM113.254 385.323L114.694 386.123L112.694 389.323L111.654 388.763L113.254 385.323ZM120.61 383.323C120.556 383.334 120.498 383.344 120.434 383.355C120.306 383.387 120.124 383.403 119.89 383.403C119.346 383.403 118.839 383.307 118.37 383.115C117.911 382.912 117.506 382.64 117.154 382.299C116.812 381.958 116.54 381.563 116.338 381.115C116.146 380.656 116.05 380.166 116.05 379.643C116.05 379.12 116.146 378.635 116.338 378.187C116.54 377.728 116.818 377.328 117.17 376.987C117.532 376.646 117.959 376.379 118.45 376.187C118.94 375.984 119.474 375.883 120.05 375.883C120.626 375.883 121.159 375.984 121.65 376.187C122.14 376.379 122.562 376.646 122.914 376.987C123.276 377.328 123.554 377.728 123.746 378.187C123.948 378.635 124.05 379.12 124.05 379.643C124.05 379.963 124.007 380.272 123.922 380.571C123.847 380.87 123.756 381.131 123.65 381.355C123.532 381.632 123.399 381.888 123.25 382.123L119.97 387.243H118.05L120.61 383.323ZM117.81 379.643C117.81 379.942 117.863 380.224 117.97 380.491C118.087 380.747 118.247 380.976 118.45 381.179C118.652 381.371 118.887 381.526 119.154 381.643C119.431 381.75 119.73 381.803 120.05 381.803C120.37 381.803 120.663 381.75 120.93 381.643C121.207 381.526 121.447 381.371 121.65 381.179C121.852 380.976 122.007 380.747 122.114 380.491C122.231 380.224 122.29 379.942 122.29 379.643C122.29 379.344 122.231 379.067 122.114 378.811C122.007 378.544 121.852 378.315 121.65 378.123C121.447 377.92 121.207 377.766 120.93 377.659C120.663 377.542 120.37 377.483 120.05 377.483C119.73 377.483 119.431 377.542 119.154 377.659C118.887 377.766 118.652 377.92 118.45 378.123C118.247 378.315 118.087 378.544 117.97 378.811C117.863 379.067 117.81 379.344 117.81 379.643Z" fill="#0077FF"/>
<path d="M125.202 425.617V424.385L128.87 420.647C129.197 420.311 129.44 420.04 129.598 419.835C129.766 419.629 129.897 419.41 129.99 419.177C130.093 418.943 130.144 418.677 130.144 418.379C130.144 417.837 129.986 417.413 129.668 417.105C129.351 416.797 128.912 416.643 128.352 416.643C127.83 416.643 127.396 416.787 127.05 417.077C126.705 417.366 126.481 417.781 126.378 418.323H125.104C125.272 417.455 125.632 416.778 126.182 416.293C126.742 415.807 127.47 415.565 128.366 415.565C128.982 415.565 129.519 415.686 129.976 415.929C130.443 416.162 130.798 416.493 131.04 416.923C131.292 417.343 131.418 417.828 131.418 418.379C131.418 418.799 131.344 419.181 131.194 419.527C131.054 419.863 130.868 420.171 130.634 420.451C130.41 420.731 130.079 421.095 129.64 421.543L126.798 424.427V424.497L131.586 424.441V425.617H125.202ZM134.315 427.717H133.363L133.923 424.161H135.211L134.315 427.717ZM141.174 419.051C141.799 419.051 142.35 419.191 142.826 419.471C143.302 419.741 143.666 420.133 143.918 420.647C144.179 421.151 144.31 421.739 144.31 422.411C144.31 423.092 144.17 423.689 143.89 424.203C143.619 424.707 143.227 425.099 142.714 425.379C142.201 425.659 141.603 425.799 140.922 425.799C140.045 425.799 139.321 425.584 138.752 425.155C138.183 424.716 137.795 424.142 137.59 423.433H138.864C139.06 423.862 139.331 424.184 139.676 424.399C140.021 424.613 140.423 424.721 140.88 424.721C141.552 424.721 142.079 424.515 142.462 424.105C142.845 423.694 143.036 423.129 143.036 422.411C143.036 421.701 142.854 421.146 142.49 420.745C142.126 420.334 141.631 420.129 141.006 420.129C140.586 420.129 140.213 420.222 139.886 420.409C139.559 420.595 139.303 420.857 139.116 421.193H137.856L138.416 415.747H143.932V416.867H139.466L139.172 419.765C139.695 419.289 140.362 419.051 141.174 419.051Z" fill="#696D73"/>
<rect x="113.572" y="434.892" width="42.4123" height="10.0982" fill="#0095FF"/>
<path d="M98.2266 471.108V469.876L101.895 466.138C102.221 465.802 102.464 465.531 102.623 465.326C102.791 465.12 102.921 464.901 103.015 464.668C103.117 464.434 103.169 464.168 103.169 463.87C103.169 463.328 103.01 462.904 102.693 462.596C102.375 462.288 101.937 462.134 101.377 462.134C100.854 462.134 100.42 462.278 100.075 462.568C99.7292 462.857 99.5052 463.272 99.4026 463.814H98.1286C98.2966 462.946 98.6559 462.269 99.2066 461.784C99.7666 461.298 100.495 461.056 101.391 461.056C102.007 461.056 102.543 461.177 103.001 461.42C103.467 461.653 103.822 461.984 104.065 462.414C104.317 462.834 104.443 463.319 104.443 463.87C104.443 464.29 104.368 464.672 104.219 465.018C104.079 465.354 103.892 465.662 103.659 465.942C103.435 466.222 103.103 466.586 102.665 467.034L99.8226 469.918V469.988L104.611 469.932V471.108H98.2266ZM110.097 471.29C109.35 471.29 108.706 471.084 108.165 470.674C107.624 470.263 107.208 469.675 106.919 468.91C106.639 468.144 106.499 467.234 106.499 466.18C106.499 465.125 106.639 464.215 106.919 463.45C107.208 462.675 107.624 462.082 108.165 461.672C108.706 461.261 109.35 461.056 110.097 461.056C110.844 461.056 111.488 461.261 112.029 461.672C112.57 462.082 112.981 462.675 113.261 463.45C113.55 464.215 113.695 465.125 113.695 466.18C113.695 467.234 113.55 468.144 113.261 468.91C112.981 469.675 112.57 470.263 112.029 470.674C111.488 471.084 110.844 471.29 110.097 471.29ZM110.097 470.212C110.844 470.212 111.418 469.862 111.819 469.162C112.22 468.462 112.421 467.468 112.421 466.18C112.421 464.892 112.22 463.898 111.819 463.198C111.418 462.488 110.844 462.134 110.097 462.134C109.35 462.134 108.776 462.488 108.375 463.198C107.974 463.898 107.773 464.892 107.773 466.18C107.773 467.468 107.974 468.462 108.375 469.162C108.776 469.862 109.35 470.212 110.097 470.212ZM115.246 462.722L117.528 461.238H118.732V471.108H117.542V462.512L115.246 464.024V462.722ZM125.273 471.29C124.526 471.29 123.882 471.084 123.341 470.674C122.799 470.263 122.384 469.675 122.095 468.91C121.815 468.144 121.675 467.234 121.675 466.18C121.675 465.125 121.815 464.215 122.095 463.45C122.384 462.675 122.799 462.082 123.341 461.672C123.882 461.261 124.526 461.056 125.273 461.056C126.019 461.056 126.663 461.261 127.205 461.672C127.746 462.082 128.157 462.675 128.437 463.45C128.726 464.215 128.871 465.125 128.871 466.18C128.871 467.234 128.726 468.144 128.437 468.91C128.157 469.675 127.746 470.263 127.205 470.674C126.663 471.084 126.019 471.29 125.273 471.29ZM125.273 470.212C126.019 470.212 126.593 469.862 126.995 469.162C127.396 468.462 127.597 467.468 127.597 466.18C127.597 464.892 127.396 463.898 126.995 463.198C126.593 462.488 126.019 462.134 125.273 462.134C124.526 462.134 123.952 462.488 123.551 463.198C123.149 463.898 122.949 464.892 122.949 466.18C122.949 467.468 123.149 468.462 123.551 469.162C123.952 469.862 124.526 470.212 125.273 470.212Z" fill="#050B15"/>
<rect x="371.076" y="262.212" width="84.8247" height="182.777" fill="#0077FF"/>
<rect x="371.075" y="364.204" width="42.4123" height="80.7854" fill="#004DFF"/>
<rect x="413.488" y="382.38" width="42.4123" height="62.6087" fill="#0095FF"/>
<path d="M398.211 471.107V469.875L401.879 466.137C402.205 465.801 402.448 465.53 402.607 465.325C402.775 465.12 402.905 464.9 402.999 464.667C403.101 464.434 403.153 464.168 403.153 463.869C403.153 463.328 402.994 462.903 402.677 462.595C402.359 462.287 401.921 462.133 401.361 462.133C400.838 462.133 400.404 462.278 400.059 462.567C399.713 462.856 399.489 463.272 399.387 463.813H398.113C398.281 462.945 398.64 462.268 399.191 461.783C399.751 461.298 400.479 461.055 401.375 461.055C401.991 461.055 402.527 461.176 402.985 461.419C403.451 461.652 403.806 461.984 404.049 462.413C404.301 462.833 404.427 463.318 404.427 463.869C404.427 464.289 404.352 464.672 404.203 465.017C404.063 465.353 403.876 465.661 403.643 465.941C403.419 466.221 403.087 466.585 402.649 467.033L399.807 469.917V469.987L404.595 469.931V471.107H398.211ZM410.081 471.289C409.334 471.289 408.69 471.084 408.149 470.673C407.608 470.262 407.192 469.674 406.903 468.909C406.623 468.144 406.483 467.234 406.483 466.179C406.483 465.124 406.623 464.214 406.903 463.449C407.192 462.674 407.608 462.082 408.149 461.671C408.69 461.26 409.334 461.055 410.081 461.055C410.828 461.055 411.472 461.26 412.013 461.671C412.554 462.082 412.965 462.674 413.245 463.449C413.534 464.214 413.679 465.124 413.679 466.179C413.679 467.234 413.534 468.144 413.245 468.909C412.965 469.674 412.554 470.262 412.013 470.673C411.472 471.084 410.828 471.289 410.081 471.289ZM410.081 470.211C410.828 470.211 411.402 469.861 411.803 469.161C412.204 468.461 412.405 467.467 412.405 466.179C412.405 464.891 412.204 463.897 411.803 463.197C411.402 462.488 410.828 462.133 410.081 462.133C409.334 462.133 408.76 462.488 408.359 463.197C407.958 463.897 407.757 464.891 407.757 466.179C407.757 467.467 407.958 468.461 408.359 469.161C408.76 469.861 409.334 470.211 410.081 470.211ZM415.23 462.721L417.512 461.237H418.716V471.107H417.526V462.511L415.23 464.023V462.721ZM425.537 464.527C426.134 464.527 426.676 464.672 427.161 464.961C427.656 465.241 428.038 465.638 428.309 466.151C428.589 466.655 428.729 467.229 428.729 467.873C428.729 468.545 428.584 469.142 428.295 469.665C428.006 470.178 427.6 470.58 427.077 470.869C426.554 471.149 425.957 471.289 425.285 471.289C424.109 471.289 423.208 470.855 422.583 469.987C421.967 469.119 421.659 467.873 421.659 466.249C421.659 464.597 421.967 463.318 422.583 462.413C423.208 461.508 424.118 461.055 425.313 461.055C426.125 461.055 426.806 461.256 427.357 461.657C427.917 462.058 428.276 462.614 428.435 463.323H427.161C427.04 462.931 426.816 462.637 426.489 462.441C426.172 462.236 425.78 462.133 425.313 462.133C424.529 462.133 423.941 462.441 423.549 463.057C423.157 463.664 422.942 464.583 422.905 465.815C423.25 465.376 423.647 465.054 424.095 464.849C424.552 464.634 425.033 464.527 425.537 464.527ZM425.299 470.211C425.952 470.211 426.475 470.001 426.867 469.581C427.259 469.161 427.455 468.601 427.455 467.901C427.455 467.21 427.264 466.655 426.881 466.235C426.498 465.815 425.99 465.605 425.355 465.605C424.366 465.605 423.563 466.137 422.947 467.201C423.143 469.208 423.927 470.211 425.299 470.211Z" fill="#696D73"/>
<rect x="505.381" y="202.633" width="84.8247" height="242.356" fill="#0077FF"/>
<rect x="505.382" y="344.007" width="42.4123" height="100.982" fill="#004DFF"/>
<rect x="547.794" y="364.204" width="42.4123" height="80.7854" fill="#0095FF"/>
<path d="M533.174 471.107V469.875L536.842 466.137C537.168 465.801 537.411 465.53 537.57 465.325C537.738 465.119 537.868 464.9 537.962 464.667C538.064 464.433 538.116 464.167 538.116 463.869C538.116 463.327 537.957 462.903 537.64 462.595C537.322 462.287 536.884 462.133 536.324 462.133C535.801 462.133 535.367 462.277 535.022 462.567C534.676 462.856 534.452 463.271 534.35 463.813H533.076C533.244 462.945 533.603 462.268 534.154 461.783C534.714 461.297 535.442 461.055 536.338 461.055C536.954 461.055 537.49 461.176 537.948 461.419C538.414 461.652 538.769 461.983 539.012 462.413C539.264 462.833 539.39 463.318 539.39 463.869C539.39 464.289 539.315 464.671 539.166 465.017C539.026 465.353 538.839 465.661 538.606 465.941C538.382 466.221 538.05 466.585 537.612 467.033L534.77 469.917V469.987L539.558 469.931V471.107H533.174ZM545.044 471.289C544.298 471.289 543.654 471.083 543.112 470.673C542.571 470.262 542.156 469.674 541.866 468.909C541.586 468.143 541.446 467.233 541.446 466.179C541.446 465.124 541.586 464.214 541.866 463.449C542.156 462.674 542.571 462.081 543.112 461.671C543.654 461.26 544.298 461.055 545.044 461.055C545.791 461.055 546.435 461.26 546.976 461.671C547.518 462.081 547.928 462.674 548.208 463.449C548.498 464.214 548.642 465.124 548.642 466.179C548.642 467.233 548.498 468.143 548.208 468.909C547.928 469.674 547.518 470.262 546.976 470.673C546.435 471.083 545.791 471.289 545.044 471.289ZM545.044 470.211C545.791 470.211 546.365 469.861 546.766 469.161C547.168 468.461 547.368 467.467 547.368 466.179C547.368 464.891 547.168 463.897 546.766 463.197C546.365 462.487 545.791 462.133 545.044 462.133C544.298 462.133 543.724 462.487 543.322 463.197C542.921 463.897 542.72 464.891 542.72 466.179C542.72 467.467 542.921 468.461 543.322 469.161C543.724 469.861 544.298 470.211 545.044 470.211ZM550.193 462.721L552.475 461.237H553.679V471.107H552.489V462.511L550.193 464.023V462.721ZM558.498 471.107H557.168L561.186 462.511V462.399H556.062V461.237H562.516V462.399L558.498 471.107Z" fill="#696D73"/>
<rect x="639.687" y="162.24" width="84.8247" height="282.749" fill="#0077FF"/>
<rect x="639.687" y="301.595" width="42.4123" height="143.394" fill="#004DFF"/>
<rect x="682.099" y="344.007" width="42.4123" height="100.982" fill="#0095FF"/>
<path d="M666.87 471.107V469.875L670.538 466.137C670.865 465.801 671.107 465.53 671.266 465.325C671.434 465.119 671.565 464.9 671.658 464.667C671.761 464.433 671.812 464.167 671.812 463.869C671.812 463.327 671.653 462.903 671.336 462.595C671.019 462.287 670.58 462.133 670.02 462.133C669.497 462.133 669.063 462.277 668.718 462.567C668.373 462.856 668.149 463.271 668.046 463.813H666.772C666.94 462.945 667.299 462.268 667.85 461.783C668.41 461.297 669.138 461.055 670.034 461.055C670.65 461.055 671.187 461.176 671.644 461.419C672.111 461.652 672.465 461.983 672.708 462.413C672.96 462.833 673.086 463.318 673.086 463.869C673.086 464.289 673.011 464.671 672.862 465.017C672.722 465.353 672.535 465.661 672.302 465.941C672.078 466.221 671.747 466.585 671.308 467.033L668.466 469.917V469.987L673.254 469.931V471.107H666.87ZM678.741 471.289C677.994 471.289 677.35 471.083 676.809 470.673C676.267 470.262 675.852 469.674 675.563 468.909C675.283 468.143 675.143 467.233 675.143 466.179C675.143 465.124 675.283 464.214 675.563 463.449C675.852 462.674 676.267 462.081 676.809 461.671C677.35 461.26 677.994 461.055 678.741 461.055C679.487 461.055 680.131 461.26 680.673 461.671C681.214 462.081 681.625 462.674 681.905 463.449C682.194 464.214 682.339 465.124 682.339 466.179C682.339 467.233 682.194 468.143 681.905 468.909C681.625 469.674 681.214 470.262 680.673 470.673C680.131 471.083 679.487 471.289 678.741 471.289ZM678.741 470.211C679.487 470.211 680.061 469.861 680.463 469.161C680.864 468.461 681.065 467.467 681.065 466.179C681.065 464.891 680.864 463.897 680.463 463.197C680.061 462.487 679.487 462.133 678.741 462.133C677.994 462.133 677.42 462.487 677.019 463.197C676.617 463.897 676.417 464.891 676.417 466.179C676.417 467.467 676.617 468.461 677.019 469.161C677.42 469.861 677.994 470.211 678.741 470.211ZM683.889 462.721L686.171 461.237H687.375V471.107H686.185V462.511L683.889 464.023V462.721ZM693.804 471.289C693.132 471.289 692.535 471.167 692.012 470.925C691.499 470.673 691.098 470.327 690.808 469.889C690.528 469.441 690.388 468.927 690.388 468.349C690.388 467.779 690.533 467.289 690.822 466.879C691.112 466.459 691.518 466.151 692.04 465.955V465.885C691.62 465.67 691.289 465.376 691.046 465.003C690.813 464.629 690.696 464.195 690.696 463.701C690.696 463.178 690.827 462.716 691.088 462.315C691.35 461.913 691.714 461.605 692.18 461.391C692.656 461.167 693.198 461.055 693.804 461.055C694.411 461.055 694.948 461.167 695.414 461.391C695.89 461.605 696.259 461.913 696.52 462.315C696.782 462.716 696.912 463.178 696.912 463.701C696.912 464.195 696.791 464.629 696.548 465.003C696.315 465.376 695.988 465.67 695.568 465.885V465.955C696.091 466.151 696.497 466.459 696.786 466.879C697.076 467.289 697.22 467.779 697.22 468.349C697.22 468.927 697.076 469.441 696.786 469.889C696.506 470.327 696.105 470.673 695.582 470.925C695.069 471.167 694.476 471.289 693.804 471.289ZM693.804 465.409C694.392 465.409 694.85 465.264 695.176 464.975C695.512 464.685 695.68 464.284 695.68 463.771C695.68 463.257 695.512 462.856 695.176 462.567C694.84 462.277 694.383 462.133 693.804 462.133C693.226 462.133 692.768 462.277 692.432 462.567C692.096 462.856 691.928 463.257 691.928 463.771C691.928 464.284 692.092 464.685 692.418 464.975C692.754 465.264 693.216 465.409 693.804 465.409ZM693.804 470.211C694.467 470.211 694.99 470.043 695.372 469.707C695.755 469.371 695.946 468.913 695.946 468.335C695.946 467.765 695.755 467.317 695.372 466.991C694.99 466.655 694.467 466.487 693.804 466.487C693.142 466.487 692.619 466.655 692.236 466.991C691.854 467.317 691.662 467.765 691.662 468.335C691.662 468.913 691.854 469.371 692.236 469.707C692.619 470.043 693.142 470.211 693.804 470.211Z" fill="#696D73"/>
<rect x="773.993" y="121.848" width="84.8247" height="323.142" fill="#0077FF"/>
<rect x="773.994" y="262.213" width="42.4123" height="182.777" fill="#004DFF"/>
<rect x="816.406" y="323.812" width="42.4123" height="121.178" fill="#0095FF"/>
<path d="M801.129 471.108V469.876L804.797 466.138C805.124 465.802 805.366 465.531 805.525 465.326C805.693 465.12 805.824 464.901 805.917 464.668C806.02 464.434 806.071 464.168 806.071 463.87C806.071 463.328 805.912 462.904 805.595 462.596C805.278 462.288 804.839 462.134 804.279 462.134C803.756 462.134 803.322 462.278 802.977 462.568C802.632 462.857 802.408 463.272 802.305 463.814H801.031C801.199 462.946 801.558 462.269 802.109 461.784C802.669 461.298 803.397 461.056 804.293 461.056C804.909 461.056 805.446 461.177 805.903 461.42C806.37 461.653 806.724 461.984 806.967 462.414C807.219 462.834 807.345 463.319 807.345 463.87C807.345 464.29 807.27 464.672 807.121 465.018C806.981 465.354 806.794 465.662 806.561 465.942C806.337 466.222 806.006 466.586 805.567 467.034L802.725 469.918V469.988L807.513 469.932V471.108H801.129ZM813 471.29C812.253 471.29 811.609 471.084 811.068 470.674C810.526 470.263 810.111 469.675 809.822 468.91C809.542 468.144 809.402 467.234 809.402 466.18C809.402 465.125 809.542 464.215 809.822 463.45C810.111 462.675 810.526 462.082 811.068 461.672C811.609 461.261 812.253 461.056 813 461.056C813.746 461.056 814.39 461.261 814.932 461.672C815.473 462.082 815.884 462.675 816.164 463.45C816.453 464.215 816.598 465.125 816.598 466.18C816.598 467.234 816.453 468.144 816.164 468.91C815.884 469.675 815.473 470.263 814.932 470.674C814.39 471.084 813.746 471.29 813 471.29ZM813 470.212C813.746 470.212 814.32 469.862 814.722 469.162C815.123 468.462 815.324 467.468 815.324 466.18C815.324 464.892 815.123 463.898 814.722 463.198C814.32 462.488 813.746 462.134 813 462.134C812.253 462.134 811.679 462.488 811.278 463.198C810.876 463.898 810.676 464.892 810.676 466.18C810.676 467.468 810.876 468.462 811.278 469.162C811.679 469.862 812.253 470.212 813 470.212ZM818.148 462.722L820.43 461.238H821.634V471.108H820.444V462.512L818.148 464.024V462.722ZM828.021 461.056C829.197 461.056 830.093 461.49 830.709 462.358C831.335 463.226 831.647 464.472 831.647 466.096C831.647 467.748 831.335 469.026 830.709 469.932C830.093 470.837 829.188 471.29 827.993 471.29C827.181 471.29 826.495 471.089 825.935 470.688C825.385 470.286 825.03 469.731 824.871 469.022H826.145C826.267 469.414 826.486 469.712 826.803 469.918C827.13 470.114 827.527 470.212 827.993 470.212C828.777 470.212 829.365 469.908 829.757 469.302C830.149 468.686 830.364 467.762 830.401 466.53C830.056 466.968 829.655 467.295 829.197 467.51C828.749 467.715 828.273 467.818 827.769 467.818C827.172 467.818 826.626 467.678 826.131 467.398C825.646 467.108 825.263 466.712 824.983 466.208C824.713 465.694 824.577 465.116 824.577 464.472C824.577 463.8 824.722 463.207 825.011 462.694C825.301 462.171 825.707 461.77 826.229 461.49C826.752 461.2 827.349 461.056 828.021 461.056ZM827.951 466.74C828.941 466.74 829.743 466.208 830.359 465.144C830.163 463.137 829.379 462.134 828.007 462.134C827.354 462.134 826.831 462.344 826.439 462.764C826.047 463.184 825.851 463.744 825.851 464.444C825.851 465.134 826.043 465.69 826.425 466.11C826.808 466.53 827.317 466.74 827.951 466.74Z" fill="#696D73"/>
<path d="M8.86949 25.669H7.72149V18.319H9.31749L11.5855 24.339H11.6555L14.0215 18.319H15.5755V25.669H14.4275V20.041H14.3575L12.1455 25.669H11.0675L8.93949 20.041H8.86949V25.669ZM18.9837 18.319H23.8277V25.669H22.6237V19.369H20.1037L19.7677 23.149C19.6837 24.073 19.4737 24.745 19.1377 25.165C18.8017 25.5757 18.3024 25.781 17.6397 25.781C17.5277 25.781 17.3317 25.7717 17.0517 25.753V24.605C17.1264 24.6143 17.2617 24.619 17.4577 24.619C17.7191 24.619 17.9197 24.577 18.0597 24.493C18.2091 24.409 18.3211 24.2643 18.3957 24.059C18.4704 23.8443 18.5264 23.5363 18.5637 23.135L18.9837 18.319ZM29.4819 18.137C30.0885 18.137 30.6205 18.2957 31.0779 18.613C31.5445 18.921 31.8992 19.3643 32.1419 19.943C32.3939 20.5123 32.5199 21.1797 32.5199 21.945C32.5199 22.7103 32.3845 23.3917 32.1139 23.989C31.8432 24.577 31.4605 25.0343 30.9659 25.361C30.4712 25.6877 29.9019 25.851 29.2579 25.851C28.5672 25.851 27.9512 25.6363 27.4099 25.207V28.469H26.2059V18.319H27.1439L27.2839 19.033C27.6385 18.7157 27.9932 18.487 28.3479 18.347C28.7119 18.207 29.0899 18.137 29.4819 18.137ZM29.0899 24.801C29.7712 24.801 30.3032 24.5443 30.6859 24.031C31.0779 23.5177 31.2739 22.8223 31.2739 21.945C31.2739 21.0957 31.0919 20.4237 30.7279 19.929C30.3732 19.4343 29.8832 19.187 29.2579 19.187C28.6512 19.187 28.0352 19.4297 27.4099 19.915V24.185C27.9419 24.5957 28.5019 24.801 29.0899 24.801ZM40.2106 24.619H41.4146V27.797H40.2386V25.669H34.5826V27.797H33.4066V24.619H33.6306C34.0039 24.619 34.2886 24.4417 34.4846 24.087C34.6899 23.7323 34.8392 23.135 34.9326 22.295L35.3666 18.319H40.2106V24.619ZM39.0066 24.619V19.369H36.4586L36.1226 22.323C36.0386 23.0323 35.9406 23.541 35.8286 23.849C35.7259 24.1477 35.5672 24.381 35.3526 24.549V24.619H39.0066ZM48.8381 21.861V22.911H51.7221V23.961H48.8381V25.669H47.5641V23.961H46.3741V22.911H47.5641V21.861H46.3741V20.741H47.5641V15.799H50.4901C51.1714 15.799 51.7687 15.925 52.2821 16.177C52.7954 16.4197 53.1921 16.7697 53.4721 17.227C53.7521 17.6843 53.8921 18.2163 53.8921 18.823C53.8921 19.439 53.7521 19.9757 53.4721 20.433C53.1921 20.8903 52.7954 21.245 52.2821 21.497C51.7687 21.7397 51.1714 21.861 50.4901 21.861H48.8381ZM48.8381 16.919V20.741H50.4901C51.1341 20.741 51.6427 20.573 52.0161 20.237C52.3894 19.8917 52.5761 19.4203 52.5761 18.823C52.5761 18.235 52.3847 17.773 52.0021 17.437C51.6287 17.0917 51.1247 16.919 50.4901 16.919H48.8381Z" fill="#696D73"/>
<rect x="940.103" y="81.9547" width="126.237" height="362.534" stroke="#0077FF"/>
<rect x="939.603" y="230.908" width="63.6185" height="214.081" fill="#004DFF"/>
<rect x="1003.22" y="344.007" width="63.6185" height="100.982" fill="#0095FF"/>
<path d="M983.533 70.0813V59.6613H980.773V57.7813H982.673C982.94 57.7813 983.147 57.7013 983.293 57.5413C983.453 57.3813 983.533 57.168 983.533 56.9013V55.9813H985.593V70.0813H983.533ZM994.037 70.2413C992.957 70.2413 991.997 69.9413 991.157 69.3413C990.317 68.7413 989.664 67.8947 989.197 66.8013C988.731 65.708 988.497 64.4547 988.497 63.0413C988.497 61.628 988.731 60.3747 989.197 59.2813C989.664 58.188 990.317 57.3413 991.157 56.7413C991.997 56.1413 992.957 55.8413 994.037 55.8413C995.117 55.8413 996.077 56.1413 996.917 56.7413C997.757 57.3413 998.404 58.188 998.857 59.2813C999.324 60.3747 999.557 61.628 999.557 63.0413C999.557 64.4547 999.324 65.708 998.857 66.8013C998.404 67.8947 997.757 68.7413 996.917 69.3413C996.077 69.9413 995.117 70.2413 994.037 70.2413ZM994.037 68.3413C994.704 68.3413 995.291 68.1213 995.797 67.6813C996.317 67.2413 996.717 66.6213 996.997 65.8213C997.277 65.0213 997.417 64.0947 997.417 63.0413C997.417 61.9747 997.277 61.0413 996.997 60.2413C996.717 59.4413 996.317 58.828 995.797 58.4013C995.291 57.9613 994.704 57.7413 994.037 57.7413C993.357 57.7413 992.764 57.9613 992.257 58.4013C991.751 58.828 991.357 59.4413 991.077 60.2413C990.797 61.0413 990.657 61.9747 990.657 63.0413C990.657 64.0947 990.797 65.0213 991.077 65.8213C991.357 66.6213 991.751 67.2413 992.257 67.6813C992.764 68.1213 993.357 68.3413 994.037 68.3413ZM1004.89 70.0813H1002.65L1008.17 58.2413V57.9413H1000.77V55.9813H1010.45V58.1413L1004.89 70.0813ZM1011.9 72.4213H1010.34L1011.1 67.9413H1013.04L1011.9 72.4213ZM1024.01 70.0813H1022.01V67.0613H1015.15V65.0813L1020.99 55.9813H1024.01V65.1613H1025.77V67.0613H1024.01V70.0813ZM1021.71 58.1013L1017.29 65.1613H1022.01V58.1013H1021.71Z" fill="#0077FF"/>
<path d="M967.17 211.215C967.837 211.468 968.397 211.875 968.85 212.435C969.304 212.995 969.53 213.702 969.53 214.555C969.53 215.355 969.33 216.075 968.93 216.715C968.53 217.342 967.97 217.835 967.25 218.195C966.53 218.542 965.71 218.715 964.79 218.715C963.51 218.715 962.424 218.375 961.53 217.695C960.637 217.015 960.037 216.115 959.73 214.995L961.71 214.655C962.03 215.375 962.437 215.915 962.93 216.275C963.437 216.635 964.05 216.815 964.77 216.815C965.557 216.815 966.197 216.602 966.69 216.175C967.197 215.748 967.45 215.188 967.45 214.495C967.45 213.828 967.204 213.288 966.71 212.875C966.23 212.448 965.59 212.235 964.79 212.235H963.21V210.415H964.79C965.497 210.415 966.077 210.215 966.53 209.815C966.984 209.415 967.21 208.895 967.21 208.255C967.21 207.615 966.984 207.102 966.53 206.715C966.077 206.315 965.49 206.115 964.77 206.115C964.144 206.115 963.59 206.288 963.11 206.635C962.644 206.968 962.284 207.435 962.03 208.035L960.09 207.715C960.49 206.582 961.097 205.715 961.91 205.115C962.737 204.515 963.71 204.215 964.83 204.215C965.697 204.215 966.464 204.382 967.13 204.715C967.81 205.048 968.337 205.515 968.71 206.115C969.097 206.702 969.29 207.368 969.29 208.115C969.29 208.862 969.09 209.502 968.69 210.035C968.29 210.568 967.784 210.962 967.17 211.215ZM976.945 218.675C975.865 218.675 974.905 218.375 974.065 217.775C973.225 217.175 972.571 216.328 972.105 215.235C971.638 214.142 971.405 212.888 971.405 211.475C971.405 210.062 971.638 208.808 972.105 207.715C972.571 206.622 973.225 205.775 974.065 205.175C974.905 204.575 975.865 204.275 976.945 204.275C978.025 204.275 978.985 204.575 979.825 205.175C980.665 205.775 981.311 206.622 981.765 207.715C982.231 208.808 982.465 210.062 982.465 211.475C982.465 212.888 982.231 214.142 981.765 215.235C981.311 216.328 980.665 217.175 979.825 217.775C978.985 218.375 978.025 218.675 976.945 218.675ZM976.945 216.775C977.611 216.775 978.198 216.555 978.705 216.115C979.225 215.675 979.625 215.055 979.905 214.255C980.185 213.455 980.325 212.528 980.325 211.475C980.325 210.408 980.185 209.475 979.905 208.675C979.625 207.875 979.225 207.262 978.705 206.835C978.198 206.395 977.611 206.175 976.945 206.175C976.265 206.175 975.671 206.395 975.165 206.835C974.658 207.262 974.265 207.875 973.985 208.675C973.705 209.475 973.565 210.408 973.565 211.475C973.565 212.528 973.705 213.455 973.985 214.255C974.265 215.055 974.658 215.675 975.165 216.115C975.671 216.555 976.265 216.775 976.945 216.775Z" fill="#050B15"/>
<path d="M1028.18 331.615V321.195H1025.42V319.315H1027.32C1027.59 319.315 1027.8 319.235 1027.94 319.075C1028.1 318.915 1028.18 318.701 1028.18 318.435V317.515H1030.24V331.615H1028.18ZM1038.69 331.775C1037.61 331.775 1036.65 331.475 1035.81 330.875C1034.97 330.275 1034.31 329.428 1033.85 328.335C1033.38 327.241 1033.15 325.988 1033.15 324.575C1033.15 323.161 1033.38 321.908 1033.85 320.815C1034.31 319.721 1034.97 318.875 1035.81 318.275C1036.65 317.675 1037.61 317.375 1038.69 317.375C1039.77 317.375 1040.73 317.675 1041.57 318.275C1042.41 318.875 1043.05 319.721 1043.51 320.815C1043.97 321.908 1044.21 323.161 1044.21 324.575C1044.21 325.988 1043.97 327.241 1043.51 328.335C1043.05 329.428 1042.41 330.275 1041.57 330.875C1040.73 331.475 1039.77 331.775 1038.69 331.775ZM1038.69 329.875C1039.35 329.875 1039.94 329.655 1040.45 329.215C1040.97 328.775 1041.37 328.155 1041.65 327.355C1041.93 326.555 1042.07 325.628 1042.07 324.575C1042.07 323.508 1041.93 322.575 1041.65 321.775C1041.37 320.975 1040.97 320.361 1040.45 319.935C1039.94 319.495 1039.35 319.275 1038.69 319.275C1038.01 319.275 1037.41 319.495 1036.91 319.935C1036.4 320.361 1036.01 320.975 1035.73 321.775C1035.45 322.575 1035.31 323.508 1035.31 324.575C1035.31 325.628 1035.45 326.555 1035.73 327.355C1036.01 328.155 1036.4 328.775 1036.91 329.215C1037.41 329.655 1038.01 329.875 1038.69 329.875Z" fill="#696D73"/>
<path d="M986.768 471.107V469.875L990.436 466.137C990.763 465.801 991.006 465.53 991.164 465.325C991.332 465.12 991.463 464.9 991.556 464.667C991.659 464.434 991.71 464.168 991.71 463.869C991.71 463.328 991.552 462.903 991.234 462.595C990.917 462.287 990.478 462.133 989.918 462.133C989.396 462.133 988.962 462.278 988.616 462.567C988.271 462.856 988.047 463.272 987.944 463.813H986.67C986.838 462.945 987.198 462.268 987.748 461.783C988.308 461.298 989.036 461.055 989.932 461.055C990.548 461.055 991.085 461.176 991.542 461.419C992.009 461.652 992.364 461.984 992.606 462.413C992.858 462.833 992.984 463.318 992.984 463.869C992.984 464.289 992.91 464.672 992.76 465.017C992.62 465.353 992.434 465.661 992.2 465.941C991.976 466.221 991.645 466.585 991.206 467.033L988.364 469.917V469.987L993.152 469.931V471.107H986.768ZM998.639 471.289C997.892 471.289 997.248 471.084 996.707 470.673C996.166 470.262 995.75 469.674 995.461 468.909C995.181 468.144 995.041 467.234 995.041 466.179C995.041 465.124 995.181 464.214 995.461 463.449C995.75 462.674 996.166 462.082 996.707 461.671C997.248 461.26 997.892 461.055 998.639 461.055C999.386 461.055 1000.03 461.26 1000.57 461.671C1001.11 462.082 1001.52 462.674 1001.8 463.449C1002.09 464.214 1002.24 465.124 1002.24 466.179C1002.24 467.234 1002.09 468.144 1001.8 468.909C1001.52 469.674 1001.11 470.262 1000.57 470.673C1000.03 471.084 999.386 471.289 998.639 471.289ZM998.639 470.211C999.386 470.211 999.96 469.861 1000.36 469.161C1000.76 468.461 1000.96 467.467 1000.96 466.179C1000.96 464.891 1000.76 463.897 1000.36 463.197C999.96 462.488 999.386 462.133 998.639 462.133C997.892 462.133 997.318 462.488 996.917 463.197C996.516 463.897 996.315 464.891 996.315 466.179C996.315 467.467 996.516 468.461 996.917 469.161C997.318 469.861 997.892 470.211 998.639 470.211ZM1004.16 471.107V469.875L1007.83 466.137C1008.15 465.801 1008.4 465.53 1008.56 465.325C1008.72 465.12 1008.85 464.9 1008.95 464.667C1009.05 464.434 1009.1 464.168 1009.1 463.869C1009.1 463.328 1008.94 462.903 1008.63 462.595C1008.31 462.287 1007.87 462.133 1007.31 462.133C1006.79 462.133 1006.35 462.278 1006.01 462.567C1005.66 462.856 1005.44 463.272 1005.34 463.813H1004.06C1004.23 462.945 1004.59 462.268 1005.14 461.783C1005.7 461.298 1006.43 461.055 1007.32 461.055C1007.94 461.055 1008.48 461.176 1008.93 461.419C1009.4 461.652 1009.75 461.984 1010 462.413C1010.25 462.833 1010.38 463.318 1010.38 463.869C1010.38 464.289 1010.3 464.672 1010.15 465.017C1010.01 465.353 1009.82 465.661 1009.59 465.941C1009.37 466.221 1009.04 466.585 1008.6 467.033L1005.76 469.917V469.987L1010.54 469.931V471.107H1004.16ZM1016.03 471.289C1015.28 471.289 1014.64 471.084 1014.1 470.673C1013.56 470.262 1013.14 469.674 1012.85 468.909C1012.57 468.144 1012.43 467.234 1012.43 466.179C1012.43 465.124 1012.57 464.214 1012.85 463.449C1013.14 462.674 1013.56 462.082 1014.1 461.671C1014.64 461.26 1015.28 461.055 1016.03 461.055C1016.78 461.055 1017.42 461.26 1017.96 461.671C1018.5 462.082 1018.91 462.674 1019.19 463.449C1019.48 464.214 1019.63 465.124 1019.63 466.179C1019.63 467.234 1019.48 468.144 1019.19 468.909C1018.91 469.674 1018.5 470.262 1017.96 470.673C1017.42 471.084 1016.78 471.289 1016.03 471.289ZM1016.03 470.211C1016.78 470.211 1017.35 469.861 1017.75 469.161C1018.15 468.461 1018.35 467.467 1018.35 466.179C1018.35 464.891 1018.15 463.897 1017.75 463.197C1017.35 462.488 1016.78 462.133 1016.03 462.133C1015.28 462.133 1014.71 462.488 1014.31 463.197C1013.91 463.897 1013.71 464.891 1013.71 466.179C1013.71 467.467 1013.91 468.461 1014.31 469.161C1014.71 469.861 1015.28 470.211 1016.03 470.211Z" fill="#050B15"/>
</svg>
