<svg width="68" height="68" viewBox="0 0 68 68" fill="none" xmlns="http://www.w3.org/2000/svg">
<rect width="68" height="68" rx="16" fill="#3520A3"/>
<mask id="mask0" style="mask-type:alpha" maskUnits="userSpaceOnUse" x="14" y="13" width="39" height="42">
<path fill-rule="evenodd" clip-rule="evenodd" d="M18.7562 20.7322C16.2668 22.137 14.7188 24.8208 14.7188 27.7367V39.9652C14.7188 42.8249 16.2065 45.4656 18.6214 46.8918L29.5229 53.3327C31.9272 54.753 34.8873 54.753 37.2916 53.3327L48.1931 46.8918C50.6068 45.4656 52.0958 42.8249 52.0958 39.9652V27.7367C52.0958 24.8208 50.5489 22.137 48.0583 20.7322L37.1568 14.5857C34.8223 13.2683 31.9934 13.2683 29.6577 14.5857L18.7562 20.7322ZM47.4244 39.9652V29.1797L37.3768 34.2541C36.3763 34.7591 35.7447 35.7941 35.7447 36.9248V48.7129L45.8633 42.7351C46.8283 42.1656 47.4244 41.109 47.4244 39.9652ZM31.0722 48.7141L20.9536 42.7363C19.9874 42.1656 19.3925 41.109 19.3925 39.9652V28.8028L29.504 34.223C30.469 34.7411 31.0733 35.7558 31.0733 36.8614V48.7141H31.0722ZM34.9074 18.7867L45.5381 24.7813L35.9671 29.9191C34.3362 30.7938 32.3861 30.7675 30.78 29.845L21.6194 24.5874L31.9071 18.7855C32.8426 18.2602 33.9731 18.2602 34.9074 18.7867Z" fill="#C4C4C4"/>
</mask>
<g mask="url(#mask0)">
<rect x="14.9141" y="22.9194" width="75.9745" height="79.3263" fill="white"/>
<path d="M54.3373 12.6118H14.4141V55.9595H54.3373V12.6118Z" fill="url(#paint0_linear)"/>
<path d="M54.3373 12.6118H14.4141V55.9595H54.3373V12.6118Z" fill="url(#paint1_linear)"/>
<path d="M51.123 10.1138H15.7812V60.832H51.123V10.1138Z" fill="url(#paint2_radial)"/>
<path d="M5.31283 48.63L3.08594 18.1737L39.7108 -8.62012L53.3122 23.3522L32.453 63.1211L5.31283 48.63Z" fill="url(#paint3_linear)"/>
</g>
<defs>
<linearGradient id="paint0_linear" x1="45.9937" y1="47.4362" x2="24.1979" y2="23.3364" gradientUnits="userSpaceOnUse">
<stop stop-color="#C319FF"/>
<stop offset="0.2769" stop-color="#B213FF" stop-opacity="0.7231"/>
<stop offset="0.8381" stop-color="#8005FF" stop-opacity="0.1619"/>
<stop offset="1" stop-color="#7000FF" stop-opacity="0"/>
</linearGradient>
<linearGradient id="paint1_linear" x1="49.936" y1="26.3583" x2="25.2731" y2="38.6418" gradientUnits="userSpaceOnUse">
<stop stop-color="#00CEFF"/>
<stop offset="1" stop-color="#00D5FF" stop-opacity="0"/>
</linearGradient>
<radialGradient id="paint2_radial" cx="0" cy="0" r="1" gradientUnits="userSpaceOnUse" gradientTransform="translate(33.6203 36.4684) scale(14.0798 14.2452)">
<stop stop-color="#9D1EF8"/>
<stop offset="1" stop-color="#7000FF" stop-opacity="0"/>
</radialGradient>
<linearGradient id="paint3_linear" x1="11.6388" y1="20.7106" x2="36.9561" y2="27.3392" gradientUnits="userSpaceOnUse">
<stop stop-color="#FFCD44"/>
<stop offset="0.5" stop-color="#FFCD44" stop-opacity="0.9"/>
<stop offset="1" stop-color="#FFCD44" stop-opacity="0"/>
</linearGradient>
</defs>
</svg>
