<svg width="68" height="68" viewBox="0 0 68 68" fill="none" xmlns="http://www.w3.org/2000/svg">
<path d="M0 32C0 16.9151 0 9.37258 4.68629 4.68629C9.37258 0 16.9151 0 32 0H36C51.0849 0 58.6274 0 63.3137 4.68629C68 9.37258 68 16.9151 68 32V36C68 51.0849 68 58.6274 63.3137 63.3137C58.6274 68 51.0849 68 36 68H32C16.9151 68 9.37258 68 4.68629 63.3137C0 58.6274 0 51.0849 0 36V32Z" fill="black"/>
<g clip-path="url(#clip0)">
<path d="M36.2829 17.2501C35.5382 18.1846 34.9797 19.8668 34.9797 22.1097V25.1002C34.9797 26.0347 35.352 26.9693 35.9106 27.7169L38.7032 31.2682C38.8894 31.2682 38.8894 31.2682 39.0756 31.2682C40.565 31.2682 41.8683 32.5765 41.8683 34.0718C41.8683 35.567 40.565 36.8754 39.0756 36.8754C37.5862 36.8754 36.2829 35.567 36.2829 34.0718C36.2829 33.698 36.2829 33.3241 36.4691 33.1372L33.6764 29.586C32.7455 28.2776 32.187 26.7824 32.187 25.2871V22.1097C32.187 19.493 32.7455 17.2501 33.8626 15.5679C35.352 13.8857 37.0276 12.9512 39.2618 12.9512C42.7992 12.9512 45.778 15.1941 47.0812 18.1846C50.2463 19.1191 52.6666 22.1097 52.6666 25.6609C52.6666 26.4086 52.6666 27.1562 52.4804 27.9038C54.7145 29.0253 56.204 31.4551 56.204 34.0718C56.204 36.6885 54.7145 39.1183 52.4804 40.2397C52.6666 40.9874 52.6666 41.735 52.6666 42.4826C52.6666 46.0339 50.4324 49.0244 47.0812 49.959C45.778 52.9495 42.7992 55.1924 39.2618 55.1924C38.3309 55.1924 37.4 55.0055 36.6553 54.8186L37.5862 52.2019C38.1447 52.3888 38.7032 52.3888 39.2618 52.3888C41.8683 52.3888 43.9162 50.7066 44.6609 48.4637L44.8471 47.7161L45.778 47.5292C48.0121 47.1553 49.8739 45.0994 49.8739 42.6695C49.8739 41.3612 49.6877 40.9874 49.5016 40.6136C49.1292 40.0528 48.3845 39.8659 47.826 39.8659C47.0812 39.8659 46.3365 40.4267 45.9642 40.9874L43.9162 42.8565C44.1024 43.2303 44.1024 43.6041 44.1024 43.791C44.1024 45.2863 42.7992 46.5946 41.3097 46.5946C39.8203 46.5946 38.5171 45.2863 38.5171 43.791C38.5171 42.2957 39.8203 40.9874 41.3097 40.9874C41.4959 40.9874 41.6821 40.9874 41.6821 40.9874L43.3577 38.9314C44.2886 37.8099 45.778 36.8754 47.2674 36.8754C48.3845 36.6885 49.6877 37.0623 50.8048 37.8099C52.2942 37.0623 53.2251 35.754 53.2251 33.8849C53.2251 32.0158 52.2942 30.7074 50.8048 30.1467C49.6877 30.8943 48.5707 31.2682 47.2674 31.0813C45.778 30.8943 44.4748 30.1467 43.3577 29.0253L41.6821 26.9693C41.4959 26.9693 41.4959 26.9693 41.3097 26.9693C39.8203 26.9693 38.5171 25.6609 38.5171 24.1657C38.5171 22.6704 39.8203 21.362 41.3097 21.362C42.7992 21.362 44.1024 22.6704 44.1024 24.1657C44.1024 24.5395 44.1024 24.9133 43.9162 25.1002L45.5918 27.1562C46.1504 27.7169 46.8951 28.0907 47.4536 28.2776C48.1983 28.2776 48.7568 28.0907 49.1292 27.53C49.5016 27.1562 49.5016 26.5955 49.5016 25.474C49.5016 23.0442 47.826 20.9882 45.4056 20.6144H44.8471L44.6609 19.8668C43.9162 17.6239 41.8683 15.9417 39.2618 15.9417C37.9585 15.7548 37.0276 16.3155 36.2829 17.2501Z" fill="white"/>
<path d="M11.3359 33.8846C11.3359 36.5013 12.8254 38.9311 15.0595 40.0526C14.8733 40.8002 14.8733 41.5479 14.8733 42.2955C14.8733 45.8467 17.1075 48.8373 20.4587 49.7718C21.7619 52.7623 24.7407 55.0052 28.2781 55.0052C30.5123 55.0052 32.1879 54.0707 33.4911 52.3885C34.6082 50.7064 35.1667 48.4635 35.1667 45.8467V42.8562C35.1667 41.174 34.6082 39.6788 33.6773 38.5573L30.8846 35.0061C31.0708 34.6323 31.0708 34.2584 31.0708 34.0715C31.0708 32.5763 29.7676 31.2679 28.2781 31.2679C26.7887 31.2679 25.4855 32.5763 25.4855 34.0715C25.4855 35.5668 26.7887 36.8752 28.2781 36.8752C28.4643 36.8752 28.6505 36.8752 28.6505 36.8752L31.4432 40.4264C32.0017 41.174 32.374 42.1086 32.374 43.0431V46.0336C32.374 48.2765 31.8155 49.9587 31.0708 50.8933C30.3261 51.6409 29.3952 52.2016 28.092 52.2016C25.4855 52.2016 23.4375 50.5194 22.6928 48.2765L22.5066 47.342L21.5757 47.1551C19.3416 46.7813 17.4798 44.7253 17.4798 42.2955C17.4798 40.9871 17.666 40.6133 17.8522 40.2395C18.2245 39.6788 18.9692 39.4919 19.5278 39.4919C20.2725 39.4919 21.0172 40.0526 21.3895 40.6133L23.4375 42.8562C23.2513 43.23 23.2513 43.6038 23.2513 43.7908C23.2513 45.286 24.3684 46.5944 26.044 46.5944C27.7196 46.5944 28.8367 45.286 28.8367 43.7908C28.8367 42.2955 27.5334 40.9871 26.044 40.9871C25.8578 40.9871 25.6716 40.9871 25.6716 40.9871L23.996 38.9311C23.0651 37.8097 21.5757 36.8752 20.0863 36.8752C18.9692 36.6882 17.666 37.0621 16.5489 37.8097C15.0595 37.249 14.1286 35.7537 14.1286 33.8846C14.1286 32.0155 15.0595 30.7072 16.5489 30.1465C17.666 30.8941 18.7831 31.2679 20.0863 31.081C21.5757 30.8941 22.879 30.1465 23.996 29.025L25.6716 26.969C25.8578 26.969 25.8578 26.969 26.044 26.969C27.5334 26.969 28.8367 25.6607 28.8367 24.1654C28.8367 22.6701 27.5334 21.3618 26.044 21.3618C24.5546 21.3618 23.2513 22.6701 23.2513 24.1654C23.2513 24.5392 23.2513 24.913 23.4375 25.0999L21.7619 27.1559C21.2034 27.9036 20.4587 28.2774 19.9001 28.2774C19.1554 28.2774 18.5969 28.0905 18.2245 27.5298C17.666 27.1559 17.666 26.7821 17.666 25.6607C17.666 23.2309 19.3416 21.1749 21.7619 20.8011L22.5066 20.6142L22.6928 19.8665C23.4375 17.4367 25.4855 15.7545 28.092 15.7545C28.6505 15.7545 29.209 15.9415 29.7676 15.9415L30.6984 13.3247C29.9537 13.1378 29.0228 12.9509 28.092 12.9509C24.5546 12.9509 21.5757 15.1938 20.2725 18.1844C17.1075 19.1189 14.6871 22.1094 14.6871 25.6607C14.6871 26.4083 14.6871 27.1559 14.8733 27.9036C12.8254 29.025 11.3359 31.2679 11.3359 33.8846Z" fill="white"/>
</g>
<defs>
<clipPath id="clip0">
<rect width="44.6827" height="42.0543" fill="white" transform="translate(11.3359 12.9512)"/>
</clipPath>
</defs>
</svg>
