<svg width="52" height="52" viewBox="0 0 52 52" fill="none" xmlns="http://www.w3.org/2000/svg">
<path d="M0 26C0 13.98 0 7.96993 3.61802 4.14302C3.78808 3.96315 3.96315 3.78808 4.14302 3.61802C7.96993 0 13.98 0 26 0C38.02 0 44.0301 0 47.857 3.61802C48.0369 3.78808 48.2119 3.96315 48.382 4.14302C52 7.96993 52 13.98 52 26C52 38.02 52 44.0301 48.382 47.857C48.2119 48.0369 48.0369 48.2119 47.857 48.382C44.0301 52 38.02 52 26 52C13.98 52 7.96993 52 4.14302 48.382C3.96315 48.2119 3.78808 48.0369 3.61802 47.857C0 44.0301 0 38.02 0 26Z" fill="#EE8208"/>
<path d="M26.0018 26.2603C30.8496 26.2603 34.8016 22.2319 34.8016 17.2903C34.8016 12.3488 30.8496 8.32031 26.0018 8.32031C21.1541 8.32031 17.2021 12.3488 17.2021 17.2903C17.1494 22.2319 21.1014 26.2603 26.0018 26.2603ZM26.0018 13.5304C28.0042 13.5304 29.6376 15.1955 29.6376 17.2366C29.6376 19.2777 28.0042 20.9428 26.0018 20.9428C23.9995 20.9428 22.366 19.2777 22.366 17.2366C22.3133 15.1955 23.9468 13.5304 26.0018 13.5304Z" fill="white"/>
<path d="M29.7746 33.2419C31.6534 32.8153 33.4769 32.1221 35.1347 31.1089C36.4056 30.3624 36.7924 28.7093 35.9636 27.4829C35.1899 26.2564 33.4769 25.8831 32.206 26.683C28.4484 28.9759 23.5303 28.9759 19.7727 26.683C18.5018 25.9364 16.844 26.2564 16.0151 27.4829C15.2415 28.7093 15.573 30.309 16.844 31.1089C18.5018 32.1221 20.3253 32.8153 22.2041 33.2419L17.065 38.2011C16.0151 39.2142 16.0151 40.8673 17.065 41.8804C17.6176 42.4137 18.2807 42.627 18.9991 42.627C19.7175 42.627 20.3806 42.3604 20.9332 41.8804L26.017 36.9746L31.1008 41.8804C32.1507 42.8936 33.8637 42.8936 34.9136 41.8804C35.9636 40.8673 35.9636 39.2142 34.9136 38.2011L29.7746 33.2419Z" fill="white"/>
</svg>
