<svg width="68" height="68" viewBox="0 0 68 68" fill="none" xmlns="http://www.w3.org/2000/svg">
<path d="M0 32.64C0 17.2534 0 9.56005 4.78002 4.78002C9.56005 0 17.2534 0 32.64 0H35.36C50.7466 0 58.4399 0 63.22 4.78002C68 9.56005 68 17.2534 68 32.64V35.36C68 50.7466 68 58.4399 63.22 63.22C58.4399 68 50.7466 68 35.36 68H32.64C17.2534 68 9.56005 68 4.78002 63.22C0 58.4399 0 50.7466 0 35.36V32.64Z" fill="#0077FF"/>
<path d="M36.1822 48.9886C20.6839 48.9886 11.8439 38.3636 11.4756 20.6836H19.2389C19.4939 33.6602 25.2172 39.1569 29.7505 40.2902V20.6836H37.0607V31.8752C41.5374 31.3935 46.2401 26.2936 47.8268 20.6836H55.137C53.9187 27.5969 48.8187 32.6969 45.192 34.7935C48.8187 36.4935 54.6273 40.9419 56.8373 48.9886H48.7904C47.062 43.6052 42.7557 39.4402 37.0607 38.8735V48.9886H36.1822Z" fill="white"/>
</svg>
