<svg width="68" height="68" viewBox="0 0 68 68" fill="none" xmlns="http://www.w3.org/2000/svg">
<rect width="68" height="68" rx="16" fill="#697CFF"/>
<ellipse cx="34.0028" cy="30.9768" rx="19.4286" ry="19.6419" fill="white"/>
<path d="M23.6731 53.9389C23.4654 54.0657 23.1996 53.9106 23.2044 53.6653L23.3524 46.021C23.357 45.7849 23.611 45.6412 23.8142 45.7598L30.1403 49.4523C30.3435 49.5709 30.3474 49.8651 30.1473 49.9872L23.6731 53.9389Z" fill="white"/>
<path fill-rule="evenodd" clip-rule="evenodd" d="M25.6094 31.4756C25.6511 36.082 29.3576 39.8031 33.9238 39.8031C38.49 39.8031 42.1965 36.082 42.2382 31.4756H25.6094Z" fill="#697CFF"/>
</svg>
