<svg width="68" height="68" viewBox="0 0 68 68" fill="none" xmlns="http://www.w3.org/2000/svg">
<path d="M0 32C0 16.9151 0 9.37258 4.68629 4.68629C9.37258 0 16.9151 0 32 0H36C51.0849 0 58.6274 0 63.3137 4.68629C68 9.37258 68 16.9151 68 32V36C68 51.0849 68 58.6274 63.3137 63.3137C58.6274 68 51.0849 68 36 68H32C16.9151 68 9.37258 68 4.68629 63.3137C0 58.6274 0 51.0849 0 36V32Z" fill="#1DD3A2"/>
<rect x="29.1182" y="17.6826" width="9.7641" height="33.4769" fill="white"/>
<rect x="17.6836" y="39.4453" width="9.7641" height="32.64" transform="rotate(-90 17.6836 39.4453)" fill="white"/>
</svg>
