<svg width="68" height="68" viewBox="0 0 68 68" fill="none" xmlns="http://www.w3.org/2000/svg">
<rect width="68" height="68" rx="16" fill="#005FF9"/>
<path d="M40.3734 34.0326C40.3734 37.5221 37.55 40.3901 34.0087 40.3901C30.4675 40.3901 27.644 37.5699 27.644 34.0326C27.644 30.4954 30.4675 27.6752 34.0087 27.6752C37.55 27.6752 40.3734 30.4954 40.3734 34.0326ZM34.0566 12.9526C22.4279 12.9526 12.9526 22.4171 12.9526 34.0326C12.9526 45.6481 22.4279 55.1126 34.0566 55.1126C38.3156 55.1126 42.4311 53.8698 45.9245 51.432L45.9724 51.3842L43.149 48.086H43.1011C40.4212 49.8068 37.2628 50.7628 34.0566 50.7628C24.8206 50.7628 17.3074 43.2581 17.3074 34.0326C17.3074 24.8071 24.8206 17.3025 34.0566 17.3025C43.2925 17.3025 50.8057 24.8071 50.8057 34.0326C50.8057 35.2276 50.6621 36.4227 50.4229 37.6177C49.8965 39.7687 48.3651 40.4379 47.2166 40.3901C46.0681 40.2945 44.7282 39.4819 44.7282 37.4743V35.8969V33.9848C44.7282 28.1054 39.9427 23.3253 34.0566 23.3253C28.1704 23.3253 23.385 28.1054 23.385 33.9848C23.385 39.8643 28.1704 44.6443 34.0566 44.6443C36.9278 44.6443 39.6077 43.5449 41.6176 41.4895C42.814 43.3059 44.7282 44.4531 46.8816 44.6443C47.073 44.6443 47.2645 44.6443 47.4559 44.6443C48.9872 44.6443 50.5186 44.1185 51.715 43.2103C52.9592 42.2543 53.9163 40.8681 54.4427 39.1951C54.5384 38.9083 54.6819 38.2869 54.6819 38.2869C54.9691 36.9485 55.1126 35.6101 55.1126 33.9848C55.1126 22.4171 45.6374 12.9526 34.0566 12.9526Z" fill="#FF9E00"/>
</svg>
