<svg width="68" height="68" viewBox="0 0 68 68" fill="none" xmlns="http://www.w3.org/2000/svg">
<path d="M0 32.64C0 17.2534 0 9.56005 4.78002 4.78002C9.56005 0 17.2534 0 32.64 0H35.36C50.7466 0 58.4399 0 63.22 4.78002C68 9.56005 68 17.2534 68 32.64V35.36C68 50.7466 68 58.4399 63.22 63.22C58.4399 68 50.7466 68 35.36 68H32.64C17.2534 68 9.56005 68 4.78002 63.22C0 58.4399 0 50.7466 0 35.36V32.64Z" fill="#0077FF"/>
<g clip-path="url(#clip0)">
<path d="M0 32.64C0 17.2534 0 9.56005 4.78002 4.78002C9.56005 0 17.2534 0 32.64 0H35.36C50.7466 0 58.4399 0 63.22 4.78002C68 9.56005 68 17.2534 68 32.64V35.36C68 50.7466 68 58.4399 63.22 63.22C58.4399 68 50.7466 68 35.36 68H32.64C17.2534 68 9.56005 68 4.78002 63.22C0 58.4399 0 50.7466 0 35.36V32.64Z" fill="#0077FF"/>
<path d="M33.9999 10.1111C29.8559 10.1111 25.8817 11.7573 22.9514 14.6876C20.0211 17.6178 18.375 21.5921 18.375 25.7361C18.375 25.7688 18.3772 25.801 18.3774 25.8336H25.314C25.3136 25.8009 25.309 25.7691 25.309 25.7361C25.3081 24.5942 25.5321 23.4632 25.9684 22.4079C26.4047 21.3526 27.0447 20.3937 27.8519 19.5858C28.659 18.7781 29.6174 18.1372 30.6723 17.7C31.7272 17.2627 32.858 17.0377 33.9999 17.0377C35.1418 17.0377 36.2726 17.2627 37.3275 17.7C38.3824 18.1372 39.3408 18.7781 40.1479 19.5858C40.955 20.3937 41.595 21.3526 42.0314 22.4079C42.4677 23.4632 42.6917 24.5942 42.6907 25.7361C42.6907 25.7691 42.6862 25.8009 42.6858 25.8336H49.6224C49.6226 25.801 49.6248 25.7688 49.6248 25.7361C49.6248 21.5921 47.9787 17.6179 45.0484 14.6877C42.1182 11.7574 38.1439 10.1111 33.9999 10.1111Z" fill="white"/>
<path d="M67.8849 46.8932C58.393 49.2544 48.6746 50.5871 38.8975 50.8683V54.7173C38.8975 56.0163 38.3815 57.262 37.463 58.1804C36.5445 59.099 35.2987 59.615 33.9998 59.615C32.7009 59.615 31.4551 59.099 30.5366 58.1804C29.6181 57.262 29.1021 56.0163 29.1021 54.7173V50.8683C19.325 50.587 9.60663 49.2543 0.114746 46.8932C0.3968 54.9581 1.37493 59.8315 4.77157 63.228C9.54332 67.9999 17.2232 67.9999 32.5832 67.9999H35.4165C50.7763 67.9999 58.4564 67.9999 63.228 63.228C66.6246 59.8315 67.6028 54.9581 67.8849 46.8932Z" fill="#FF6661"/>
<path d="M67.995 39.7434C67.9982 38.8061 67.9994 37.8388 67.9996 36.8344V35.3397C67.9997 34.0913 67.7538 32.8552 67.2761 31.7019C66.7984 30.5486 66.0982 29.5007 65.2155 28.618C64.3328 27.7353 63.285 27.035 62.1316 26.5573C60.9783 26.0796 59.7422 25.8337 58.4939 25.8337H9.50572C8.25744 25.8337 7.02134 26.0796 5.86802 26.5573C4.71472 27.035 3.6668 27.7353 2.78411 28.618C1.90142 29.5007 1.20124 30.5486 0.72354 31.7019C0.245841 32.8552 -1.98423e-05 34.0913 1.20109e-09 35.3397V36.4799C0.000157676 37.6096 0.00170819 38.6974 0.00465144 39.7434C22.31 45.4411 45.6897 45.4411 67.995 39.7434Z" fill="#FF6661"/>
<path fill-rule="evenodd" clip-rule="evenodd" d="M38.8972 50.8683H38.8973C48.6744 50.5872 58.3927 49.2545 67.8847 46.8933C67.9597 44.7471 67.986 42.3748 67.9948 39.7434C45.6894 45.4411 22.3098 45.4411 0.00439453 39.7434C0.0131783 42.3747 0.0394394 44.7469 0.114506 46.8933C9.60635 49.2544 19.3247 50.5871 29.1018 50.8683V54.7173C29.1018 56.0163 29.6178 57.262 30.5363 58.1805C31.4548 59.099 32.7005 59.615 33.9995 59.615C35.2985 59.615 36.5442 59.099 37.4627 58.1805C38.3812 57.262 38.8972 56.0163 38.8972 54.7173V50.8683ZM33.9851 50.9508C32.3486 50.9506 30.7252 50.9233 29.1147 50.8687C30.7257 50.921 32.3492 50.9483 33.9851 50.9508Z" fill="white"/>
</g>
<defs>
<clipPath id="clip0">
<rect width="68" height="68" fill="white"/>
</clipPath>
</defs>
</svg>
