<svg width="68" height="68" viewBox="0 0 68 68" fill="none" xmlns="http://www.w3.org/2000/svg">
<rect width="68" height="68" rx="16" fill="black"/>
<rect x="0.405855" y="0.405855" width="67.1883" height="67.1883" rx="15.5941" stroke="#00103D" stroke-opacity="0.12" stroke-width="0.81171"/>
<path d="M15.0945 41.0075L9.71484 35.0282L22.2732 21.065L29.3147 28.8947L36.3735 21.0479L44.6143 30.2139L52.8552 21.065L58.2863 27.0957L37.5213 50.1907L32.1074 44.16L39.1832 36.2618L36.3392 33.0922L29.2462 40.9733L22.1875 33.1265L15.0945 41.0075Z" fill="white"/>
</svg>
