<svg width="68" height="68" viewBox="0 0 68 68" fill="none" xmlns="http://www.w3.org/2000/svg">
<rect width="68" height="68" rx="16" fill="#1CC585"/>
<g filter="url(#filter0_i)">
<path fill-rule="evenodd" clip-rule="evenodd" d="M33.5129 47.805H21.603C17.6584 47.805 14.457 44.6036 14.457 40.659V26.3671C14.457 22.4226 17.6584 19.2212 21.603 19.2212H33.5129C37.4575 19.2212 40.6588 22.4226 40.6588 26.3671V28.6014L48.6504 22.1653C49.0672 21.8152 49.6032 21.6032 50.1868 21.6032C51.5016 21.6032 52.5687 22.6703 52.5687 23.9852V43.041C52.5687 44.3559 51.5016 45.423 50.1868 45.423C49.5841 45.423 49.0315 45.1991 48.6123 44.8275L40.6588 38.4223V40.659C40.6588 44.6036 37.4575 47.805 33.5129 47.805ZM21.6031 38.2768C22.9179 38.2768 23.985 39.344 23.985 40.6588C23.985 41.9737 22.9179 43.0408 21.6031 43.0408C20.2882 43.0408 19.2211 41.9737 19.2211 40.6588C19.2211 39.344 20.2882 38.2768 21.6031 38.2768Z" fill="#2C2D2E"/>
</g>
<defs>
<filter id="filter0_i" x="14.457" y="19.2212" width="38.1118" height="28.9896" filterUnits="userSpaceOnUse" color-interpolation-filters="sRGB">
<feFlood flood-opacity="0" result="BackgroundImageFix"/>
<feBlend mode="normal" in="SourceGraphic" in2="BackgroundImageFix" result="shape"/>
<feColorMatrix in="SourceAlpha" type="matrix" values="0 0 0 0 0 0 0 0 0 0 0 0 0 0 0 0 0 0 127 0" result="hardAlpha"/>
<feOffset dy="0.81171"/>
<feGaussianBlur stdDeviation="0.202927"/>
<feComposite in2="hardAlpha" operator="arithmetic" k2="-1" k3="1"/>
<feColorMatrix type="matrix" values="0 0 0 0 1 0 0 0 0 1 0 0 0 0 1 0 0 0 0.8 0"/>
<feBlend mode="normal" in2="shape" result="effect1_innerShadow"/>
</filter>
</defs>
</svg>
