<svg width="68" height="68" viewBox="0 0 68 68" fill="none" xmlns="http://www.w3.org/2000/svg">
<path fill-rule="evenodd" clip-rule="evenodd" d="M44.3246 0C25.2775 0 42.3665 0 23.4974 0C4.62829 0 0 4.62828 0 23.6754C0 34.356 0 25.6335 0 44.5026C0 63.3717 4.6283 68 23.6754 68C42.7225 68 25.6335 68 44.5026 68C63.3717 68 68 63.3717 68 44.3246C68 25.2775 68 42.3665 68 23.4974C68 4.62827 63.3717 0 44.3246 0Z" fill="#0C6EFF"/>
<path d="M14.5355 38.14C13.6115 38.14 12.7808 37.9253 12.0435 37.496C11.3062 37.0573 10.7275 36.4507 10.3075 35.676C9.89685 34.9013 9.69152 34.0287 9.69152 33.058C9.69152 32.0873 9.89685 31.2193 10.3075 30.454C10.7275 29.6793 11.3015 29.0773 12.0295 28.648C12.7668 28.2093 13.5975 27.99 14.5215 27.99C15.5202 27.99 16.4068 28.242 17.1815 28.746C17.9655 29.2407 18.5255 29.9127 18.8615 30.762L17.4335 30.986C17.1722 30.4633 16.7848 30.0573 16.2715 29.768C15.7675 29.4693 15.1982 29.32 14.5635 29.32C13.9102 29.32 13.3268 29.4787 12.8135 29.796C12.3095 30.1133 11.9128 30.5567 11.6235 31.126C11.3435 31.686 11.2035 32.33 11.2035 33.058C11.2035 33.7953 11.3435 34.4487 11.6235 35.018C11.9128 35.578 12.3142 36.0167 12.8275 36.334C13.3408 36.6513 13.9288 36.81 14.5915 36.81C15.2448 36.81 15.8235 36.6607 16.3275 36.362C16.8408 36.054 17.2328 35.6247 17.5035 35.074L18.9315 35.298C18.5768 36.166 18.0028 36.8567 17.2095 37.37C16.4162 37.8833 15.5248 38.14 14.5355 38.14ZM23.4187 38H22.0467V32.022H19.5407V30.762H25.9247V32.022H23.4187V38ZM32.4064 30.762H33.8204L30.7964 39.092C30.5724 39.7173 30.2784 40.17 29.9144 40.45C29.5504 40.73 29.0651 40.87 28.4584 40.87H27.3804L27.2544 39.61H28.5424C28.8131 39.61 29.0231 39.5493 29.1724 39.428C29.3217 39.316 29.4477 39.1153 29.5504 38.826L29.7044 38.406L26.4844 30.762H27.9544L30.2504 36.348H30.4464L32.4064 30.762ZM33.7305 40.142V36.74H33.8845C34.2858 36.74 34.5892 36.5627 34.7945 36.208C35.0092 35.8533 35.1492 35.298 35.2145 34.542L35.5645 30.762H40.6885V36.74H41.9065V40.142H40.5345V38H35.1025V40.142H33.7305ZM39.3165 36.74V32.022H36.8385L36.6005 34.542C36.5445 35.1393 36.4605 35.6107 36.3485 35.956C36.2458 36.3013 36.1012 36.5627 35.9145 36.74H39.3165ZM45.1301 38H43.1001V30.762H44.4301V36.46H44.6401L47.5661 30.762H49.5961V38H48.2661V32.316H48.0561L45.1301 38ZM53.4973 38H51.4673V30.762H52.7973V36.46H53.0073L55.9333 30.762H57.9633V38H56.6333V32.316H56.4233L53.4973 38Z" fill="white"/>
</svg>
