<svg width="68" height="68" viewBox="0 0 68 68" fill="none" xmlns="http://www.w3.org/2000/svg">
<rect width="68" height="68" rx="16" fill="#005FF9"/>
<mask id="path-2-inside-1" fill="white">
<path fill-rule="evenodd" clip-rule="evenodd" d="M33.9322 55.2275C33.9352 55.2287 33.9377 55.2313 33.9388 55.2343L33.9422 55.2433C33.943 55.2452 33.9452 55.2461 33.947 55.2452C33.948 55.2447 33.9491 55.2447 33.9501 55.2452C33.9519 55.2461 33.9541 55.2452 33.9548 55.2433L33.9582 55.2343C33.9594 55.2313 33.9619 55.2287 33.9649 55.2275C49.0018 48.8291 54.175 40.7664 55.9471 36.2495C56.6375 34.5594 57.0182 32.7096 57.0182 30.7712C57.0182 22.7934 50.571 16.3169 42.6293 16.3169C42.0515 16.3169 41.4817 16.3512 40.9217 16.4178C36.4546 16.9494 31.4425 16.9494 26.9754 16.4178C26.4154 16.3512 25.8455 16.3169 25.2678 16.3169C17.326 16.3169 10.8789 22.7934 10.8789 30.7712C10.8789 32.7096 11.2595 34.5594 11.95 36.2495C13.722 40.7664 18.8953 48.8291 33.9322 55.2275ZM49.2692 35.5228C47.1866 40.0059 42.1109 43.8511 38.3042 46.2481C35.6349 47.9289 32.2621 47.9289 29.5929 46.2481C25.7862 43.8511 20.7105 40.0059 18.6278 35.5228C17.9473 34.3086 17.5592 32.9074 17.5592 31.416C17.5592 26.7868 21.3014 23.0276 25.9104 23.0276C28.0591 23.0276 30.0192 23.8447 31.4995 25.1861L31.5342 25.2149C32.9228 26.3674 34.9298 26.3787 36.3306 25.2475C37.8187 23.8696 39.8057 23.0276 41.9867 23.0276C46.5956 23.0276 50.3379 26.7868 50.3379 31.416C50.3379 32.9074 49.9498 34.3086 49.2692 35.5228Z"/>
</mask>
<g filter="url(#filter0_i)">
<path fill-rule="evenodd" clip-rule="evenodd" d="M33.9322 55.2275C33.9352 55.2287 33.9377 55.2313 33.9388 55.2343L33.9422 55.2433C33.943 55.2452 33.9452 55.2461 33.947 55.2452C33.948 55.2447 33.9491 55.2447 33.9501 55.2452C33.9519 55.2461 33.9541 55.2452 33.9548 55.2433L33.9582 55.2343C33.9594 55.2313 33.9619 55.2287 33.9649 55.2275C49.0018 48.8291 54.175 40.7664 55.9471 36.2495C56.6375 34.5594 57.0182 32.7096 57.0182 30.7712C57.0182 22.7934 50.571 16.3169 42.6293 16.3169C42.0515 16.3169 41.4817 16.3512 40.9217 16.4178C36.4546 16.9494 31.4425 16.9494 26.9754 16.4178C26.4154 16.3512 25.8455 16.3169 25.2678 16.3169C17.326 16.3169 10.8789 22.7934 10.8789 30.7712C10.8789 32.7096 11.2595 34.5594 11.95 36.2495C13.722 40.7664 18.8953 48.8291 33.9322 55.2275ZM49.2692 35.5228C47.1866 40.0059 42.1109 43.8511 38.3042 46.2481C35.6349 47.9289 32.2621 47.9289 29.5929 46.2481C25.7862 43.8511 20.7105 40.0059 18.6278 35.5228C17.9473 34.3086 17.5592 32.9074 17.5592 31.416C17.5592 26.7868 21.3014 23.0276 25.9104 23.0276C28.0591 23.0276 30.0192 23.8447 31.4995 25.1861L31.5342 25.2149C32.9228 26.3674 34.9298 26.3787 36.3306 25.2475C37.8187 23.8696 39.8057 23.0276 41.9867 23.0276C46.5956 23.0276 50.3379 26.7868 50.3379 31.416C50.3379 32.9074 49.9498 34.3086 49.2692 35.5228Z" fill="#FF9E0A"/>
<path fill-rule="evenodd" clip-rule="evenodd" d="M33.9322 55.2275C33.9352 55.2287 33.9377 55.2313 33.9388 55.2343L33.9422 55.2433C33.943 55.2452 33.9452 55.2461 33.947 55.2452C33.948 55.2447 33.9491 55.2447 33.9501 55.2452C33.9519 55.2461 33.9541 55.2452 33.9548 55.2433L33.9582 55.2343C33.9594 55.2313 33.9619 55.2287 33.9649 55.2275C49.0018 48.8291 54.175 40.7664 55.9471 36.2495C56.6375 34.5594 57.0182 32.7096 57.0182 30.7712C57.0182 22.7934 50.571 16.3169 42.6293 16.3169C42.0515 16.3169 41.4817 16.3512 40.9217 16.4178C36.4546 16.9494 31.4425 16.9494 26.9754 16.4178C26.4154 16.3512 25.8455 16.3169 25.2678 16.3169C17.326 16.3169 10.8789 22.7934 10.8789 30.7712C10.8789 32.7096 11.2595 34.5594 11.95 36.2495C13.722 40.7664 18.8953 48.8291 33.9322 55.2275ZM49.2692 35.5228C47.1866 40.0059 42.1109 43.8511 38.3042 46.2481C35.6349 47.9289 32.2621 47.9289 29.5929 46.2481C25.7862 43.8511 20.7105 40.0059 18.6278 35.5228C17.9473 34.3086 17.5592 32.9074 17.5592 31.416C17.5592 26.7868 21.3014 23.0276 25.9104 23.0276C28.0591 23.0276 30.0192 23.8447 31.4995 25.1861L31.5342 25.2149C32.9228 26.3674 34.9298 26.3787 36.3306 25.2475C37.8187 23.8696 39.8057 23.0276 41.9867 23.0276C46.5956 23.0276 50.3379 26.7868 50.3379 31.416C50.3379 32.9074 49.9498 34.3086 49.2692 35.5228Z" fill="url(#paint0_linear)" fill-opacity="0.2"/>
</g>
<path d="M55.9471 36.2495L55.1956 35.9425L55.1914 35.9531L55.9471 36.2495ZM11.95 36.2495L12.7057 35.953L12.7014 35.9425L11.95 36.2495ZM49.2692 35.5228L48.5612 35.126L48.5461 35.1529L48.5331 35.1808L49.2692 35.5228ZM18.6278 35.5228L19.364 35.1808L19.351 35.1529L19.3359 35.126L18.6278 35.5228ZM31.4995 25.1861L30.9544 25.7876L30.9675 25.7994L30.9811 25.8107L31.4995 25.1861ZM31.5342 25.2149L32.0526 24.5903V24.5903L31.5342 25.2149ZM36.3306 25.2475L36.8406 25.8791L36.862 25.8618L36.8821 25.8431L36.3306 25.2475ZM26.9754 16.4178L26.8795 17.2238L26.9754 16.4178ZM33.9582 55.2343L33.1992 54.9468L33.9582 55.2343ZM33.9649 55.2275L33.6471 54.4805L33.9649 55.2275ZM33.9548 55.2433L33.1958 54.9557L33.9548 55.2433ZM33.9388 55.2343L33.1798 55.522L33.9388 55.2343ZM33.9322 55.2275L34.25 54.4805L33.9322 55.2275ZM33.9422 55.2433L33.1832 55.531L33.9422 55.2433ZM34.7013 54.9557L34.6979 54.9467L33.1798 55.522L33.1832 55.531L34.7013 54.9557ZM33.1992 54.9468L33.1958 54.9557L34.7139 55.5309L34.7173 55.5219L33.1992 54.9468ZM55.1914 35.9531C53.5058 40.2496 48.5014 48.1599 33.6471 54.4805L34.2827 55.9744C49.5021 49.4984 54.8442 41.2832 56.7027 36.546L55.1914 35.9531ZM56.2065 30.7712C56.2065 32.6025 55.847 34.3482 55.1957 35.9425L56.6985 36.5565C57.4281 34.7707 57.8299 32.8167 57.8299 30.7712H56.2065ZM42.6293 17.1286C50.1193 17.1286 56.2065 23.2382 56.2065 30.7712H57.8299C57.8299 22.3485 51.0228 15.5052 42.6293 15.5052V17.1286ZM41.0176 17.2238C41.5459 17.161 42.0837 17.1286 42.6293 17.1286V15.5052C42.0194 15.5052 41.4175 15.5414 40.8258 15.6118L41.0176 17.2238ZM25.2678 17.1286C25.8134 17.1286 26.3512 17.161 26.8795 17.2238L27.0713 15.6118C26.4795 15.5414 25.8777 15.5052 25.2678 15.5052V17.1286ZM11.6906 30.7712C11.6906 23.2382 17.7778 17.1286 25.2678 17.1286V15.5052C16.8743 15.5052 10.0672 22.3485 10.0672 30.7712H11.6906ZM12.7014 35.9425C12.0501 34.3482 11.6906 32.6025 11.6906 30.7712H10.0672C10.0672 32.8167 10.469 34.7707 11.1986 36.5565L12.7014 35.9425ZM34.25 54.4805C19.3956 48.1599 14.3912 40.2496 12.7056 35.9531L11.1943 36.546C13.0528 41.2832 18.395 49.4984 33.6143 55.9744L34.25 54.4805ZM38.7367 46.935C40.6647 45.721 42.9273 44.1322 44.979 42.2686C47.0245 40.4106 48.9003 38.2436 50.0054 35.8648L48.5331 35.1808C47.5555 37.2851 45.8522 39.2822 43.8875 41.0669C41.9289 42.8459 39.7504 44.3783 37.8717 45.5612L38.7367 46.935ZM17.8917 35.8648C18.9968 38.2436 20.8726 40.4106 22.9181 42.2686C24.9697 44.1322 27.2324 45.721 29.1604 46.935L30.0254 45.5612C28.1467 44.3783 25.9681 42.8459 24.0096 41.0669C22.0449 39.2822 20.3415 37.2851 19.364 35.1808L17.8917 35.8648ZM16.7475 31.416C16.7475 33.0499 17.173 34.5873 17.9198 35.9197L19.3359 35.126C18.7216 34.03 18.3709 32.765 18.3709 31.416H16.7475ZM25.9104 22.2159C20.8497 22.2159 16.7475 26.342 16.7475 31.416H18.3709C18.3709 27.2317 21.7531 23.8393 25.9104 23.8393V22.2159ZM32.0445 24.5846C30.4213 23.1137 28.2691 22.2159 25.9104 22.2159V23.8393C27.8492 23.8393 29.617 24.5757 30.9544 25.7876L32.0445 24.5846ZM32.0526 24.5903L32.0179 24.5615L30.9811 25.8107L31.0158 25.8395L32.0526 24.5903ZM35.8207 24.616C34.7202 25.5046 33.1435 25.4957 32.0526 24.5903L31.0158 25.8395C32.7021 27.2391 35.1393 27.2528 36.8406 25.8791L35.8207 24.616ZM41.9867 22.2159C39.5925 22.2159 37.4107 23.1411 35.7791 24.652L36.8821 25.8431C38.2266 24.5981 40.0188 23.8393 41.9867 23.8393V22.2159ZM51.1496 31.416C51.1496 26.342 47.0474 22.2159 41.9867 22.2159V23.8393C46.1439 23.8393 49.5261 27.2317 49.5261 31.416H51.1496ZM49.9773 35.9197C50.7241 34.5873 51.1496 33.0499 51.1496 31.416H49.5261C49.5261 32.765 49.1755 34.03 48.5612 35.126L49.9773 35.9197ZM40.8258 15.6118C36.4224 16.1358 31.4747 16.1358 27.0713 15.6118L26.8795 17.2238C31.4103 17.763 36.4868 17.763 41.0176 17.2238L40.8258 15.6118ZM34.7173 55.5219C34.638 55.7312 34.4777 55.8914 34.2827 55.9744L33.6471 54.4805C33.446 54.5661 33.2808 54.7313 33.1992 54.9468L34.7173 55.5219ZM33.586 55.9706C34.0178 56.1874 34.5426 55.983 34.7139 55.5309L33.1958 54.9557C33.3656 54.5074 33.886 54.3048 34.3142 54.5197L33.586 55.9706ZM34.3112 55.9706C34.083 56.0852 33.8141 56.0852 33.586 55.9706L34.3142 54.5197C34.0841 54.4042 33.8129 54.4042 33.5828 54.5198L34.3112 55.9706ZM37.8717 45.5612C35.4667 47.0755 32.4303 47.0755 30.0254 45.5612L29.1604 46.935C32.094 48.7822 35.8031 48.7822 38.7367 46.935L37.8717 45.5612ZM34.6979 54.9467C34.6162 54.7313 34.451 54.5661 34.25 54.4805L33.6143 55.9744C33.4194 55.8914 33.2591 55.7312 33.1798 55.522L34.6979 54.9467ZM33.1832 55.531C33.3545 55.983 33.8792 56.1875 34.3112 55.9706L33.5828 54.5198C34.0111 54.3047 34.5314 54.5075 34.7013 54.9557L33.1832 55.531Z" fill="white" fill-opacity="0.4" mask="url(#path-2-inside-1)"/>
<path d="M55.9471 36.2495L55.1956 35.9425L55.1914 35.9531L55.9471 36.2495ZM11.95 36.2495L12.7057 35.953L12.7014 35.9425L11.95 36.2495ZM49.2692 35.5228L48.5612 35.126L48.5461 35.1529L48.5331 35.1808L49.2692 35.5228ZM18.6278 35.5228L19.364 35.1808L19.351 35.1529L19.3359 35.126L18.6278 35.5228ZM31.4995 25.1861L30.9544 25.7876L30.9675 25.7994L30.9811 25.8107L31.4995 25.1861ZM31.5342 25.2149L32.0526 24.5903V24.5903L31.5342 25.2149ZM36.3306 25.2475L36.8406 25.8791L36.862 25.8618L36.8821 25.8431L36.3306 25.2475ZM26.9754 16.4178L26.8795 17.2238L26.9754 16.4178ZM33.9582 55.2343L33.1992 54.9468L33.9582 55.2343ZM33.9649 55.2275L33.6471 54.4805L33.9649 55.2275ZM33.9548 55.2433L33.1958 54.9557L33.9548 55.2433ZM33.9388 55.2343L33.1798 55.522L33.9388 55.2343ZM33.9322 55.2275L34.25 54.4805L33.9322 55.2275ZM33.9422 55.2433L33.1832 55.531L33.9422 55.2433ZM34.7013 54.9557L34.6979 54.9467L33.1798 55.522L33.1832 55.531L34.7013 54.9557ZM33.1992 54.9468L33.1958 54.9557L34.7139 55.5309L34.7173 55.5219L33.1992 54.9468ZM55.1914 35.9531C53.5058 40.2496 48.5014 48.1599 33.6471 54.4805L34.2827 55.9744C49.5021 49.4984 54.8442 41.2832 56.7027 36.546L55.1914 35.9531ZM56.2065 30.7712C56.2065 32.6025 55.847 34.3482 55.1957 35.9425L56.6985 36.5565C57.4281 34.7707 57.8299 32.8167 57.8299 30.7712H56.2065ZM42.6293 17.1286C50.1193 17.1286 56.2065 23.2382 56.2065 30.7712H57.8299C57.8299 22.3485 51.0228 15.5052 42.6293 15.5052V17.1286ZM41.0176 17.2238C41.5459 17.161 42.0837 17.1286 42.6293 17.1286V15.5052C42.0194 15.5052 41.4175 15.5414 40.8258 15.6118L41.0176 17.2238ZM25.2678 17.1286C25.8134 17.1286 26.3512 17.161 26.8795 17.2238L27.0713 15.6118C26.4795 15.5414 25.8777 15.5052 25.2678 15.5052V17.1286ZM11.6906 30.7712C11.6906 23.2382 17.7778 17.1286 25.2678 17.1286V15.5052C16.8743 15.5052 10.0672 22.3485 10.0672 30.7712H11.6906ZM12.7014 35.9425C12.0501 34.3482 11.6906 32.6025 11.6906 30.7712H10.0672C10.0672 32.8167 10.469 34.7707 11.1986 36.5565L12.7014 35.9425ZM34.25 54.4805C19.3956 48.1599 14.3912 40.2496 12.7056 35.9531L11.1943 36.546C13.0528 41.2832 18.395 49.4984 33.6143 55.9744L34.25 54.4805ZM38.7367 46.935C40.6647 45.721 42.9273 44.1322 44.979 42.2686C47.0245 40.4106 48.9003 38.2436 50.0054 35.8648L48.5331 35.1808C47.5555 37.2851 45.8522 39.2822 43.8875 41.0669C41.9289 42.8459 39.7504 44.3783 37.8717 45.5612L38.7367 46.935ZM17.8917 35.8648C18.9968 38.2436 20.8726 40.4106 22.9181 42.2686C24.9697 44.1322 27.2324 45.721 29.1604 46.935L30.0254 45.5612C28.1467 44.3783 25.9681 42.8459 24.0096 41.0669C22.0449 39.2822 20.3415 37.2851 19.364 35.1808L17.8917 35.8648ZM16.7475 31.416C16.7475 33.0499 17.173 34.5873 17.9198 35.9197L19.3359 35.126C18.7216 34.03 18.3709 32.765 18.3709 31.416H16.7475ZM25.9104 22.2159C20.8497 22.2159 16.7475 26.342 16.7475 31.416H18.3709C18.3709 27.2317 21.7531 23.8393 25.9104 23.8393V22.2159ZM32.0445 24.5846C30.4213 23.1137 28.2691 22.2159 25.9104 22.2159V23.8393C27.8492 23.8393 29.617 24.5757 30.9544 25.7876L32.0445 24.5846ZM32.0526 24.5903L32.0179 24.5615L30.9811 25.8107L31.0158 25.8395L32.0526 24.5903ZM35.8207 24.616C34.7202 25.5046 33.1435 25.4957 32.0526 24.5903L31.0158 25.8395C32.7021 27.2391 35.1393 27.2528 36.8406 25.8791L35.8207 24.616ZM41.9867 22.2159C39.5925 22.2159 37.4107 23.1411 35.7791 24.652L36.8821 25.8431C38.2266 24.5981 40.0188 23.8393 41.9867 23.8393V22.2159ZM51.1496 31.416C51.1496 26.342 47.0474 22.2159 41.9867 22.2159V23.8393C46.1439 23.8393 49.5261 27.2317 49.5261 31.416H51.1496ZM49.9773 35.9197C50.7241 34.5873 51.1496 33.0499 51.1496 31.416H49.5261C49.5261 32.765 49.1755 34.03 48.5612 35.126L49.9773 35.9197ZM40.8258 15.6118C36.4224 16.1358 31.4747 16.1358 27.0713 15.6118L26.8795 17.2238C31.4103 17.763 36.4868 17.763 41.0176 17.2238L40.8258 15.6118ZM34.7173 55.5219C34.638 55.7312 34.4777 55.8914 34.2827 55.9744L33.6471 54.4805C33.446 54.5661 33.2808 54.7313 33.1992 54.9468L34.7173 55.5219ZM33.586 55.9706C34.0178 56.1874 34.5426 55.983 34.7139 55.5309L33.1958 54.9557C33.3656 54.5074 33.886 54.3048 34.3142 54.5197L33.586 55.9706ZM34.3112 55.9706C34.083 56.0852 33.8141 56.0852 33.586 55.9706L34.3142 54.5197C34.0841 54.4042 33.8129 54.4042 33.5828 54.5198L34.3112 55.9706ZM37.8717 45.5612C35.4667 47.0755 32.4303 47.0755 30.0254 45.5612L29.1604 46.935C32.094 48.7822 35.8031 48.7822 38.7367 46.935L37.8717 45.5612ZM34.6979 54.9467C34.6162 54.7313 34.451 54.5661 34.25 54.4805L33.6143 55.9744C33.4194 55.8914 33.2591 55.7312 33.1798 55.522L34.6979 54.9467ZM33.1832 55.531C33.3545 55.983 33.8792 56.1875 34.3112 55.9706L33.5828 54.5198C34.0111 54.3047 34.5314 54.5075 34.7013 54.9557L33.1832 55.531Z" fill="url(#paint1_linear)" mask="url(#path-2-inside-1)"/>
<defs>
<filter id="filter0_i" x="10.8789" y="16.3169" width="46.1393" height="38.9286" filterUnits="userSpaceOnUse" color-interpolation-filters="sRGB">
<feFlood flood-opacity="0" result="BackgroundImageFix"/>
<feBlend mode="normal" in="SourceGraphic" in2="BackgroundImageFix" result="shape"/>
<feColorMatrix in="SourceAlpha" type="matrix" values="0 0 0 0 0 0 0 0 0 0 0 0 0 0 0 0 0 0 127 0" result="hardAlpha"/>
<feOffset/>
<feGaussianBlur stdDeviation="3.68076"/>
<feComposite in2="hardAlpha" operator="arithmetic" k2="-1" k3="1"/>
<feColorMatrix type="matrix" values="0 0 0 0 1 0 0 0 0 1 0 0 0 0 1 0 0 0 0.3 0"/>
<feBlend mode="normal" in2="shape" result="effect1_innerShadow"/>
</filter>
<linearGradient id="paint0_linear" x1="33.9485" y1="16.3169" x2="33.9485" y2="55.2455" gradientUnits="userSpaceOnUse">
<stop stop-color="white" stop-opacity="0"/>
<stop offset="0.619792" stop-color="white" stop-opacity="0"/>
<stop offset="1" stop-color="white"/>
</linearGradient>
<linearGradient id="paint1_linear" x1="33.9485" y1="16.3169" x2="33.9485" y2="55.2455" gradientUnits="userSpaceOnUse">
<stop stop-color="#FFAB2B"/>
<stop offset="0.880208" stop-color="#FFAB2B"/>
<stop offset="1" stop-color="white" stop-opacity="0"/>
</linearGradient>
</defs>
</svg>
