<svg width="26" height="26" viewBox="0 0 26 26" fill="none" xmlns="http://www.w3.org/2000/svg">
<circle cx="9.78769" cy="9.78769" r="8.78769" stroke="#2667F6" stroke-width="2"/>
<line x1="15.2282" y1="15.7085" x2="24.8735" y2="25.2904" stroke="#2667F6" stroke-width="2"/>
</svg>
