<svg width="26" height="26" viewBox="0 0 26 26" fill="none" xmlns="http://www.w3.org/2000/svg">
<rect width="26" height="26" rx="6" fill="#005FF9"/>
<path d="M15.2343 12.9999C15.2343 14.2295 14.2394 15.2402 12.9914 15.2402C11.7435 15.2402 10.7485 14.2464 10.7485 12.9999C10.7485 11.7533 11.7435 10.7595 12.9914 10.7595C14.2394 10.7595 15.2343 11.7533 15.2343 12.9999ZM13.0083 5.57129C8.91035 5.57129 5.57129 8.90657 5.57129 12.9999C5.57129 17.0932 8.91035 20.4284 13.0083 20.4284C14.5092 20.4284 15.9595 19.9905 17.1906 19.1314L17.2074 19.1145L16.2124 17.9522H16.1956C15.2512 18.5587 14.1382 18.8956 13.0083 18.8956C9.75355 18.8956 7.10591 16.2509 7.10591 12.9999C7.10591 9.74881 9.75355 7.10417 13.0083 7.10417C16.263 7.10417 18.9107 9.74881 18.9107 12.9999C18.9107 13.421 18.8601 13.8421 18.7758 14.2632C18.5903 15.0212 18.0506 15.2571 17.6459 15.2402C17.2411 15.2065 16.769 14.9202 16.769 14.2127V13.6568V12.983C16.769 10.9111 15.0826 9.22662 13.0083 9.22662C10.934 9.22662 9.24763 10.9111 9.24763 12.983C9.24763 15.0549 10.934 16.7394 13.0083 16.7394C14.0201 16.7394 14.9645 16.352 15.6728 15.6277C16.0944 16.2678 16.769 16.672 17.5278 16.7394C17.5953 16.7394 17.6627 16.7394 17.7302 16.7394C18.2698 16.7394 18.8095 16.5541 19.2311 16.2341C19.6696 15.8972 20.0068 15.4087 20.1923 14.8191C20.2261 14.718 20.2767 14.4991 20.2767 14.4991C20.3778 14.0274 20.4284 13.5557 20.4284 12.983C20.4284 8.90657 17.0894 5.57129 13.0083 5.57129Z" fill="#FF9E00"/>
</svg>
