<svg width="26" height="26" viewBox="0 0 26 26" fill="none" xmlns="http://www.w3.org/2000/svg">
<rect width="26" height="26" rx="6" fill="#1DD3A2"/>
<rect x="11.1338" y="6.76025" width="3.73333" height="12.8" fill="white"/>
<rect x="6.76074" y="15.0803" width="3.73333" height="12.48" transform="rotate(-90 6.76074 15.0803)" fill="white"/>
</svg>
