<svg width="26" height="26" viewBox="0 0 26 26" fill="none" xmlns="http://www.w3.org/2000/svg">
<rect width="26" height="26" rx="6" fill="white"/>
<rect x="0.405855" y="0.405855" width="25.1883" height="25.1883" rx="5.59414" stroke="#00103D" stroke-opacity="0.12" stroke-width="0.81171"/>
<mask id="mask0" mask-type="alpha" maskUnits="userSpaceOnUse" x="5" y="5" width="8" height="8">
<path d="M5.57129 5.57153H12.9998V13H5.57129V5.57153Z" fill="white"/>
</mask>
<g mask="url(#mask0)">
<path fill-rule="evenodd" clip-rule="evenodd" d="M12.9999 9.28567C12.9999 11.337 11.3368 12.9998 9.28559 12.9998C7.23415 12.9998 5.57129 11.337 5.57129 9.28567C5.57129 7.23428 7.23415 5.57129 9.28559 5.57129C11.3368 5.57129 12.9999 7.23428 12.9999 9.28567Z" fill="#FC2B4A"/>
</g>
<mask id="mask1" mask-type="alpha" maskUnits="userSpaceOnUse" x="12" y="5" width="9" height="8">
<path d="M12.998 5.57153H20.4268V13H12.998V5.57153Z" fill="white"/>
</mask>
<g mask="url(#mask1)">
<path fill-rule="evenodd" clip-rule="evenodd" d="M20.4268 9.28567C20.4268 11.337 18.7637 12.9998 16.7124 12.9998C14.6611 12.9998 12.998 11.337 12.998 9.28567C12.998 7.23428 14.6611 5.57129 16.7124 5.57129C18.7637 5.57129 20.4268 7.23428 20.4268 9.28567Z" fill="#FC2B4A"/>
</g>
<mask id="mask2" mask-type="alpha" maskUnits="userSpaceOnUse" x="5" y="12" width="8" height="9">
<path d="M5.57129 12.9998H12.9998V20.4285H5.57129V12.9998Z" fill="white"/>
</mask>
<g mask="url(#mask2)">
<path fill-rule="evenodd" clip-rule="evenodd" d="M12.9999 16.7142C12.9999 18.7655 11.3368 20.4286 9.28559 20.4286C7.23415 20.4286 5.57129 18.7655 5.57129 16.7142C5.57129 14.6627 7.23415 12.9998 9.28559 12.9998C11.3368 12.9998 12.9999 14.6627 12.9999 16.7142Z" fill="#FC2B4A"/>
</g>
<mask id="mask3" mask-type="alpha" maskUnits="userSpaceOnUse" x="12" y="12" width="9" height="9">
<path d="M12.998 12.9998H20.4268V20.4285H12.998V12.9998Z" fill="white"/>
</mask>
<g mask="url(#mask3)">
<path fill-rule="evenodd" clip-rule="evenodd" d="M20.4268 16.7142C20.4268 18.7655 18.7637 20.4286 16.7124 20.4286C14.6611 20.4286 12.998 18.7655 12.998 16.7142C12.998 14.6627 14.6611 12.9998 16.7124 12.9998C18.7637 12.9998 20.4268 14.6627 20.4268 16.7142Z" fill="#FC2B4A"/>
</g>
</svg>
