<svg width="88" height="121" viewBox="0 0 88 121" fill="none" xmlns="http://www.w3.org/2000/svg">
<rect x="13.2949" y="0.983398" width="60.9188" height="60.9188" rx="14.5045" fill="#005FF9"/>
<g opacity="0.6" filter="url(#filter0_ddddddi)">
<path fill-rule="evenodd" clip-rule="evenodd" d="M55.8853 22.5582C54.5902 21.2631 52.6476 21.2631 51.3525 22.5582L40.6682 33.2426L36.4592 29.0336C35.1641 27.7385 33.2215 27.7385 31.9264 29.0336C30.6313 30.3287 30.6313 32.2713 31.9264 33.5664L38.4018 40.0418C39.0493 40.6893 39.6968 41.0131 40.6682 41.0131C41.6395 41.0131 42.287 40.6893 42.9345 40.0418L55.8853 27.091C57.1804 25.7959 57.1804 23.8533 55.8853 22.5582Z" fill="white"/>
<path fill-rule="evenodd" clip-rule="evenodd" d="M55.8853 22.5582C54.5902 21.2631 52.6476 21.2631 51.3525 22.5582L40.6682 33.2426L36.4592 29.0336C35.1641 27.7385 33.2215 27.7385 31.9264 29.0336C30.6313 30.3287 30.6313 32.2713 31.9264 33.5664L38.4018 40.0418C39.0493 40.6893 39.6968 41.0131 40.6682 41.0131C41.6395 41.0131 42.287 40.6893 42.9345 40.0418L55.8853 27.091C57.1804 25.7959 57.1804 23.8533 55.8853 22.5582Z" fill="url(#paint0_linear)"/>
<path fill-rule="evenodd" clip-rule="evenodd" d="M55.8853 22.5582C54.5902 21.2631 52.6476 21.2631 51.3525 22.5582L40.6682 33.2426L36.4592 29.0336C35.1641 27.7385 33.2215 27.7385 31.9264 29.0336C30.6313 30.3287 30.6313 32.2713 31.9264 33.5664L38.4018 40.0418C39.0493 40.6893 39.6968 41.0131 40.6682 41.0131C41.6395 41.0131 42.287 40.6893 42.9345 40.0418L55.8853 27.091C57.1804 25.7959 57.1804 23.8533 55.8853 22.5582Z" fill="white" fill-opacity="0.47"/>
</g>
<g filter="url(#filter1_i)">
<path fill-rule="evenodd" clip-rule="evenodd" d="M55.8853 22.5582C54.5902 21.2631 52.6476 21.2631 51.3525 22.5582L40.6682 33.2426L36.4592 29.0336C35.1641 27.7385 33.2215 27.7385 31.9264 29.0336C30.6313 30.3287 30.6313 32.2713 31.9264 33.5664L38.4018 40.0418C39.0493 40.6893 39.6968 41.0131 40.6682 41.0131C41.6395 41.0131 42.287 40.6893 42.9345 40.0418L55.8853 27.091C57.1804 25.7959 57.1804 23.8533 55.8853 22.5582Z" fill="white"/>
<path fill-rule="evenodd" clip-rule="evenodd" d="M55.8853 22.5582C54.5902 21.2631 52.6476 21.2631 51.3525 22.5582L40.6682 33.2426L36.4592 29.0336C35.1641 27.7385 33.2215 27.7385 31.9264 29.0336C30.6313 30.3287 30.6313 32.2713 31.9264 33.5664L38.4018 40.0418C39.0493 40.6893 39.6968 41.0131 40.6682 41.0131C41.6395 41.0131 42.287 40.6893 42.9345 40.0418L55.8853 27.091C57.1804 25.7959 57.1804 23.8533 55.8853 22.5582Z" fill="url(#paint1_linear)"/>
<path fill-rule="evenodd" clip-rule="evenodd" d="M55.8853 22.5582C54.5902 21.2631 52.6476 21.2631 51.3525 22.5582L40.6682 33.2426L36.4592 29.0336C35.1641 27.7385 33.2215 27.7385 31.9264 29.0336C30.6313 30.3287 30.6313 32.2713 31.9264 33.5664L38.4018 40.0418C39.0493 40.6893 39.6968 41.0131 40.6682 41.0131C41.6395 41.0131 42.287 40.6893 42.9345 40.0418L55.8853 27.091C57.1804 25.7959 57.1804 23.8533 55.8853 22.5582Z" fill="white" fill-opacity="0.47"/>
</g>
<defs>
<filter id="filter0_ddddddi" x="0.206791" y="21.5869" width="87.3981" height="98.7244" filterUnits="userSpaceOnUse" color-interpolation-filters="sRGB">
<feFlood flood-opacity="0" result="BackgroundImageFix"/>
<feColorMatrix in="SourceAlpha" type="matrix" values="0 0 0 0 0 0 0 0 0 0 0 0 0 0 0 0 0 0 127 0" result="hardAlpha"/>
<feOffset dy="1.3435"/>
<feGaussianBlur stdDeviation="0.425442"/>
<feColorMatrix type="matrix" values="0 0 0 0 0 0 0 0 0 0.0196078 0 0 0 0 0.262745 0 0 0 0.146196 0"/>
<feBlend mode="normal" in2="BackgroundImageFix" result="effect1_dropShadow"/>
<feColorMatrix in="SourceAlpha" type="matrix" values="0 0 0 0 0 0 0 0 0 0 0 0 0 0 0 0 0 0 127 0" result="hardAlpha"/>
<feOffset dy="3.22862"/>
<feGaussianBlur stdDeviation="1.0224"/>
<feColorMatrix type="matrix" values="0 0 0 0 0 0 0 0 0 0.0196078 0 0 0 0 0.262745 0 0 0 0.210024 0"/>
<feBlend mode="normal" in2="effect1_dropShadow" result="effect2_dropShadow"/>
<feColorMatrix in="SourceAlpha" type="matrix" values="0 0 0 0 0 0 0 0 0 0 0 0 0 0 0 0 0 0 127 0" result="hardAlpha"/>
<feOffset dy="6.0792"/>
<feGaussianBlur stdDeviation="1.92508"/>
<feColorMatrix type="matrix" values="0 0 0 0 0 0 0 0 0 0.0196078 0 0 0 0 0.262745 0 0 0 0.26 0"/>
<feBlend mode="normal" in2="effect2_dropShadow" result="effect3_dropShadow"/>
<feColorMatrix in="SourceAlpha" type="matrix" values="0 0 0 0 0 0 0 0 0 0 0 0 0 0 0 0 0 0 127 0" result="hardAlpha"/>
<feOffset dy="10.8443"/>
<feGaussianBlur stdDeviation="3.43402"/>
<feColorMatrix type="matrix" values="0 0 0 0 0 0 0 0 0 0.0196078 0 0 0 0 0.262745 0 0 0 0.309976 0"/>
<feBlend mode="normal" in2="effect3_dropShadow" result="effect4_dropShadow"/>
<feColorMatrix in="SourceAlpha" type="matrix" values="0 0 0 0 0 0 0 0 0 0 0 0 0 0 0 0 0 0 127 0" result="hardAlpha"/>
<feOffset dy="20.283"/>
<feGaussianBlur stdDeviation="6.42295"/>
<feColorMatrix type="matrix" values="0 0 0 0 0 0 0 0 0 0.0196078 0 0 0 0 0.262745 0 0 0 0.373804 0"/>
<feBlend mode="normal" in2="effect4_dropShadow" result="effect5_dropShadow"/>
<feColorMatrix in="SourceAlpha" type="matrix" values="0 0 0 0 0 0 0 0 0 0 0 0 0 0 0 0 0 0 127 0" result="hardAlpha"/>
<feOffset dy="48.5499"/>
<feGaussianBlur stdDeviation="15.3741"/>
<feColorMatrix type="matrix" values="0 0 0 0 0 0 0 0 0 0.0196078 0 0 0 0 0.262745 0 0 0 0.52 0"/>
<feBlend mode="normal" in2="effect5_dropShadow" result="effect6_dropShadow"/>
<feBlend mode="normal" in="SourceGraphic" in2="effect6_dropShadow" result="shape"/>
<feColorMatrix in="SourceAlpha" type="matrix" values="0 0 0 0 0 0 0 0 0 0 0 0 0 0 0 0 0 0 127 0" result="hardAlpha"/>
<feOffset dy="0.809165"/>
<feGaussianBlur stdDeviation="0.404583"/>
<feComposite in2="hardAlpha" operator="arithmetic" k2="-1" k3="1"/>
<feColorMatrix type="matrix" values="0 0 0 0 1 0 0 0 0 1 0 0 0 0 1 0 0 0 0.8 0"/>
<feBlend mode="normal" in2="shape" result="effect7_innerShadow"/>
</filter>
<filter id="filter1_i" x="30.9551" y="21.5869" width="25.9015" height="20.0148" filterUnits="userSpaceOnUse" color-interpolation-filters="sRGB">
<feFlood flood-opacity="0" result="BackgroundImageFix"/>
<feBlend mode="normal" in="SourceGraphic" in2="BackgroundImageFix" result="shape"/>
<feColorMatrix in="SourceAlpha" type="matrix" values="0 0 0 0 0 0 0 0 0 0 0 0 0 0 0 0 0 0 127 0" result="hardAlpha"/>
<feOffset dy="1.17734"/>
<feGaussianBlur stdDeviation="0.294336"/>
<feComposite in2="hardAlpha" operator="arithmetic" k2="-1" k3="1"/>
<feColorMatrix type="matrix" values="0 0 0 0 1 0 0 0 0 1 0 0 0 0 1 0 0 0 0.8 0"/>
<feBlend mode="normal" in2="shape" result="effect1_innerShadow"/>
</filter>
<linearGradient id="paint0_linear" x1="43.9059" y1="21.5869" x2="43.9059" y2="41.0131" gradientUnits="userSpaceOnUse">
<stop stop-color="#2144FE" stop-opacity="0.13"/>
<stop offset="1" stop-color="#2144FE" stop-opacity="0.24"/>
</linearGradient>
<linearGradient id="paint1_linear" x1="43.9059" y1="21.5869" x2="43.9059" y2="41.0131" gradientUnits="userSpaceOnUse">
<stop stop-color="#2144FE" stop-opacity="0.13"/>
<stop offset="1" stop-color="#2144FE" stop-opacity="0.24"/>
</linearGradient>
</defs>
</svg>
