<svg width="26" height="26" viewBox="0 0 26 26" fill="none" xmlns="http://www.w3.org/2000/svg">
<rect width="26" height="26" rx="6" fill="black"/>
<path d="M13.8717 6.59608C13.587 6.95341 13.3734 7.59659 13.3734 8.45417V9.59761C13.3734 9.95493 13.5158 10.3123 13.7294 10.5981L14.7972 11.9559C14.8683 11.9559 14.8683 11.9559 14.9395 11.9559C15.509 11.9559 16.0073 12.4562 16.0073 13.0279C16.0073 13.5996 15.509 14.0999 14.9395 14.0999C14.37 14.0999 13.8717 13.5996 13.8717 13.0279C13.8717 12.885 13.8717 12.7421 13.9429 12.6706L12.8751 11.3128C12.5192 10.8125 12.3057 10.2408 12.3057 9.66907V8.45417C12.3057 7.45366 12.5192 6.59608 12.9463 5.9529C13.5158 5.30972 14.1565 4.95239 15.0107 4.95239C16.3632 4.95239 17.5022 5.80997 18.0005 6.95341C19.2107 7.31073 20.1361 8.45417 20.1361 9.812C20.1361 10.0979 20.1361 10.3837 20.0649 10.6696C20.9191 11.0984 21.4886 12.0274 21.4886 13.0279C21.4886 14.0284 20.9191 14.9575 20.0649 15.3863C20.1361 15.6721 20.1361 15.958 20.1361 16.2438C20.1361 17.6017 19.2819 18.7451 18.0005 19.1024C17.5022 20.2459 16.3632 21.1034 15.0107 21.1034C14.6548 21.1034 14.2989 21.032 14.0141 20.9605L14.37 19.96C14.5836 20.0315 14.7972 20.0315 15.0107 20.0315C16.0073 20.0315 16.7904 19.3883 17.0751 18.5307L17.1463 18.2449L17.5022 18.1734C18.3564 18.0305 19.0683 17.2443 19.0683 16.3153C19.0683 15.815 18.9971 15.6721 18.9259 15.5292C18.7836 15.3148 18.4988 15.2433 18.2853 15.2433C18.0005 15.2433 17.7158 15.4577 17.5734 15.6721L16.7904 16.3868C16.8615 16.5297 16.8615 16.6726 16.8615 16.7441C16.8615 17.3158 16.3632 17.8161 15.7938 17.8161C15.2243 17.8161 14.726 17.3158 14.726 16.7441C14.726 16.1724 15.2243 15.6721 15.7938 15.6721C15.8649 15.6721 15.9361 15.6721 15.9361 15.6721L16.5768 14.886C16.9327 14.4572 17.5022 14.0999 18.0717 14.0999C18.4988 14.0284 18.9971 14.1714 19.4242 14.4572C19.9937 14.1714 20.3496 13.6711 20.3496 12.9565C20.3496 12.2418 19.9937 11.7416 19.4242 11.5272C18.9971 11.813 18.57 11.9559 18.0717 11.8845C17.5022 11.813 17.0039 11.5272 16.5768 11.0984L15.9361 10.3123C15.8649 10.3123 15.8649 10.3123 15.7938 10.3123C15.2243 10.3123 14.726 9.812 14.726 9.24028C14.726 8.66856 15.2243 8.16831 15.7938 8.16831C16.3632 8.16831 16.8615 8.66856 16.8615 9.24028C16.8615 9.38321 16.8615 9.52614 16.7904 9.59761L17.431 10.3837C17.6446 10.5981 17.9293 10.741 18.1429 10.8125C18.4276 10.8125 18.6412 10.741 18.7836 10.5266C18.9259 10.3837 18.9259 10.1693 18.9259 9.74054C18.9259 8.81149 18.2853 8.02538 17.3598 7.88245H17.1463L17.0751 7.59659C16.7904 6.73901 16.0073 6.09583 15.0107 6.09583C14.5124 6.02437 14.1565 6.23876 13.8717 6.59608Z" fill="white"/>
<path d="M4.33398 12.9562C4.33398 13.9567 4.90347 14.8858 5.7577 15.3145C5.68651 15.6004 5.68651 15.8863 5.68651 16.1721C5.68651 17.53 6.54074 18.6734 7.82208 19.0307C8.32038 20.1742 9.45935 21.0317 10.8119 21.0317C11.6661 21.0317 12.3068 20.6744 12.8051 20.0312C13.2322 19.388 13.4458 18.5305 13.4458 17.53V16.3865C13.4458 15.7433 13.2322 15.1716 12.8763 14.7428L11.8085 13.385C11.8797 13.2421 11.8797 13.0991 11.8797 13.0277C11.8797 12.456 11.3814 11.9557 10.8119 11.9557C10.2424 11.9557 9.7441 12.456 9.7441 13.0277C9.7441 13.5994 10.2424 14.0996 10.8119 14.0996C10.8831 14.0996 10.9543 14.0996 10.9543 14.0996L12.022 15.4575C12.2356 15.7433 12.378 16.1007 12.378 16.458V17.6014C12.378 18.459 12.1644 19.1022 11.8797 19.4595C11.5949 19.7454 11.239 19.9598 10.7407 19.9598C9.7441 19.9598 8.96105 19.3166 8.67631 18.459L8.60512 18.1017L8.2492 18.0302C7.39497 17.8873 6.68311 17.1012 6.68311 16.1721C6.68311 15.6719 6.7543 15.5289 6.82548 15.386C6.96785 15.1716 7.2526 15.1002 7.46615 15.1002C7.7509 15.1002 8.03564 15.3145 8.17801 15.5289L8.96105 16.3865C8.88987 16.5295 8.88987 16.6724 8.88987 16.7438C8.88987 17.3156 9.31698 17.8158 9.95765 17.8158C10.5983 17.8158 11.0254 17.3156 11.0254 16.7438C11.0254 16.1721 10.5271 15.6719 9.95765 15.6719C9.88647 15.6719 9.81528 15.6719 9.81528 15.6719L9.17461 14.8858C8.81868 14.457 8.2492 14.0996 7.67971 14.0996C7.2526 14.0282 6.7543 14.1711 6.32718 14.457C5.7577 14.2426 5.40177 13.6709 5.40177 12.9562C5.40177 12.2416 5.7577 11.7413 6.32718 11.5269C6.7543 11.8128 7.18141 11.9557 7.67971 11.8842C8.2492 11.8128 8.7475 11.5269 9.17461 11.0981L9.81528 10.312C9.88647 10.312 9.88647 10.312 9.95765 10.312C10.5271 10.312 11.0254 9.81176 11.0254 9.24004C11.0254 8.66832 10.5271 8.16807 9.95765 8.16807C9.38817 8.16807 8.88987 8.66832 8.88987 9.24004C8.88987 9.38297 8.88987 9.5259 8.96105 9.59736L8.32038 10.3835C8.10683 10.6693 7.82208 10.8123 7.60853 10.8123C7.32378 10.8123 7.11023 10.7408 6.96785 10.5264C6.7543 10.3835 6.7543 10.2405 6.7543 9.81176C6.7543 8.88271 7.39497 8.0966 8.32038 7.95367L8.60512 7.88221L8.67631 7.59635C8.96105 6.6673 9.7441 6.02412 10.7407 6.02412C10.9543 6.02412 11.1678 6.09559 11.3814 6.09559L11.7373 5.09508C11.4526 5.02361 11.0966 4.95215 10.7407 4.95215C9.38817 4.95215 8.2492 5.80973 7.7509 6.95316C6.54074 7.31049 5.61533 8.45393 5.61533 9.81176C5.61533 10.0976 5.61533 10.3835 5.68651 10.6693C4.90347 11.0981 4.33398 11.9557 4.33398 12.9562Z" fill="white"/>
</svg>
